2606429,6190,390,1283150,371,0,314098,106846
1649064,5281,325,752637,310,0,264794,89135.7
1637598,5116,318,773690,307,0,269483,88519.4
1403470,4855,323,651738,303,0,250394,87351.7
1451352,4677,321,714801,304,0,256044,87741
1551850,4667,344,794570,328,0,262940,94390.5
1384610,3316,298,765521,292,0,201969,84432.4
1474710,4252,315,722536,303,0,248643,87092.2
1535202,5329,295,713810,281,0,260629,80767.1
1337094,3570,266,677569,253,0,217386,72495.8
1539198,4774,308,731861,291,0,252285,83783.7
1377366,4038,323,747758,309,0,244011,88843.8
1506838,4936,303,736264,286,0,242152,82648.4
1456244,4327,296,741286,279,0,224421,80604.9
1546836,4789,315,744749,299,0,244352,85924.5
756984,3048,262,371442,250,0,202257,72074.1
813354,3820,257,363613,246,0,208978,70971.2
