881624,3367,305,500173,316,0,106221,39399.6
490706,2550,224,256896,242,0,81395.9,29841.7
479482,2381,241,262381,248,0,84320.5,31095.9
421926,2484,236,224056,251,0,80831.4,31009.4
433086,2433,245,242792,250,0,83754,31153.5
469374,2379,266,276419,272,0,84795.6,34022.4
431514,2157,247,249889,255,0,79908.6,31802.3
457838,2612,229,248415,238,0,82214.3,29538.9
389242,1567,196,236489,203,0,60868.5,25401.4
434684,2307,230,253824,235,0,78047.5,29423.6
405020,2107,244,245118,259,0,79558.8,32133.8
444972,2542,228,246327,231,0,78549.1,28991.1
431900,1909,216,258432,213,0,64815.1,27131.4
198118,1536,181,105399,191,0,60424.5,23743.6
187266,1398,194,107046,199,0,61100.9,24781.6
