2201091,4915,385,1098808,382,0,267526,109376
1237212,2886,308,653119,307,0,194510,87773.4
1308302,4044,331,638631,332,0,226638,94779.7
1243882,3828,327,635899,324,0,215854,92833.5
1290348,4027,299,608205,297,0,218979,84821.7
1295010,3939,319,641646,319,0,225645,91081.9
1265944,4130,290,603590,283,0,210847,81415.8
1236348,3333,305,620634,304,0,210815,86703
1200916,2725,288,647912,292,0,182684,83751.3
1271722,3762,291,625306,288,0,206911,82291.6
1308580,3329,303,621771,301,0,209732,85924.5
1272438,3479,313,623905,304,0,204197,87708.5
1225414,3671,299,637915,302,0,207823,86313.8
1227480,3493,310,611711,304,0,216469,87157.1
1225132,3266,302,620220,294,0,196966,84886.5
690194,2911,255,351797,259,0,173274,73760.8
324562,1425,202,170998,198,0,118854,56958.6
683080,2706,253,337091,250,0,178738,71490.2
706200,3095,275,343898,275,0,177757,78529
705214,2495,228,328052,226,0,160303,64386.6
701716,3036,228,322553,226,0,168246,64451.5
