124CD	542O	3.20996967584	3.20996967584
125CG	543NE1	3.40741	3.40796385889
126CB	544O	3.54758145801	3.54758145801
127OD2	540ND2	2.99492	2.99492036381
129OE1	546CG1	3.38349	3.38323478507
133ND2	548OE1	3.19437	3.19452347513
302OD1	567OG1	2.69731	2.6958895795
302OD1	569CG2	3.01485	3.01530730023
302OD1	571ND2	3.19454	3.19480888389
537CD1	55CE2	3.14251	3.14104179271
537CD1	55CE2	3.14033	3.14104179271
540ND2	126OG	2.78573	2.78616659163
540ND2	127OD2	3.00035	3.00035065624
545CD	564CG	3.40874	3.4089797441
547CD1	550OG	3.22046	3.22034169649
548OE1	133ND2	3.19235	3.19274601179
550OG	547CD1	3.21785	3.21877402302

