105NZ	98CB	3.19279	3.1927903157
132CG1	36CB	3.28348	3.28348488652
26NH2	25CB	2.45101	2.45100836392
28NE2	28CB	3.16545	3.16545194246
30CG2	30CG2	2.68535	2.68534727736
31CG2	29CB	2.94985	2.94985253869
32CG1	32CG2	2.72695	2.72694664414
33CB	31CD1	3.39714	3.39713835456
35CD2	34CG	3.40882	3.4088176836
