188OH	130CD	3.45134	3.45133829116
80CB	110OE2	2.8063	2.80629756084
80CG	148OD2	3.28317	3.2831660025
80OE2	151ND2	2.73306	2.73306000666
81NZ	139OD2	3.45818	3.45818145851
84CD	145OG1	2.87905	2.87904602256
84CG	148OD2	2.71975	2.71974815011
