24CG2  26NH1  2.86257
25CB   26NH2  2.45101
28CB   28NE2  3.16545
29CB   31CG2  2.94985
30CG2  30CG2  2.68535
31CD1  33CB   3.39714
32CG2  32CG1  2.72695
34CG   35CD2  3.40882
36CB   132CG1 3.28348
98CB   105NZ  3.19279
