ATOM 1 41N -11.073 53.977 90.302 1.00
ATOM 2 41CA -10.173 53.927 91.489 1.00
ATOM 3 41C -10.779 53.064 92.596 1.00
ATOM 4 41O -11.419 53.573 93.523 1.00
ATOM 5 41CB -9.904 55.348 92.011 1.00
ATOM 6 41CG -8.424 55.741 92.069 1.00
ATOM 7 41CD -7.725 55.536 90.722 1.00
ATOM 8 41CE -6.765 54.342 90.756 1.00
ATOM 9 41NZ -6.030 54.136 89.466 1.00
ATOM 10 42N -10.569 51.754 92.482 1.00
ATOM 11 42CA -11.066 50.780 93.452 1.00
ATOM 12 42C -9.960 49.779 93.822 1.00
ATOM 13 42O -8.770 50.085 93.688 1.00
ATOM 14 42CB -12.273 50.045 92.875 1.00
ATOM 15 43N -10.351 48.590 94.285 1.00
ATOM 16 43CA -9.398 47.539 94.682 1.00
ATOM 17 43C -9.959 46.138 94.402 1.00
ATOM 18 43O -11.174 45.962 94.335 1.00
ATOM 19 43CB -9.046 47.641 96.196 1.00
ATOM 20 43CG1 -8.902 46.244 96.814 1.00
ATOM 21 43CG2 -10.136 48.415 96.932 1.00
ATOM 22 43CD1 -7.601 45.547 96.492 1.00
ATOM 23 44N -9.081 45.145 94.255 1.00
ATOM 24 44CA -9.521 43.776 93.983 1.00
ATOM 25 44C -8.899 42.688 94.862 1.00
ATOM 26 44O -7.815 42.865 95.420 1.00
ATOM 27 44CB -9.257 43.433 92.515 1.00
ATOM 28 44CG -9.454 41.961 92.167 1.00
ATOM 29 44CD -10.908 41.540 92.321 1.00
ATOM 30 44CE -11.170 40.193 91.667 1.00
ATOM 31 44NZ -12.254 40.280 90.646 1.00
ATOM 32 45N -9.604 41.560 94.969 1.00
ATOM 33 45CA -9.156 40.406 95.747 1.00
ATOM 34 45C -8.315 39.525 94.851 1.00
ATOM 35 45O -7.767 39.988 93.855 1.00
ATOM 36 45CB -10.345 39.613 96.269 1.00
ATOM 37 46N -8.225 38.248 95.191 1.00
ATOM 38 46CA -7.419 37.345 94.392 1.00
ATOM 39 46C -8.260 36.220 93.816 1.00
ATOM 40 46O -9.474 36.156 94.032 1.00
ATOM 41 46CB -6.241 36.752 95.241 1.00
ATOM 42 46CG1 -5.231 37.854 95.566 1.00
ATOM 43 46CG2 -5.494 35.656 94.475 1.00
ATOM 44 46CD1 -3.942 37.346 96.214 1.00
ATOM 45 47N -7.596 35.362 93.048 1.00
ATOM 46 47CA -8.207 34.194 92.441 1.00
ATOM 47 47C -8.601 33.196 93.527 1.00
ATOM 48 47O -7.823 32.913 94.440 1.00
ATOM 49 47CB -7.228 33.550 91.473 1.00
ATOM 50 48N -9.817 32.670 93.417 1.00
ATOM 51 48CA -10.307 31.700 94.381 1.00
ATOM 52 48C -10.035 32.110 95.810 1.00
ATOM 53 48O -9.887 31.277 96.705 1.00
ATOM 54 49N -9.952 33.414 96.018 1.00
ATOM 55 49CA -9.701 33.932 97.336 1.00
ATOM 56 49C -10.864 34.784 97.774 1.00
ATOM 57 49O -11.359 35.627 97.026 1.00
ATOM 58 49CB -8.423 34.750 97.343 1.00
ATOM 59 49CG -7.250 34.005 97.914 1.00
ATOM 60 49CD1 -6.414 33.255 97.095 1.00
ATOM 61 49CD2 -6.951 34.078 99.270 1.00
ATOM 62 49CE1 -5.300 32.596 97.614 1.00
ATOM 63 49CE2 -5.843 33.426 99.802 1.00
ATOM 64 49CZ -5.019 32.689 98.967 1.00
ATOM 65 49OH -3.906 32.065 99.481 1.00
ATOM 66 50N -11.312 34.527 98.990 1.00
ATOM 67 50CA -12.407 35.265 99.574 1.00
ATOM 68 50C -11.767 36.291 100.505 1.00
ATOM 69 50O -10.603 36.148 100.908 1.00
ATOM 70 50CB -13.312 34.306 100.360 1.00
ATOM 71 50OG -14.522 34.927 100.764 1.00
ATOM 72 51N -12.521 37.334 100.823 1.00
ATOM 73 51CA -12.053 38.368 101.728 1.00
ATOM 74 51C -13.085 38.399 102.832 1.00
ATOM 75 51O -14.153 38.991 102.679 1.00
ATOM 76 51CB -12.000 39.755 101.050 1.00
ATOM 77 51CG1 -10.935 39.756 99.944 1.00
ATOM 78 51CG2 -11.721 40.838 102.096 1.00
ATOM 79 51CD1 -9.513 39.648 100.444 1.00
ATOM 80 52N -12.781 37.742 103.938 1.00
ATOM 81 52CA -13.725 37.732 105.032 1.00
ATOM 82 52C -13.347 38.854 105.981 1.00
ATOM 83 52O -12.195 38.964 106.392 1.00
ATOM 84 52CB -13.699 36.374 105.735 1.00
ATOM 85 52OG -14.586 35.467 105.098 1.00
ATOM 86 53N -14.318 39.697 106.306 1.00
ATOM 87 53CA -14.078 40.814 107.205 1.00
ATOM 88 53C -15.041 40.751 108.369 1.00
ATOM 89 53O -15.970 39.941 108.394 1.00
ATOM 90 53CB -14.252 42.153 106.476 1.00
ATOM 91 53CG -13.595 42.213 105.103 1.00
ATOM 92 53CD -14.488 42.897 104.081 1.00
ATOM 93 53CE -15.304 41.886 103.303 1.00
ATOM 94 53NZ -15.643 40.687 104.121 1.00
ATOM 95 54N -14.798 41.619 109.335 1.00
ATOM 96 54CA -15.621 41.716 110.523 1.00
ATOM 97 54C -14.853 42.611 111.469 1.00
ATOM 98 54O -13.663 42.871 111.264 1.00
ATOM 99 54CB -15.850 40.342 111.163 1.00
ATOM 100 54CG -14.705 39.885 111.987 1.00
ATOM 101 54CD1 -14.502 40.114 113.320 1.00
ATOM 102 54CD2 -13.579 39.140 111.530 1.00
ATOM 103 54NE1 -13.311 39.556 113.721 1.00
ATOM 104 54CE2 -12.724 38.951 112.641 1.00
ATOM 105 54CE3 -13.205 38.612 110.286 1.00
ATOM 106 54CZ2 -11.520 38.257 112.547 1.00
ATOM 107 54CZ3 -12.006 37.917 110.190 1.00
ATOM 108 54CH2 -11.179 37.748 111.316 1.00
ATOM 109 55N -15.541 43.073 112.506 1.00
ATOM 110 55CA -14.944 43.965 113.481 1.00
ATOM 111 55C -14.973 43.425 114.900 1.00
ATOM 112 55O -15.667 42.451 115.208 1.00
ATOM 113 55CB -15.677 45.304 113.447 1.00
ATOM 114 55CG -17.105 45.236 113.980 1.00
ATOM 115 55CD -18.097 44.761 112.942 1.00
ATOM 116 55OE1 -18.373 45.524 111.989 1.00
ATOM 117 55OE2 -18.599 43.623 113.081 1.00
ATOM 118 56N -14.210 44.079 115.762 1.00
ATOM 119 56CA -14.148 43.711 117.162 1.00
ATOM 120 56C -14.197 45.007 117.979 1.00
ATOM 121 56O -13.367 45.898 117.789 1.00
ATOM 122 56CB -12.863 42.929 117.443 1.00
ATOM 123 57N -15.181 45.107 118.871 1.00
ATOM 124 57CA -15.361 46.290 119.720 1.00
ATOM 125 57C -14.193 46.479 120.701 1.00
ATOM 126 57O -13.695 45.516 121.287 1.00
ATOM 127 57CB -16.702 46.179 120.477 1.00
ATOM 128 57OG -16.652 46.741 121.783 1.00
ATOM 129 58N -13.764 47.726 120.876 1.00
ATOM 130 58CA -12.649 48.042 121.772 1.00
ATOM 131 58C -12.998 47.892 123.243 1.00
ATOM 132 58O -14.143 48.116 123.633 1.00
ATOM 133 58CB -12.171 49.480 121.546 1.00
ATOM 134 58OG -12.322 50.279 122.716 1.00
ATOM 135 59N -12.035 47.499 124.064 1.00
ATOM 136 59CA -12.304 47.428 125.490 1.00
ATOM 137 59C -11.646 48.707 125.974 1.00
ATOM 138 59O -10.536 49.028 125.549 1.00
ATOM 139 59CB -11.647 46.210 126.149 1.00
ATOM 140 59CG -10.661 45.508 125.243 1.00
ATOM 141 59OD1 -10.667 44.259 125.233 1.00
ATOM 142 59OD2 -9.881 46.197 124.549 1.00
ATOM 143 60N -12.333 49.455 126.826 1.00
ATOM 144 60CA -11.785 50.705 127.334 1.00
ATOM 145 60C -10.307 50.531 127.652 1.00
ATOM 146 60O -9.862 49.436 128.004 1.00
ATOM 147 60CB -12.545 51.144 128.576 1.00
ATOM 148 61N -9.544 51.609 127.523 1.00
ATOM 149 61CA -8.117 51.548 127.792 1.00
ATOM 150 61C -7.607 52.765 128.538 1.00
ATOM 151 61O -8.291 53.784 128.650 1.00
ATOM 152 61CB -7.325 51.434 126.491 1.00
ATOM 153 61CG1 -7.651 52.625 125.590 1.00
ATOM 154 61CG2 -7.673 50.133 125.787 1.00
ATOM 155 61CD1 -6.850 53.871 125.900 1.00
ATOM 156 62N -6.384 52.649 129.035 1.00
ATOM 157 62CA -5.754 53.732 129.762 1.00
ATOM 158 62C -4.940 54.562 128.778 1.00
ATOM 159 62O -4.610 54.102 127.683 1.00
ATOM 160 62CB -4.825 53.187 130.861 1.00
ATOM 161 62OG1 -3.651 54.006 130.949 1.00
ATOM 162 62CG2 -4.427 51.740 130.548 1.00
ATOM 163 63N -4.625 55.791 129.168 1.00
ATOM 164 63CA -3.850 56.679 128.317 1.00
ATOM 165 63C -2.410 56.199 128.256 1.00
ATOM 166 63O -1.900 55.623 129.216 1.00
ATOM 167 63CB -3.903 58.100 128.860 1.00
ATOM 168 64N -1.762 56.439 127.121 1.00
ATOM 169 64CA -0.369 56.055 126.913 1.00
ATOM 170 64C -0.131 54.545 126.880 1.00
ATOM 171 64O 0.817 54.071 126.250 1.00
ATOM 172 64CB 0.518 56.704 127.980 1.00
ATOM 173 64CG 1.148 58.028 127.544 1.00
ATOM 174 64CD 0.101 59.011 127.027 1.00
ATOM 175 64CE 0.690 59.982 126.012 1.00
ATOM 176 64NZ -0.352 60.852 125.386 1.00
ATOM 177 65N -0.975 53.783 127.564 1.00
ATOM 178 65CA -0.823 52.336 127.554 1.00
ATOM 179 65C -1.441 51.759 126.278 1.00
ATOM 180 65O -2.271 52.398 125.618 1.00
ATOM 181 65CB -1.482 51.728 128.788 1.00
ATOM 182 66N -1.042 50.534 125.948 1.00
ATOM 183 66CA -1.535 49.853 124.758 1.00
ATOM 184 66C -1.995 48.434 125.108 1.00
ATOM 185 66O -1.224 47.638 125.649 1.00
ATOM 186 66CB -0.432 49.785 123.670 1.00
ATOM 187 66OG1 0.117 48.463 123.621 1.00
ATOM 188 66CG2 0.689 50.785 123.972 1.00
ATOM 189 67N -3.257 48.131 124.809 1.00
ATOM 190 67CA -3.828 46.817 125.096 1.00
ATOM 191 67C -3.589 45.851 123.933 1.00
ATOM 192 67O -2.848 46.167 123.001 1.00
ATOM 193 67CB -5.335 46.944 125.372 1.00
ATOM 194 67CG -5.642 47.812 126.584 1.00
ATOM 195 67OD1 -5.243 48.976 126.650 1.00
ATOM 196 67ND2 -6.358 47.249 127.551 1.00
ATOM 197 68N -4.202 44.669 124.005 1.00
ATOM 198 68CA -4.084 43.643 122.961 1.00
ATOM 199 68C -5.319 42.759 123.004 1.00
ATOM 200 68O -6.071 42.784 123.976 1.00
ATOM 201 68CB -2.833 42.785 123.178 1.00
ATOM 202 69N -5.530 41.975 121.956 1.00
ATOM 203 69CA -6.686 41.098 121.931 1.00
ATOM 204 69C -6.494 39.959 120.973 1.00
ATOM 205 69O -6.341 40.177 119.778 1.00
ATOM 206 69CB -7.925 41.869 121.519 1.00
ATOM 207 69CG -7.621 43.194 120.868 1.00
ATOM 208 69SD -9.028 44.281 121.022 1.00
ATOM 209 69CE -10.404 43.108 120.633 1.00
ATOM 210 70N -6.473 38.740 121.499 1.00
ATOM 211 70CA -6.328 37.589 120.628 1.00
ATOM 212 70C -7.413 37.805 119.583 1.00
ATOM 213 70O -8.296 38.665 119.745 1.00
ATOM 214 70CB -6.556 36.278 121.391 1.00
ATOM 215 70OG -5.609 35.290 121.002 1.00
ATOM 216 71N -7.344 37.055 118.492 1.00
ATOM 217 71CA -8.310 37.247 117.430 1.00
ATOM 218 71C -9.660 36.587 117.529 1.00
ATOM 219 71O -9.793 35.367 117.674 1.00
ATOM 220 71CB -7.759 36.858 116.085 1.00
ATOM 221 71CG1 -6.241 37.063 116.051 1.00
ATOM 222 71CG2 -8.497 37.649 115.028 1.00
ATOM 223 71CD1 -5.809 38.495 116.202 1.00
ATOM 224 72N -10.667 37.432 117.402 1.00
ATOM 225 72CA -12.042 37.004 117.446 1.00
ATOM 226 72C -12.365 36.451 116.062 1.00
ATOM 227 72O -13.016 37.108 115.252 1.00
ATOM 228 72CB -12.948 38.198 117.778 1.00
ATOM 229 72OG1 -12.193 39.415 117.654 1.00
ATOM 230 72CG2 -13.480 38.077 119.206 1.00
ATOM 231 73N -11.882 35.244 115.786 1.00
ATOM 232 73CA -12.123 34.614 114.496 1.00
ATOM 233 73C -13.600 34.267 114.315 1.00
ATOM 234 73O -14.287 33.914 115.278 1.00
ATOM 235 73CB -11.284 33.344 114.364 1.00
ATOM 236 73CG -11.515 32.508 113.100 1.00
ATOM 237 73CD1 -10.250 31.761 112.727 1.00
ATOM 238 73CD2 -12.647 31.530 113.334 1.00
ATOM 239 74N -14.106 34.358 113.071 1.00
ATOM 240 74CA -15.506 34.052 112.761 1.00
ATOM 241 74C -15.796 32.554 112.804 1.00
ATOM 242 74O -15.183 31.773 112.079 1.00
ATOM 243 74CB -15.713 34.631 111.356 1.00
ATOM 244 74CG -14.437 35.334 111.001 1.00
ATOM 245 74CD -13.366 34.769 111.869 1.00
ATOM 246 75N -16.741 32.169 113.655 1.00
ATOM 247 75CA -17.131 30.771 113.821 1.00
ATOM 248 75C -17.157 29.986 112.510 1.00
ATOM 249 75O -16.577 28.905 112.412 1.00
ATOM 250 75CB -18.509 30.687 114.486 1.00
ATOM 251 75CG -19.009 29.287 114.661 1.00
ATOM 252 75ND1 -18.555 28.454 115.660 1.00
ATOM 253 75CD2 -19.912 28.568 113.952 1.00
ATOM 254 75CE1 -19.154 27.280 115.559 1.00
ATOM 255 75NE2 -19.983 27.324 114.531 1.00
ATOM 256 76N -17.836 30.538 111.513 1.00
ATOM 257 76CA -17.967 29.907 110.204 1.00
ATOM 258 76C -16.669 29.285 109.702 1.00
ATOM 259 76O -16.690 28.329 108.926 1.00
ATOM 260 76CB -18.468 30.929 109.179 1.00
ATOM 261 76CG -19.621 31.797 109.673 1.00
ATOM 262 76CD -19.293 32.555 110.955 1.00
ATOM 263 76OE1 -18.442 33.469 110.908 1.00
ATOM 264 76OE2 -19.885 32.233 112.010 1.00
ATOM 265 77N -15.541 29.825 110.155 1.00
ATOM 266 77CA -14.233 29.338 109.730 1.00
ATOM 267 77C -13.391 28.823 110.889 1.00
ATOM 268 77O -12.184 28.631 110.757 1.00
ATOM 269 77CB -13.487 30.458 109.008 1.00
ATOM 270 77CG -14.282 31.757 108.834 1.00
ATOM 271 77CD1 -13.346 32.885 108.436 1.00
ATOM 272 77CD2 -15.366 31.566 107.779 1.00
ATOM 273 78N -14.037 28.603 112.027 1.00
ATOM 274 78CA -13.352 28.100 113.208 1.00
ATOM 275 78C -13.201 26.587 113.119 1.00
ATOM 276 78O -12.606 25.962 114.000 1.00
ATOM 277 78CB -14.141 28.464 114.465 1.00
ATOM 278 78OG -13.630 29.641 115.064 1.00
ATOM 279 79N -13.754 26.008 112.053 1.00
ATOM 280 79CA -13.685 24.565 111.831 1.00
ATOM 281 79C -12.261 24.206 111.466 1.00
ATOM 282 79O -11.741 24.723 110.483 1.00
ATOM 283 79CB -14.614 24.145 110.685 1.00
ATOM 284 79OG -14.462 22.764 110.378 1.00
ATOM 285 80N -11.635 23.325 112.250 1.00
ATOM 286 80CA -10.257 22.912 111.989 1.00
ATOM 287 80C -10.113 22.668 110.497 1.00
ATOM 288 80O -9.039 22.848 109.924 1.00
ATOM 289 80CB -9.909 21.636 112.768 1.00
ATOM 290 80CG -10.525 21.553 114.160 1.00
ATOM 291 80CD -9.700 22.266 115.221 1.00
ATOM 292 80OE1 -8.571 21.812 115.517 1.00
ATOM 293 80OE2 -10.188 23.282 115.762 1.00
ATOM 294 81N -11.223 22.269 109.882 1.00
ATOM 295 81CA -11.301 22.002 108.450 1.00
ATOM 296 81C -10.739 23.186 107.636 1.00
ATOM 297 81O -9.694 23.069 106.991 1.00
ATOM 298 81CB -12.765 21.746 108.072 1.00
ATOM 299 81CG -13.116 20.296 107.786 1.00
ATOM 300 81CD -13.309 20.066 106.280 1.00
ATOM 301 81CE -14.150 21.165 105.609 1.00
ATOM 302 81NZ -13.411 21.888 104.521 1.00
ATOM 303 82N -11.442 24.318 107.658 1.00
ATOM 304 82CA -10.991 25.509 106.940 1.00
ATOM 305 82C -10.108 26.327 107.874 1.00
ATOM 306 82O -9.372 27.197 107.432 1.00
ATOM 307 82CB -12.175 26.363 106.468 1.00
ATOM 308 82CG -13.515 25.852 106.978 1.00
ATOM 309 82OD1 -14.293 25.260 106.223 1.00
ATOM 310 82ND2 -13.791 26.080 108.266 1.00
ATOM 311 83N -10.186 26.044 109.170 1.00
ATOM 312 83CA -9.362 26.745 110.147 1.00
ATOM 313 83C -7.915 26.516 109.727 1.00
ATOM 314 83O -7.017 27.259 110.115 1.00
ATOM 315 83CB -9.594 26.177 111.551 1.00
ATOM 316 83CG -9.239 27.123 112.698 1.00
ATOM 317 83CD -9.059 26.372 114.027 1.00
ATOM 318 83CE -8.336 25.027 113.851 1.00
ATOM 319 83NZ -6.850 25.136 113.712 1.00
ATOM 320 84N -7.704 25.470 108.931 1.00
ATOM 321 84CA -6.380 25.128 108.415 1.00
ATOM 322 84C -6.379 25.483 106.921 1.00
ATOM 323 84O -6.052 24.658 106.070 1.00
ATOM 324 84CB -6.083 23.625 108.629 1.00
ATOM 325 84CG -4.585 23.242 108.771 1.00
ATOM 326 84CD -4.008 23.483 110.176 1.00
ATOM 327 84OE1 -4.778 23.779 111.115 1.00
ATOM 328 84OE2 -2.770 23.376 110.343 1.00
ATOM 329 85N -6.767 26.720 106.624 1.00
ATOM 330 85CA -6.819 27.226 105.253 1.00
ATOM 331 85C -5.660 28.173 105.012 1.00
ATOM 332 85O -4.952 28.546 105.949 1.00
ATOM 333 85CB -8.116 27.992 105.011 1.00
ATOM 334 85CG -9.211 27.340 104.176 1.00
ATOM 335 85CD1 -10.009 28.414 103.469 1.00
ATOM 336 85CD2 -8.592 26.387 103.178 1.00
ATOM 337 86N -5.481 28.580 103.758 1.00
ATOM 338 86CA -4.395 29.488 103.405 1.00
ATOM 339 86C -4.883 30.926 103.314 1.00
ATOM 340 86O -5.927 31.196 102.722 1.00
ATOM 341 86CB -3.764 29.070 102.071 1.00
ATOM 342 86CG -4.230 27.715 101.532 1.00
ATOM 343 86CD -3.321 27.219 100.402 1.00
ATOM 344 86CE -4.024 26.206 99.498 1.00
ATOM 345 86NZ -3.252 25.911 98.248 1.00
ATOM 346 87N -4.126 31.844 103.909 1.00
ATOM 347 87CA -4.476 33.264 103.892 1.00
ATOM 348 87C -3.692 34.004 102.813 1.00
ATOM 349 87O -2.742 33.462 102.246 1.00
ATOM 350 87CB -4.167 33.957 105.255 1.00
ATOM 351 87CG1 -4.642 33.096 106.403 1.00
ATOM 352 87CG2 -2.672 34.217 105.387 1.00
ATOM 353 88N -4.110 35.236 102.529 1.00
ATOM 354 88CA -3.427 36.056 101.544 1.00
ATOM 355 88C -3.004 37.364 102.187 1.00
ATOM 356 88O -2.672 37.419 103.378 1.00
ATOM 357 89N -2.989 38.431 101.402 1.00
ATOM 358 89CA -2.634 39.721 101.960 1.00
ATOM 359 89C -3.851 40.169 102.773 1.00
ATOM 360 89O -5.008 39.926 102.389 1.00
ATOM 361 89CB -2.316 40.721 100.851 1.00
ATOM 362 89CG -3.494 41.064 99.980 1.00
ATOM 363 89CD -3.265 40.595 98.565 1.00
ATOM 364 89NE -4.350 41.009 97.681 1.00
ATOM 365 89CZ -4.199 41.866 96.678 1.00
ATOM 366 89NH1 -3.004 42.399 96.433 1.00
ATOM 367 89NH2 -5.241 42.186 95.918 1.00
ATOM 368 90N -3.596 40.838 103.890 1.00
ATOM 369 90CA -4.683 41.259 104.753 1.00
ATOM 370 90C -4.484 42.627 105.372 1.00
ATOM 371 90O -3.362 43.026 105.683 1.00
ATOM 372 90CB -4.868 40.253 105.882 1.00
ATOM 373 90CG1 -5.917 40.758 106.845 1.00
ATOM 374 90CG2 -5.244 38.887 105.299 1.00
ATOM 375 91N -5.593 43.328 105.579 1.00
ATOM 376 91CA -5.543 44.665 106.146 1.00
ATOM 377 91C -6.514 44.909 107.300 1.00
ATOM 378 91O -7.574 44.281 107.400 1.00
ATOM 379 91CB -5.766 45.689 105.019 1.00
ATOM 380 91CG -6.786 46.841 105.043 1.00
ATOM 381 91CD1 -8.208 46.319 105.242 1.00
ATOM 382 91CD2 -6.397 47.833 106.126 1.00
ATOM 383 92N -6.125 45.851 108.157 1.00
ATOM 384 92CA -6.900 46.257 109.320 1.00
ATOM 385 92C -7.068 47.768 109.287 1.00
ATOM 386 92O -6.115 48.515 109.011 1.00
ATOM 387 92CB -6.170 45.878 110.616 1.00
ATOM 388 92CG -5.204 46.940 111.172 1.00
ATOM 389 92CD1 -5.929 47.804 112.185 1.00
ATOM 390 92CD2 -3.992 46.283 111.808 1.00
ATOM 391 93N -8.279 48.216 109.578 1.00
ATOM 392 93CA -8.564 49.634 109.619 1.00
ATOM 393 93C -9.523 49.782 110.778 1.00
ATOM 394 93O -9.972 48.774 111.336 1.00
ATOM 395 93CB -9.183 50.085 108.308 1.00
ATOM 396 93CG -10.567 49.652 108.136 1.00
ATOM 397 93CD1 -11.007 48.446 107.661 1.00
ATOM 398 93CD2 -11.729 50.433 108.408 1.00
ATOM 399 93NE1 -12.380 48.436 107.619 1.00
ATOM 400 93CE2 -12.849 49.644 108.072 1.00
ATOM 401 93CE3 -11.933 51.732 108.904 1.00
ATOM 402 93CZ2 -14.163 50.113 108.217 1.00
ATOM 403 93CZ3 -13.240 52.197 109.049 1.00
ATOM 404 93CH2 -14.337 51.387 108.706 1.00
ATOM 405 94N -9.868 51.014 111.132 1.00
ATOM 406 94CA -10.713 51.209 112.303 1.00
ATOM 407 94C -11.705 52.361 112.314 1.00
ATOM 408 94O -11.347 53.524 112.112 1.00
ATOM 409 94CB -9.799 51.351 113.515 1.00
ATOM 410 94CG -8.400 51.745 113.021 1.00
ATOM 411 94CD1 -8.415 53.214 112.655 1.00
ATOM 412 94CD2 -7.340 51.444 114.056 1.00
ATOM 413 95N -12.955 52.024 112.605 1.00
ATOM 414 95CA -13.985 53.034 112.688 1.00
ATOM 415 95C -14.063 53.400 114.151 1.00
ATOM 416 95O -14.024 52.524 115.012 1.00
ATOM 417 96N -14.154 54.690 114.442 1.00
ATOM 418 96CA -14.229 55.137 115.824 1.00
ATOM 419 96C -15.048 56.397 115.925 1.00
ATOM 420 96O -15.137 57.172 114.968 1.00
ATOM 421 96CB -12.838 55.410 116.355 1.00
ATOM 422 96CG -11.870 55.740 115.225 1.00
ATOM 423 96CD1 -12.357 56.951 114.419 1.00
ATOM 424 96CD2 -10.522 56.010 115.834 1.00
ATOM 425 97N -15.642 56.606 117.091 1.00
ATOM 426 97CA -16.452 57.782 117.287 1.00
ATOM 427 97C -15.684 58.992 116.796 1.00
ATOM 428 97O -14.451 58.999 116.782 1.00
ATOM 429 97CB -16.810 57.933 118.757 1.00
ATOM 430 97CG -18.171 57.312 119.061 1.00
ATOM 431 97CD1 -17.971 56.001 119.808 1.00
ATOM 432 97CD2 -19.023 58.288 119.866 1.00
ATOM 433 98N -16.407 60.029 116.363 1.00
ATOM 434 98CA -15.748 61.241 115.869 1.00
ATOM 435 98C -15.046 61.904 117.041 1.00
ATOM 436 98O -13.839 62.160 117.024 1.00
ATOM 437 98CB -16.908 62.089 115.355 1.00
ATOM 438 98CG -18.101 61.612 116.152 1.00
ATOM 439 98CD -17.878 60.140 116.333 1.00
ATOM 440 99N -15.857 62.158 118.059 1.00
ATOM 441 99CA -15.453 62.781 119.302 1.00
ATOM 442 99C -14.489 61.872 120.047 1.00
ATOM 443 99O -14.870 61.214 121.017 1.00
ATOM 444 99CB -16.698 63.016 120.152 1.00
ATOM 445 99OG -17.744 62.130 119.762 1.00
ATOM 446 100N -13.239 61.830 119.604 1.00
ATOM 447 100CA -12.269 60.973 120.264 1.00
ATOM 448 100C -10.923 61.648 120.550 1.00
ATOM 449 100O -10.447 62.481 119.776 1.00
ATOM 450 100CB -12.052 59.683 119.450 1.00
ATOM 451 100CG1 -11.082 58.783 120.171 1.00
ATOM 452 100CG2 -13.376 58.954 119.259 1.00
ATOM 453 101N -10.325 61.254 121.677 1.00
ATOM 454 101CA -9.049 61.771 122.183 1.00
ATOM 455 101C -7.902 62.011 121.195 1.00
ATOM 456 101O -8.096 62.095 119.981 1.00
ATOM 457 101CB -8.558 60.870 123.326 1.00
ATOM 458 102N -6.698 62.132 121.748 1.00
ATOM 459 102CA -5.518 62.371 120.939 1.00
ATOM 460 102C -5.259 61.281 119.921 1.00
ATOM 461 102O -5.655 60.131 120.112 1.00
ATOM 462 103N -4.586 61.652 118.834 1.00
ATOM 463 103CA -4.261 60.720 117.761 1.00
ATOM 464 103C -3.503 59.498 118.306 1.00
ATOM 465 103O -2.477 59.628 118.978 1.00
ATOM 466 103CB -3.441 61.442 116.663 1.00
ATOM 467 103CG -4.290 62.247 115.634 1.00
ATOM 468 103CD -3.453 63.182 114.723 1.00
ATOM 469 103NE -4.137 63.531 113.468 1.00
ATOM 470 103CZ -3.575 64.172 112.440 1.00
ATOM 471 103NH1 -2.303 64.552 112.492 1.00
ATOM 472 103NH2 -4.285 64.437 111.348 1.00
ATOM 473 104N -4.041 58.313 118.024 1.00
ATOM 474 104CA -3.454 57.050 118.459 1.00
ATOM 475 104C -3.253 56.075 117.286 1.00
ATOM 476 104O -3.789 56.276 116.190 1.00
ATOM 477 104CB -4.333 56.393 119.523 1.00
ATOM 478 104CG1 -5.302 55.403 118.862 1.00
ATOM 479 104CG2 -5.045 57.475 120.329 1.00
ATOM 480 104CD1 -6.213 56.015 117.811 1.00
ATOM 481 105N -2.511 55.001 117.529 1.00
ATOM 482 105CA -2.217 54.045 116.473 1.00
ATOM 483 105C -2.531 52.591 116.862 1.00
ATOM 484 105O -3.018 52.334 117.972 1.00
ATOM 485 105CB -0.744 54.217 116.051 1.00
ATOM 486 105CG 0.021 55.357 116.801 1.00
ATOM 487 105CD 0.174 56.669 115.979 1.00
ATOM 488 105CE 0.961 57.779 116.738 1.00
ATOM 489 105NZ 0.822 59.190 116.182 1.00
ATOM 490 106N -2.283 51.658 115.933 1.00
ATOM 491 106CA -2.545 50.224 116.144 1.00
ATOM 492 106C -2.035 49.293 115.021 1.00
ATOM 493 106O -2.094 49.625 113.830 1.00
ATOM 494 106CB -4.040 50.001 116.351 1.00
ATOM 495 107N -1.584 48.104 115.415 1.00
ATOM 496 107CA -1.038 47.119 114.478 1.00
ATOM 497 107C -1.347 45.677 114.883 1.00
ATOM 498 107O -2.313 45.412 115.599 1.00
ATOM 499 107CB 0.475 47.266 114.417 1.00
ATOM 500 107SG 1.251 46.616 115.922 1.00
ATOM 501 108N -0.488 44.758 114.440 1.00
ATOM 502 108CA -0.640 43.332 114.740 1.00
ATOM 503 108C 0.631 42.520 114.469 1.00
ATOM 504 108O 1.253 42.649 113.399 1.00
ATOM 505 108CB -1.769 42.698 113.908 1.00
ATOM 506 108CG1 -1.988 43.488 112.633 1.00
ATOM 507 108CG2 -1.415 41.267 113.571 1.00
ATOM 508 109N 0.978 41.669 115.438 1.00
ATOM 509 109CA 2.158 40.810 115.360 1.00
ATOM 510 109C 1.990 39.574 116.233 1.00
ATOM 511 109O 1.059 39.486 117.033 1.00
ATOM 512 109CB 3.404 41.580 115.800 1.00
ATOM 513 110N 2.915 38.631 116.075 1.00
ATOM 514 110CA 2.910 37.383 116.829 1.00
ATOM 515 110C 2.638 37.689 118.293 1.00
ATOM 516 110O 2.975 38.775 118.757 1.00
ATOM 517 110CB 4.271 36.688 116.690 1.00
ATOM 518 110CG 4.196 35.201 116.361 1.00
ATOM 519 110CD 3.586 34.927 114.996 1.00
ATOM 520 110OE1 4.219 35.277 113.976 1.00
ATOM 521 110OE2 2.472 34.363 114.946 1.00
ATOM 522 111N 2.020 36.742 119.002 1.00
ATOM 523 111CA 1.719 36.908 120.425 1.00
ATOM 524 111C 2.933 37.576 121.075 1.00
ATOM 525 111O 3.813 36.910 121.623 1.00
ATOM 526 111CB 1.443 35.543 121.078 1.00
ATOM 527 111CG 0.048 34.995 120.830 1.00
ATOM 528 111CD -0.154 33.671 121.549 1.00
ATOM 529 111CE -1.592 33.501 122.008 1.00
ATOM 530 111NZ -1.747 33.753 123.469 1.00
ATOM 531 112N 2.965 38.903 121.001 1.00
ATOM 532 112CA 4.061 39.704 121.527 1.00
ATOM 533 112C 4.120 39.773 123.047 1.00
ATOM 534 112O 3.146 40.145 123.706 1.00
ATOM 535 112CB 3.979 41.119 120.953 1.00
ATOM 536 112CG 5.105 41.453 120.007 1.00
ATOM 537 112CD 6.440 41.498 120.716 1.00
ATOM 538 112OE1 7.046 42.561 120.855 1.00
ATOM 539 112NE2 6.905 40.341 121.178 1.00
ATOM 540 113N 5.281 39.420 123.593 1.00
ATOM 541 113CA 5.498 39.434 125.035 1.00
ATOM 542 113C 5.358 40.850 125.577 1.00
ATOM 543 113O 4.839 41.066 126.674 1.00
ATOM 544 113CB 6.877 38.887 125.351 1.00
ATOM 545 114N 5.835 41.815 124.801 1.00
ATOM 546 114CA 5.750 43.207 125.196 1.00
ATOM 547 114C 4.720 43.922 124.330 1.00
ATOM 548 114O 4.923 44.123 123.132 1.00
ATOM 549 114CB 7.116 43.883 125.067 1.00
ATOM 550 114CG 7.574 44.575 126.339 1.00
ATOM 551 114CD 6.436 44.793 127.322 1.00
ATOM 552 114OE1 6.255 44.017 128.264 1.00
ATOM 553 114NE2 5.659 45.849 127.104 1.00
ATOM 554 115N 3.607 44.294 124.952 1.00
ATOM 555 115CA 2.518 44.979 124.267 1.00
ATOM 556 115C 2.993 46.174 123.445 1.00
ATOM 557 115O 2.615 46.331 122.281 1.00
ATOM 558 115CB 1.482 45.434 125.288 1.00
ATOM 559 116N 3.817 47.012 124.064 1.00
ATOM 560 116CA 4.340 48.210 123.422 1.00
ATOM 561 116C 5.330 47.898 122.306 1.00
ATOM 562 116O 5.342 48.567 121.269 1.00
ATOM 563 116CB 5.010 49.107 124.471 1.00
ATOM 564 116CG 4.229 50.373 124.804 1.00
ATOM 565 116CD 3.287 50.190 125.980 1.00
ATOM 566 116OE1 3.234 49.072 126.540 1.00
ATOM 567 116OE2 2.596 51.165 126.345 1.00
ATOM 568 117N 6.153 46.877 122.528 1.00
ATOM 569 117CA 7.170 46.465 121.562 1.00
ATOM 570 117C 6.596 45.924 120.259 1.00
ATOM 571 117O 7.294 45.853 119.247 1.00
ATOM 572 117CB 8.089 45.422 122.191 1.00
ATOM 573 118N 5.328 45.534 120.283 1.00
ATOM 574 118CA 4.691 45.006 119.086 1.00
ATOM 575 118C 4.696 46.058 117.986 1.00
ATOM 576 118O 4.555 45.730 116.816 1.00
ATOM 577 118CB 3.261 44.581 119.396 1.00
ATOM 578 119N 4.877 47.319 118.363 1.00
ATOM 579 119CA 4.877 48.415 117.398 1.00
ATOM 580 119C 6.224 48.692 116.746 1.00
ATOM 581 119O 6.333 49.544 115.848 1.00
ATOM 582 119CB 4.359 49.685 118.066 1.00
ATOM 583 119CG 2.902 49.628 118.393 1.00
ATOM 584 119CD1 2.475 49.172 119.633 1.00
ATOM 585 119CD2 1.951 50.010 117.449 1.00
ATOM 586 119CE1 1.118 49.093 119.930 1.00
ATOM 587 119CE2 0.589 49.937 117.732 1.00
ATOM 588 119CZ 0.172 49.478 118.973 1.00
ATOM 589 120N 7.240 47.967 117.203 1.00
ATOM 590 120CA 8.591 48.110 116.676 1.00
ATOM 591 120C 8.814 47.038 115.622 1.00
ATOM 592 120O 9.664 47.168 114.743 1.00
ATOM 593 120CB 9.622 47.949 117.796 1.00
ATOM 594 120CG 9.139 48.413 119.158 1.00
ATOM 595 120CD 10.221 49.119 119.949 1.00
ATOM 596 120OE1 10.315 50.349 119.936 1.00
ATOM 597 120NE2 11.045 48.343 120.646 1.00
ATOM 598 121N 8.035 45.973 115.718 1.00
ATOM 599 121CA 8.150 44.884 114.776 1.00
ATOM 600 121C 6.955 44.849 113.821 1.00
ATOM 601 121O 6.933 44.076 112.867 1.00
ATOM 602 121CB 8.282 43.548 115.532 1.00
ATOM 603 121CG1 6.907 42.923 115.755 1.00
ATOM 604 121CG2 9.202 42.615 114.764 1.00
ATOM 605 122N 5.965 45.699 114.077 1.00
ATOM 606 122CA 4.776 45.755 113.234 1.00
ATOM 607 122C 5.172 46.006 111.787 1.00
ATOM 608 122O 6.025 46.844 111.500 1.00
ATOM 609 122CB 3.842 46.851 113.709 1.00
ATOM 610 123N 4.526 45.275 110.887 1.00
ATOM 611 123CA 4.776 45.356 109.451 1.00
ATOM 612 123C 4.197 46.625 108.838 1.00
ATOM 613 123O 4.807 47.254 107.978 1.00
ATOM 614 123CB 4.175 44.124 108.777 1.00
ATOM 615 123CG 4.169 42.849 109.640 1.00
ATOM 616 123CD1 5.566 42.621 110.190 1.00
ATOM 617 123CD2 3.162 42.950 110.791 1.00
ATOM 618 124N 3.001 46.985 109.278 1.00
ATOM 619 124CA 2.335 48.189 108.816 1.00
ATOM 620 124C 1.524 48.615 110.021 1.00
ATOM 621 124O 1.289 47.817 110.925 1.00
ATOM 622 124CB 1.429 47.884 107.634 1.00
ATOM 623 125N 1.102 49.865 110.059 1.00
ATOM 624 125CA 0.341 50.307 111.207 1.00
ATOM 625 125C -0.724 51.329 110.878 1.00
ATOM 626 125O -0.525 52.233 110.065 1.00
ATOM 627 125CB 1.265 50.905 112.270 1.00
ATOM 628 125CG1 2.030 52.083 111.674 1.00
ATOM 629 125CG2 0.451 51.339 113.486 1.00
ATOM 630 126N -1.863 51.173 111.528 1.00
ATOM 631 126CA -2.968 52.085 111.342 1.00
ATOM 632 126C -2.754 53.299 112.244 1.00
ATOM 633 126O -2.952 53.236 113.455 1.00
ATOM 634 126CB -4.272 51.386 111.685 1.00
ATOM 635 127N -2.346 54.409 111.653 1.00
ATOM 636 127CA -2.124 55.614 112.431 1.00
ATOM 637 127C -3.314 56.547 112.259 1.00
ATOM 638 127O -3.955 56.564 111.203 1.00
ATOM 639 127CB -0.839 56.303 111.973 1.00
ATOM 640 127CG -0.428 57.440 112.888 1.00
ATOM 641 127OD1 -1.268 57.894 113.694 1.00
ATOM 642 127OD2 0.738 57.880 112.798 1.00
ATOM 643 128N -3.626 57.294 113.312 1.00
ATOM 644 128CA -4.727 58.238 113.277 1.00
ATOM 645 128C -4.231 59.577 112.737 1.00
ATOM 646 128O -4.976 60.327 112.102 1.00
ATOM 647 128CB -5.291 58.422 114.677 1.00
ATOM 648 128OG -5.674 59.769 114.880 1.00
ATOM 649 129N -2.968 59.874 113.012 1.00
ATOM 650 129CA -2.344 61.105 112.552 1.00
ATOM 651 129C -2.240 61.103 111.025 1.00
ATOM 652 129O -2.230 62.159 110.380 1.00
ATOM 653 129CB -0.948 61.233 113.172 1.00
ATOM 654 129OG -0.849 60.476 114.373 1.00
ATOM 655 130N -2.140 59.905 110.460 1.00
ATOM 656 130CA -2.039 59.736 109.018 1.00
ATOM 657 130C -3.400 59.944 108.368 1.00
ATOM 658 130O -4.424 59.927 109.042 1.00
ATOM 659 130CB -1.515 58.338 108.690 1.00
ATOM 660 130CG -0.039 58.303 108.314 1.00
ATOM 661 130CD 0.867 58.319 109.552 1.00
ATOM 662 130CE 1.511 59.693 109.774 1.00
ATOM 663 130NZ 2.672 59.672 110.722 1.00
ATOM 664 131N -3.406 60.144 107.057 1.00
ATOM 665 131CA -4.651 60.358 106.342 1.00
ATOM 666 131C -5.296 59.004 106.088 1.00
ATOM 667 131O -6.483 58.903 105.777 1.00
ATOM 668 131CB -4.361 61.099 105.038 1.00
ATOM 669 131CG -3.230 62.130 105.169 1.00
ATOM 670 131CD -3.724 63.547 105.469 1.00
ATOM 671 131OE1 -4.651 64.009 104.762 1.00
ATOM 672 131OE2 -3.184 64.197 106.403 1.00
ATOM 673 132N -4.480 57.969 106.234 1.00
ATOM 674 132CA -4.888 56.585 106.050 1.00
ATOM 675 132C -4.838 55.861 107.408 1.00
ATOM 676 132O -3.768 55.476 107.904 1.00
ATOM 677 132CB -3.929 55.890 105.065 1.00
ATOM 678 132CG1 -4.513 55.922 103.666 1.00
ATOM 679 132CG2 -2.564 56.595 105.086 1.00
ATOM 680 133N -5.999 55.712 108.029 1.00
ATOM 681 133CA -6.079 55.045 109.317 1.00
ATOM 682 133C -6.226 53.548 109.111 1.00
ATOM 683 133O -7.279 52.962 109.391 1.00
ATOM 684 133CB -7.272 55.567 110.137 1.00
ATOM 685 133CG1 -6.907 56.901 110.781 1.00
ATOM 686 133CG2 -8.503 55.709 109.238 1.00
ATOM 687 134N -5.157 52.935 108.618 1.00
ATOM 688 134CA -5.150 51.505 108.364 1.00
ATOM 689 134C -3.760 51.035 108.005 1.00
ATOM 690 134O -2.867 51.837 107.722 1.00
ATOM 691 134CB -6.105 51.167 107.248 1.00
ATOM 692 135N -3.591 49.719 108.030 1.00
ATOM 693 135CA -2.318 49.087 107.720 1.00
ATOM 694 135C -2.520 47.925 106.737 1.00
ATOM 695 135O -3.446 47.121 106.894 1.00
ATOM 696 135CB -1.669 48.586 109.018 1.00
ATOM 697 136N -1.644 47.840 105.734 1.00
ATOM 698 136CA -1.716 46.790 104.720 1.00
ATOM 699 136C -0.679 45.694 104.946 1.00
ATOM 700 136O 0.531 45.922 104.827 1.00
ATOM 701 136CB -1.518 47.397 103.326 1.00
ATOM 702 136CG -1.970 46.498 102.179 1.00
ATOM 703 136SD -3.506 45.603 102.530 1.00
ATOM 704 136CE -2.893 43.929 102.773 1.00
ATOM 705 137N -1.157 44.500 105.270 1.00
ATOM 706 137CA -0.263 43.388 105.507 1.00
ATOM 707 137C -0.236 42.466 104.285 1.00
ATOM 708 137O -0.577 41.271 104.336 1.00
ATOM 709 137CB -0.685 42.683 106.795 1.00
ATOM 710 137CG -0.624 43.606 108.013 1.00
ATOM 711 137CD1 -1.628 44.548 108.257 1.00
ATOM 712 137CD2 0.434 43.532 108.924 1.00
ATOM 713 137CE1 -1.576 45.388 109.383 1.00
ATOM 714 137CE2 0.491 44.367 110.050 1.00
ATOM 715 137CZ -0.512 45.288 110.272 1.00
ATOM 716 137OH -0.457 46.092 111.391 1.00
ATOM 717 138N 0.181 43.076 103.176 1.00
ATOM 718 138CA 0.304 42.402 101.895 1.00
ATOM 719 138C 1.491 41.478 101.989 1.00
ATOM 720 138O 2.523 41.852 102.546 1.00
ATOM 721 138CB 0.590 43.382 100.734 1.00
ATOM 722 138OG1 0.705 44.720 101.240 1.00
ATOM 723 138CG2 -0.513 43.311 99.690 1.00
ATOM 724 139N 1.344 40.274 101.449 1.00
ATOM 725 139CA 2.423 39.290 101.450 1.00
ATOM 726 139C 3.150 39.157 102.789 1.00
ATOM 727 139O 4.150 38.442 102.893 1.00
ATOM 728 139CB 3.438 39.639 100.359 1.00
ATOM 729 139CG 4.103 40.985 100.589 1.00
ATOM 730 139OD1 3.623 41.985 100.014 1.00
ATOM 731 139OD2 5.101 41.045 101.342 1.00
ATOM 732 140N 2.651 39.841 103.811 1.00
ATOM 733 140CA 3.273 39.788 105.124 1.00
ATOM 734 140C 2.865 38.491 105.787 1.00
ATOM 735 140O 3.599 37.918 106.597 1.00
ATOM 736 140CB 2.818 40.967 105.955 1.00
ATOM 737 141N 1.681 38.028 105.416 1.00
ATOM 738 141CA 1.142 36.805 105.966 1.00
ATOM 739 141C 0.709 35.911 104.846 1.00
ATOM 740 141O 0.329 34.762 105.065 1.00
ATOM 741 141CB -0.024 37.147 106.863 1.00
ATOM 742 141CG 0.363 38.036 107.989 1.00
ATOM 743 141CD1 -0.224 39.281 108.149 1.00
ATOM 744 141CD2 1.350 37.635 108.884 1.00
ATOM 745 141CE1 0.168 40.121 109.190 1.00
ATOM 746 141CE2 1.749 38.464 109.925 1.00
ATOM 747 141CZ 1.154 39.712 110.079 1.00
ATOM 748 142N 0.769 36.459 103.638 1.00
ATOM 749 142CA 0.411 35.718 102.446 1.00
ATOM 750 142C 0.921 34.295 102.648 1.00
ATOM 751 142O 2.129 34.069 102.760 1.00
ATOM 752 142CB 1.065 36.365 101.208 1.00
ATOM 753 142CG 0.821 35.653 99.873 1.00
ATOM 754 142CD -0.005 36.499 98.905 1.00
ATOM 755 142NE 0.823 37.381 98.089 1.00
ATOM 756 142CZ 0.737 38.706 98.107 1.00
ATOM 757 142NH1 -0.139 39.306 98.901 1.00
ATOM 758 142NH2 1.526 39.434 97.333 1.00
ATOM 759 143N -0.017 33.354 102.748 1.00
ATOM 760 143CA 0.328 31.952 102.923 1.00
ATOM 761 143C 0.478 31.468 104.353 1.00
ATOM 762 143O 1.572 31.086 104.774 1.00
ATOM 763 144N -0.616 31.459 105.102 1.00
ATOM 764 144CA -0.547 31.011 106.481 1.00
ATOM 765 144C -1.865 30.409 106.957 1.00
ATOM 766 144O -2.943 30.804 106.501 1.00
ATOM 767 144CB -0.136 32.176 107.377 1.00
ATOM 768 145N -1.766 29.442 107.869 1.00
ATOM 769 145CA -2.940 28.773 108.422 1.00
ATOM 770 145C -3.960 29.809 108.861 1.00
ATOM 771 145O -3.641 30.747 109.597 1.00
ATOM 772 145CB -2.579 27.904 109.660 1.00
ATOM 773 145OG1 -1.580 26.941 109.304 1.00
ATOM 774 145CG2 -3.812 27.180 110.192 1.00
ATOM 775 146N -5.190 29.644 108.398 1.00
ATOM 776 146CA -6.248 30.561 108.776 1.00
ATOM 777 146C -6.383 30.499 110.293 1.00
ATOM 778 146O -6.934 31.397 110.916 1.00
ATOM 779 146CB -7.573 30.152 108.125 1.00
ATOM 780 146CG -8.027 30.898 106.864 1.00
ATOM 781 146CD1 -9.512 30.658 106.653 1.00
ATOM 782 146CD2 -7.749 32.386 106.990 1.00
ATOM 783 147N -5.875 29.426 110.884 1.00
ATOM 784 147CA -5.959 29.283 112.322 1.00
ATOM 785 147C -4.671 29.701 112.991 1.00
ATOM 786 147O -4.551 29.651 114.214 1.00
ATOM 787 148N -3.701 30.112 112.183 1.00
ATOM 788 148CA -2.414 30.537 112.709 1.00
ATOM 789 148C -2.624 31.800 113.526 1.00
ATOM 790 148O -2.437 31.827 114.744 1.00
ATOM 791 148CB -1.439 30.803 111.557 1.00
ATOM 792 148CG -0.621 29.567 111.188 1.00
ATOM 793 148OD1 -0.671 28.563 111.938 1.00
ATOM 794 148OD2 0.068 29.596 110.144 1.00
ATOM 795 149N -3.027 32.845 112.826 1.00
ATOM 796 149CA -3.297 34.146 113.418 1.00
ATOM 797 149C -3.780 34.084 114.862 1.00
ATOM 798 149O -3.373 34.896 115.682 1.00
ATOM 799 149CB -4.339 34.851 112.563 1.00
ATOM 800 149CG -5.049 33.783 111.722 1.00
ATOM 801 149CD1 -6.480 34.180 111.523 1.00
ATOM 802 149CD2 -4.349 33.596 110.385 1.00
ATOM 803 150N -4.648 33.126 115.168 1.00
ATOM 804 150CA -5.177 32.996 116.518 1.00
ATOM 805 150C -4.089 33.219 117.556 1.00
ATOM 806 150O -4.272 33.985 118.509 1.00
ATOM 807 150CB -5.808 31.620 116.710 1.00
ATOM 808 150CG -7.325 31.577 116.507 1.00
ATOM 809 150CD1 -7.997 32.784 117.165 1.00
ATOM 810 150CD2 -7.617 31.546 115.018 1.00
ATOM 811 151N -2.961 32.539 117.370 1.00
ATOM 812 151CA -1.824 32.689 118.270 1.00
ATOM 813 151C -1.118 33.936 117.771 1.00
ATOM 814 151O 0.014 33.889 117.285 1.00
ATOM 815 151CB -0.892 31.480 118.172 1.00
ATOM 816 151CG -0.615 31.070 116.740 1.00
ATOM 817 151OD1 -0.215 31.890 115.912 1.00
ATOM 818 151ND2 -0.832 29.795 116.438 1.00
ATOM 819 152N -1.815 35.060 117.879 1.00
ATOM 820 152CA -1.280 36.325 117.419 1.00
ATOM 821 152C -2.340 37.395 117.663 1.00
ATOM 822 152O -3.379 37.441 117.007 1.00
ATOM 823 152CB -0.888 36.212 115.933 1.00
ATOM 824 152CG -1.319 37.251 114.894 1.00
ATOM 825 152CD1 -0.830 38.623 115.304 1.00
ATOM 826 152CD2 -0.757 36.884 113.528 1.00
ATOM 827 153N -2.058 38.243 118.644 1.00
ATOM 828 153CA -2.950 39.321 119.040 1.00
ATOM 829 153C -2.814 40.578 118.173 1.00
ATOM 830 153O -2.031 40.647 117.212 1.00
ATOM 831 153CB -2.694 39.701 120.513 1.00
ATOM 832 153CG -3.161 38.662 121.529 1.00
ATOM 833 153CD -2.147 37.542 121.758 1.00
ATOM 834 153OE1 -2.497 36.355 121.786 1.00
ATOM 835 153NE2 -0.886 37.919 121.927 1.00
ATOM 836 154N -3.596 41.580 118.543 1.00
ATOM 837 154CA -3.612 42.857 117.853 1.00
ATOM 838 154C -3.330 43.922 118.887 1.00
ATOM 839 154O -3.881 43.872 119.986 1.00
ATOM 840 154CB -4.980 43.131 117.273 1.00
ATOM 841 154CG1 -5.647 41.810 116.889 1.00
ATOM 842 154CG2 -4.852 44.066 116.101 1.00
ATOM 843 154CD1 -6.971 41.552 117.593 1.00
ATOM 844 155N -2.505 44.899 118.531 1.00
ATOM 845 155CA -2.132 45.940 119.477 1.00
ATOM 846 155C -2.664 47.333 119.160 1.00
ATOM 847 155O -2.699 47.745 117.999 1.00
ATOM 848 155CB -0.602 45.945 119.600 1.00
ATOM 849 155CG -0.084 44.556 119.883 1.00
ATOM 850 155CD1 0.062 44.110 121.197 1.00
ATOM 851 155CD2 0.116 43.639 118.844 1.00
ATOM 852 155CE1 0.377 42.786 121.477 1.00
ATOM 853 155CE2 0.433 42.308 119.115 1.00
ATOM 854 155CZ 0.553 41.888 120.437 1.00
ATOM 855 155OH 0.803 40.569 120.733 1.00
ATOM 856 156N -3.078 48.048 120.210 1.00
ATOM 857 156CA -3.631 49.403 120.097 1.00
ATOM 858 156C -3.130 50.334 121.213 1.00
ATOM 859 156O -3.170 49.987 122.396 1.00
ATOM 860 156CB -5.162 49.347 120.136 1.00
ATOM 861 156CG -5.849 48.234 120.955 1.00
ATOM 862 156CD1 -5.597 46.865 120.330 1.00
ATOM 863 156CD2 -5.352 48.260 122.388 1.00
ATOM 864 157N -2.654 51.515 120.838 1.00
ATOM 865 157CA -2.156 52.465 121.825 1.00
ATOM 866 157C -3.008 53.720 121.767 1.00
ATOM 867 157O -3.632 53.994 120.744 1.00
ATOM 868 157CB -0.693 52.814 121.541 1.00
ATOM 869 157CG -0.316 54.214 121.960 1.00
ATOM 870 157CD1 -0.430 55.282 121.069 1.00
ATOM 871 157CD2 0.126 54.479 123.252 1.00
ATOM 872 157CE1 -0.114 56.582 121.458 1.00
ATOM 873 157CE2 0.444 55.776 123.651 1.00
ATOM 874 157CZ 0.321 56.822 122.749 1.00
ATOM 875 157OH 0.633 58.105 123.135 1.00
ATOM 876 158N -3.039 54.471 122.865 1.00
ATOM 877 158CA -3.825 55.695 122.919 1.00
ATOM 878 158C -3.151 56.832 123.668 1.00
ATOM 879 158O -2.548 56.636 124.721 1.00
ATOM 880 158CB -5.169 55.406 123.550 1.00
ATOM 881 159N -3.296 58.032 123.123 1.00
ATOM 882 159CA -2.732 59.213 123.742 1.00
ATOM 883 159C -3.469 59.422 125.061 1.00
ATOM 884 159O -2.854 59.449 126.123 1.00
ATOM 885 159CB -2.921 60.420 122.823 1.00
ATOM 886 159OG -3.223 59.998 121.504 1.00
ATOM 887 160N -4.790 59.549 124.988 1.00
ATOM 888 160CA -5.606 59.748 126.183 1.00
ATOM 889 160C -6.414 58.495 126.475 1.00
ATOM 890 160O -6.911 57.846 125.555 1.00
ATOM 891 160CB -6.563 60.930 125.989 1.00
ATOM 892 160CG -5.949 62.289 126.286 1.00
ATOM 893 160CD -5.391 62.965 125.043 1.00
ATOM 894 160OE1 -4.340 62.516 124.538 1.00
ATOM 895 160OE2 -6.002 63.947 124.572 1.00
ATOM 896 161N -6.544 58.158 127.754 1.00
ATOM 897 161CA -7.304 56.979 128.154 1.00
ATOM 898 161C -8.633 57.043 127.423 1.00
ATOM 899 161O -9.059 58.121 127.001 1.00
ATOM 900 161CB -7.527 56.973 129.664 1.00
ATOM 901 162N -9.294 55.904 127.266 1.00
ATOM 902 162CA -10.555 55.929 126.554 1.00
ATOM 903 162C -11.483 54.728 126.739 1.00
ATOM 904 162O -11.038 53.588 126.868 1.00
ATOM 905 162CB -10.297 56.153 125.057 1.00
ATOM 906 162CG1 -11.131 55.185 124.228 1.00
ATOM 907 162CG2 -10.603 57.605 124.701 1.00
ATOM 908 163N -12.801 54.993 126.728 1.00
ATOM 909 163CA -13.936 54.075 126.880 1.00
ATOM 910 163C -13.887 52.774 126.104 1.00
ATOM 911 163O -13.037 52.571 125.236 1.00
ATOM 912 163CB -15.134 54.909 126.454 1.00
ATOM 913 163CG -14.736 56.300 126.748 1.00
ATOM 914 163CD -13.257 56.382 126.537 1.00
ATOM 915 164N -14.827 51.899 126.437 1.00
ATOM 916 164CA -14.954 50.605 125.790 1.00
ATOM 917 164C -15.944 50.781 124.657 1.00
ATOM 918 164O -16.692 51.761 124.635 1.00
ATOM 919 164CB -15.464 49.568 126.777 1.00
ATOM 920 165N -15.953 49.832 123.724 1.00
ATOM 921 165CA -16.840 49.909 122.573 1.00
ATOM 922 165C -16.716 51.345 122.063 1.00
ATOM 923 165O -17.586 51.853 121.357 1.00
ATOM 924 165CB -18.285 49.593 122.990 1.00
ATOM 925 165CG -18.430 48.324 123.813 1.00
ATOM 926 165CD -19.515 47.421 123.250 1.00
ATOM 927 165CE -20.668 47.267 124.229 1.00
ATOM 928 165NZ -21.895 46.748 123.563 1.00
ATOM 929 166N -15.612 51.984 122.443 1.00
ATOM 930 166CA -15.317 53.364 122.081 1.00
ATOM 931 166C -14.785 53.442 120.658 1.00
ATOM 932 166O -14.738 54.515 120.041 1.00
ATOM 933 166CB -14.302 53.937 123.052 1.00
ATOM 934 167N -14.368 52.290 120.150 1.00
ATOM 935 167CA -13.864 52.193 118.794 1.00
ATOM 936 167C -13.814 50.738 118.358 1.00
ATOM 937 167O -13.523 49.841 119.150 1.00
ATOM 938 167CB -12.465 52.784 118.687 1.00
ATOM 939 167CG1 -11.600 52.180 119.753 1.00
ATOM 940 167CG2 -11.880 52.508 117.311 1.00
ATOM 941 168N -14.117 50.516 117.089 1.00
ATOM 942 168CA -14.099 49.185 116.533 1.00
ATOM 943 168C -12.928 49.127 115.573 1.00
ATOM 944 168O -12.249 50.126 115.340 1.00
ATOM 945 168CB -15.407 48.904 115.782 1.00
ATOM 946 168CG1 -15.301 49.375 114.344 1.00
ATOM 947 168CG2 -15.735 47.429 115.862 1.00
ATOM 948 169N -12.707 47.954 115.005 1.00
ATOM 949 169CA -11.630 47.767 114.055 1.00
ATOM 950 169C -12.046 46.633 113.162 1.00
ATOM 951 169O -12.504 45.585 113.627 1.00
ATOM 952 169CB -10.323 47.374 114.725 1.00
ATOM 953 169CG1 -10.594 46.338 115.812 1.00
ATOM 954 169CG2 -9.354 46.830 113.662 1.00
ATOM 955 170N -11.881 46.842 111.871 1.00
ATOM 956 170CA -12.277 45.832 110.931 1.00
ATOM 957 170C -11.067 45.172 110.340 1.00
ATOM 958 170O -9.998 45.784 110.217 1.00
ATOM 959 170CB -13.165 46.476 109.875 1.00
ATOM 960 170CG -14.093 47.511 110.441 1.00
ATOM 961 170ND1 -15.466 47.379 110.412 1.00
ATOM 962 170CD2 -13.841 48.683 111.079 1.00
ATOM 963 170CE1 -16.018 48.423 111.005 1.00
ATOM 964 170NE2 -15.055 49.228 111.418 1.00
ATOM 965 171N -11.262 43.910 109.985 1.00
ATOM 966 171CA -10.220 43.097 109.421 1.00
ATOM 967 171C -10.624 42.498 108.108 1.00
ATOM 968 171O -11.375 41.528 108.061 1.00
ATOM 969 171CB -9.860 41.986 110.389 1.00
ATOM 970 171CG -8.407 42.256 110.714 1.00
ATOM 971 171CD1 -7.607 42.262 109.405 1.00
ATOM 972 171CD2 -8.290 43.611 111.422 1.00
ATOM 973 172N -10.146 43.104 107.036 1.00
ATOM 974 172CA -10.436 42.611 105.709 1.00
ATOM 975 172C -9.311 41.633 105.413 1.00
ATOM 976 172O -8.168 42.038 105.175 1.00
ATOM 977 172CB -10.437 43.776 104.721 1.00
ATOM 978 172CG -11.105 45.029 105.271 1.00
ATOM 979 172CD -12.140 45.596 104.328 1.00
ATOM 980 172OE1 -12.578 44.872 103.409 1.00
ATOM 981 172OE2 -12.515 46.770 104.510 1.00
ATOM 982 173N -9.633 40.344 105.427 1.00
ATOM 983 173CA -8.615 39.334 105.193 1.00
ATOM 984 173C -8.833 38.431 104.004 1.00
ATOM 985 173O -9.924 37.860 103.800 1.00
ATOM 986 173CB -8.400 38.422 106.435 1.00
ATOM 987 173CG1 -9.484 38.667 107.466 1.00
ATOM 988 173CG2 -8.364 36.945 106.009 1.00
ATOM 989 174N -7.760 38.298 103.234 1.00
ATOM 990 174CA -7.770 37.441 102.080 1.00
ATOM 991 174C -7.472 36.047 102.575 1.00
ATOM 992 174O -6.629 35.850 103.457 1.00
ATOM 993 174CB -6.706 37.861 101.090 1.00
ATOM 994 174CG -7.017 37.404 99.700 1.00
ATOM 995 174CD -6.201 38.139 98.687 1.00
ATOM 996 174OE1 -6.792 38.624 97.697 1.00
ATOM 997 174OE2 -4.971 38.230 98.895 1.00
ATOM 998 175N -8.189 35.089 102.013 1.00
ATOM 999 175CA -8.028 33.696 102.368 1.00
ATOM 1000 175C -8.736 32.945 101.273 1.00
ATOM 1001 175O -9.645 33.476 100.643 1.00
ATOM 1002 175CB -8.677 33.406 103.721 1.00
ATOM 1003 175CG -10.160 33.600 103.734 1.00
ATOM 1004 175ND1 -11.044 32.590 103.414 1.00
ATOM 1005 175CD2 -10.915 34.683 104.031 1.00
ATOM 1006 175CE1 -12.281 33.043 103.513 1.00
ATOM 1007 175NE2 -12.231 34.311 103.886 1.00
ATOM 1008 176N -8.307 31.723 101.020 1.00
ATOM 1009 176CA -8.930 30.932 99.976 1.00
ATOM 1010 176C -10.375 30.621 100.355 1.00
ATOM 1011 176O -10.648 30.282 101.505 1.00
ATOM 1012 176CB -8.160 29.630 99.778 1.00
ATOM 1013 176CG1 -6.956 29.884 98.899 1.00
ATOM 1014 176CG2 -7.713 29.085 101.130 1.00
ATOM 1015 177N -11.309 30.753 99.421 1.00
ATOM 1016 177CA -12.696 30.427 99.739 1.00
ATOM 1017 177C -12.680 28.913 99.991 1.00
ATOM 1018 177O -11.918 28.195 99.350 1.00
ATOM 1019 177CB -13.614 30.778 98.556 1.00
ATOM 1020 177CG -12.928 31.558 97.433 1.00
ATOM 1021 177CD -13.929 32.249 96.508 1.00
ATOM 1022 177NE -14.031 31.598 95.199 1.00
ATOM 1023 177CZ -13.678 32.160 94.045 1.00
ATOM 1024 177NH1 -13.191 33.394 94.024 1.00
ATOM 1025 177NH2 -13.821 31.490 92.905 1.00
ATOM 1026 178N -13.492 28.409 100.939 1.00
ATOM 1027 178CA -13.497 26.963 101.204 1.00
ATOM 1028 178C -14.361 26.133 100.249 1.00
ATOM 1029 178O -14.466 26.437 99.061 1.00
ATOM 1030 178CB -13.984 26.870 102.642 1.00
ATOM 1031 178CG -14.916 28.036 102.770 1.00
ATOM 1032 178CD -14.425 29.124 101.825 1.00
ATOM 1033 179N -14.990 25.090 100.781 1.00
ATOM 1034 179CA -15.819 24.203 99.969 1.00
ATOM 1035 179C -17.315 24.495 99.973 1.00
ATOM 1036 179O -17.825 25.140 99.057 1.00
ATOM 1037 179CB -15.630 22.749 100.401 1.00
ATOM 1038 179OG1 -14.374 22.617 101.079 1.00
ATOM 1039 179CG2 -15.668 21.832 99.190 1.00
ATOM 1040 180N -18.006 24.001 101.001 1.00
ATOM 1041 180CA -19.455 24.163 101.148 1.00
ATOM 1042 180C -20.020 25.393 100.456 1.00
ATOM 1043 180O -21.093 25.333 99.857 1.00
ATOM 1044 180CB -19.845 24.199 102.633 1.00
ATOM 1045 180CG -21.340 24.100 102.881 1.00
ATOM 1046 180CD1 -21.930 22.877 103.205 1.00
ATOM 1047 180CD2 -22.152 25.234 102.818 1.00
ATOM 1048 180CE1 -23.303 22.787 103.464 1.00
ATOM 1049 180CE2 -23.528 25.152 103.075 1.00
ATOM 1050 180CZ -24.101 23.928 103.399 1.00
ATOM 1051 181N -19.295 26.501 100.561 1.00
ATOM 1052 181CA -19.681 27.770 99.960 1.00
ATOM 1053 181C -20.936 27.733 99.084 1.00
ATOM 1054 181O -21.848 28.540 99.270 1.00
ATOM 1055 181CB -18.508 28.328 99.143 1.00
ATOM 1056 181CG -17.877 29.556 99.784 1.00
ATOM 1057 181OD1 -18.172 29.832 100.968 1.00
ATOM 1058 181OD2 -17.086 30.246 99.100 1.00
ATOM 1059 182N -20.993 26.797 98.139 1.00
ATOM 1060 182CA -22.138 26.716 97.240 1.00
ATOM 1061 182C -22.958 25.421 97.183 1.00
ATOM 1062 182O -23.321 24.975 96.094 1.00
ATOM 1063 182CB -21.698 27.079 95.817 1.00
ATOM 1064 182CG -20.810 28.307 95.774 1.00
ATOM 1065 182OD1 -19.581 28.162 95.944 1.00
ATOM 1066 182OD2 -21.342 29.419 95.565 1.00
ATOM 1067 183N -23.243 24.805 98.328 1.00
ATOM 1068 183CA -24.079 23.598 98.346 1.00
ATOM 1069 183C -24.549 23.252 99.756 1.00
ATOM 1070 183O -23.768 23.266 100.700 1.00
ATOM 1071 183CB -23.378 22.394 97.685 1.00
ATOM 1072 183CG -21.956 22.200 98.103 1.00
ATOM 1073 183CD1 -21.592 21.098 98.866 1.00
ATOM 1074 183CD2 -20.970 23.097 97.710 1.00
ATOM 1075 183CE1 -20.261 20.888 99.233 1.00
ATOM 1076 183CE2 -19.636 22.898 98.071 1.00
ATOM 1077 183CZ -19.282 21.791 98.834 1.00
ATOM 1078 184N -25.842 22.954 99.879 1.00
ATOM 1079 184CA -26.477 22.638 101.158 1.00
ATOM 1080 184C -25.882 21.501 101.964 1.00
ATOM 1081 184O -24.912 20.854 101.566 1.00
ATOM 1082 184CB -27.962 22.347 100.951 1.00
ATOM 1083 184CG -28.809 23.578 100.841 1.00
ATOM 1084 184CD1 -29.199 24.060 99.594 1.00
ATOM 1085 184CD2 -29.217 24.259 101.981 1.00
ATOM 1086 184CE1 -29.987 25.209 99.480 1.00
ATOM 1087 184CE2 -30.004 25.411 101.880 1.00
ATOM 1088 184CZ -30.390 25.886 100.624 1.00
ATOM 1089 185N -26.501 21.259 103.109 1.00
ATOM 1090 185CA -26.057 20.213 104.007 1.00
ATOM 1091 185C -26.962 18.996 103.925 1.00
ATOM 1092 185O -28.181 19.122 103.773 1.00
ATOM 1093 185CB -26.068 20.695 105.467 1.00
ATOM 1094 185OG1 -27.365 20.457 106.030 1.00
ATOM 1095 185CG2 -25.752 22.182 105.551 1.00
ATOM 1096 186N -26.373 17.793 104.007 1.00
ATOM 1097 186CA -27.193 16.581 103.949 1.00
ATOM 1098 186C -28.287 16.649 105.014 1.00
ATOM 1099 186O -28.004 16.814 106.202 1.00
ATOM 1100 186CB -26.197 15.447 104.224 1.00
ATOM 1101 186CG -24.943 16.115 104.723 1.00
ATOM 1102 186CD -24.938 17.487 104.126 1.00
ATOM 1103 187N -29.536 16.545 104.581 1.00
ATOM 1104 187CA -30.658 16.583 105.505 1.00
ATOM 1105 187C -30.574 15.405 106.447 1.00
ATOM 1106 187O -31.059 15.474 107.584 1.00
ATOM 1107 187CB -31.989 16.470 104.776 1.00
ATOM 1108 187CG1 -32.597 17.840 104.617 1.00
ATOM 1109 187CG2 -31.788 15.794 103.428 1.00
ATOM 1110 188N -29.976 14.316 105.961 1.00
ATOM 1111 188CA -29.839 13.123 106.776 1.00
ATOM 1112 188C -28.778 13.312 107.821 1.00
ATOM 1113 188O -27.579 13.267 107.536 1.00
ATOM 1114 188CB -29.488 11.889 105.958 1.00
ATOM 1115 188CG -29.698 10.629 106.774 1.00
ATOM 1116 188CD1 -28.979 9.464 106.510 1.00
ATOM 1117 188CD2 -30.606 10.614 107.837 1.00
ATOM 1118 188CE1 -29.161 8.312 107.287 1.00
ATOM 1119 188CE2 -30.794 9.475 108.617 1.00
ATOM 1120 188CZ -30.069 8.329 108.338 1.00
ATOM 1121 188OH -30.256 7.206 109.115 1.00
ATOM 1122 189N -29.248 13.521 109.042 1.00
ATOM 1123 189CA -28.389 13.735 110.187 1.00
ATOM 1124 189C -28.659 12.627 111.193 1.00
ATOM 1125 189O -29.817 12.149 111.247 1.00
ATOM 1126 189CB -28.693 15.102 110.808 1.00
ATOM 1127 189CG -30.019 15.745 110.348 1.00
ATOM 1128 189CD -30.052 17.223 110.713 1.00
ATOM 1129 189NE -28.842 17.584 111.450 1.00
ATOM 1130 189CZ -28.738 17.580 112.779 1.00
ATOM 1131 189NH1 -29.781 17.236 113.524 1.00
ATOM 1132 189NH2 -27.584 17.892 113.365 1.00
ATOM 1133 189OXT -27.711 12.248 111.908 1.00
