\relax 
\@writefile{toc}{\contentsline {section}{\numberline {1}Model of predicting crucial interaction}{1}}
\newlabel{sec:model}{{1}{1}}
\@writefile{lof}{\contentsline {figure}{\numberline {1}{\ignorespaces Different bi-molecular assembly of two hexamer with via different interface: (a) dimer, highlight in red (b) trimer3, highlight in yellow \relax }}{2}}
\providecommand*\caption@xref[2]{\@setref\relax\@undefined{#1}}
\newlabel{fig:bi-molecular_assembly}{{1}{2}}
\@writefile{lof}{\contentsline {figure}{\numberline {2}{\ignorespaces Assembly tree of a path of 4 interfaces\relax }}{2}}
\newlabel{fig:assembly_tree}{{2}{2}}
\@writefile{toc}{\contentsline {subsection}{\numberline {1.1}Calibration Verification of model}{2}}
\@writefile{toc}{\contentsline {subsection}{\numberline {1.2}Mutagenesis analysis}{2}}
\@writefile{lof}{\contentsline {figure}{\numberline {3}{\ignorespaces bmv capsid assembly with a path of 4 interfaces. (a) Monomers forms pentamer and hexamer. (b) Hexamers connected with dimer interface, which is highlight in red. (c) Pentamers and Hexamers are connected with dimer2 interface, which is highlight in yellow. assembly succeed.\relax }}{3}}
\newlabel{fig:path}{{3}{3}}
\@writefile{toc}{\contentsline {subsection}{\numberline {1.3}Assembly kinectic}{3}}
\@writefile{toc}{\contentsline {section}{\numberline {2}Implementation}{4}}
\@writefile{toc}{\contentsline {subsection}{\numberline {2.1}Finding paths}{4}}
\@writefile{toc}{\contentsline {subsection}{\numberline {2.2}Statistic model for determin residue crucialness}{4}}
\@writefile{lof}{\contentsline {figure}{\numberline {4}{\ignorespaces pentamer interface for bmv with a monomer on one side and a dimer connected via a dimer2 interface on the other side.\relax }}{5}}
\newlabel{fig:pbmv_d2}{{4}{5}}
\@writefile{toc}{\contentsline {subsection}{\numberline {2.3}Determine the parameters}{5}}
