ATOM 1134 25N 41.769 7.570 81.846 1.00
ATOM 1135 25CA 40.835 6.793 82.711 1.00
ATOM 1136 25C 40.374 7.623 83.909 1.00
ATOM 1137 25O 40.886 7.454 85.015 1.00
ATOM 1138 25CB 41.522 5.514 83.190 1.00
ATOM 1139 26N 39.409 8.515 83.688 1.00
ATOM 1140 26CA 38.890 9.366 84.760 1.00
ATOM 1141 26C 38.525 8.527 85.975 1.00
ATOM 1142 26O 38.034 7.403 85.843 1.00
ATOM 1143 26CB 37.657 10.151 84.291 1.00
ATOM 1144 26CG 36.801 10.714 85.428 1.00
ATOM 1145 26CD 36.210 12.079 85.084 1.00
ATOM 1146 26NE 35.526 12.684 86.224 1.00
ATOM 1147 26CZ 34.966 13.892 86.212 1.00
ATOM 1148 26NH1 35.005 14.635 85.114 1.00
ATOM 1149 26NH2 34.362 14.357 87.298 1.00
ATOM 1150 27N 38.762 9.083 87.158 1.00
ATOM 1151 27CA 38.471 8.379 88.395 1.00
ATOM 1152 27C 36.992 8.103 88.567 1.00
ATOM 1153 27O 36.138 8.839 88.066 1.00
ATOM 1154 27CB 38.939 9.165 89.622 1.00
ATOM 1155 27CG1 37.955 10.272 89.927 1.00
ATOM 1156 27CG2 39.069 8.229 90.814 1.00
ATOM 1157 28N 36.702 7.038 89.298 1.00
ATOM 1158 28CA 35.334 6.644 89.553 1.00
ATOM 1159 28C 34.890 7.074 90.935 1.00
ATOM 1160 28O 35.354 6.547 91.947 1.00
ATOM 1161 28CB 35.178 5.129 89.420 1.00
ATOM 1162 28CG 33.733 4.655 89.409 1.00
ATOM 1163 28CD 32.891 5.399 88.394 1.00
ATOM 1164 28OE1 32.888 5.066 87.206 1.00
ATOM 1165 28NE2 32.172 6.416 88.857 1.00
ATOM 1166 29N 34.002 8.068 90.993 1.00
ATOM 1167 29CA 33.515 8.532 92.292 1.00
ATOM 1168 29C 32.635 7.403 92.800 1.00
ATOM 1169 29O 31.500 7.241 92.354 1.00
ATOM 1170 29CB 32.708 9.788 91.957 1.00
ATOM 1171 29CG 33.015 10.103 90.499 1.00
ATOM 1172 29CD 33.410 8.814 89.869 1.00
ATOM 1173 30N 33.166 6.607 93.715 1.00
ATOM 1174 30CA 32.418 5.472 94.229 1.00
ATOM 1175 30C 32.013 5.613 95.687 1.00
ATOM 1176 30O 32.311 6.618 96.332 1.00
ATOM 1177 30CB 33.236 4.178 94.054 1.00
ATOM 1178 30CG1 34.217 4.003 95.222 1.00
ATOM 1179 30CG2 32.300 2.996 93.935 1.00
ATOM 1180 31N 31.328 4.596 96.204 1.00
ATOM 1181 31CA 30.903 4.616 97.593 1.00
ATOM 1182 31C 30.646 3.241 98.202 1.00
ATOM 1183 31O 29.635 2.587 97.912 1.00
ATOM 1184 31CB 29.644 5.444 97.761 1.00
ATOM 1185 31CG1 29.130 5.313 99.198 1.00
ATOM 1186 31CG2 28.608 4.991 96.758 1.00
ATOM 1187 31CD1 30.187 5.586 100.265 1.00
ATOM 1188 32N 31.567 2.822 99.064 1.00
ATOM 1189 32CA 31.464 1.543 99.747 1.00
ATOM 1190 32C 30.223 1.561 100.604 1.00
ATOM 1191 32O 30.092 2.396 101.501 1.00
ATOM 1192 32CB 32.647 1.301 100.696 1.00
ATOM 1193 32CG1 32.637 -0.149 101.183 1.00
ATOM 1194 32CG2 33.947 1.651 100.005 1.00
ATOM 1195 33N 29.305 0.647 100.336 1.00
ATOM 1196 33CA 28.106 0.599 101.138 1.00
ATOM 1197 33C 28.371 -0.292 102.345 1.00
ATOM 1198 33O 29.135 -1.259 102.265 1.00
ATOM 1199 33CB 26.934 0.076 100.317 1.00
ATOM 1200 33CG 25.969 1.175 99.898 1.00
ATOM 1201 33CD 24.854 1.391 100.909 1.00
ATOM 1202 33OE1 24.714 0.561 101.838 1.00
ATOM 1203 33OE2 24.116 2.391 100.775 1.00
ATOM 1204 34N 27.764 0.052 103.491 1.00
ATOM 1205 34CA 27.900 -0.681 104.749 1.00
ATOM 1206 34C 27.195 -2.034 104.720 1.00
ATOM 1207 34O 26.019 -2.144 104.348 1.00
ATOM 1208 34CB 27.283 0.262 105.765 1.00
ATOM 1209 34CG 26.238 0.976 104.979 1.00
ATOM 1210 34CD 26.879 1.218 103.646 1.00
ATOM 1211 35N 27.937 -3.053 105.135 1.00
ATOM 1212 35CA 27.469 -4.431 105.181 1.00
ATOM 1213 35C 27.147 -4.809 106.628 1.00
ATOM 1214 35O 28.002 -4.686 107.504 1.00
ATOM 1215 35CB 28.569 -5.355 104.635 1.00
ATOM 1216 35CG 29.846 -4.733 104.027 1.00
ATOM 1217 35CD1 30.554 -3.792 105.011 1.00
ATOM 1218 35CD2 30.790 -5.858 103.628 1.00
ATOM 1219 36N 25.921 -5.265 106.881 1.00
ATOM 1220 36CA 25.515 -5.649 108.236 1.00
ATOM 1221 36C 25.387 -7.154 108.422 1.00
ATOM 1222 36O 24.703 -7.830 107.656 1.00
ATOM 1223 36CB 24.202 -4.981 108.604 1.00
ATOM 1224 37N 26.041 -7.657 109.462 1.00
ATOM 1225 37CA 26.048 -9.078 109.802 1.00
ATOM 1226 37C 24.975 -9.923 109.110 1.00
ATOM 1227 37O 23.791 -9.582 109.146 1.00
ATOM 1228 37CB 25.938 -9.234 111.315 1.00
ATOM 1229 38N 25.413 -11.016 108.479 1.00
ATOM 1230 38CA 24.514 -11.937 107.793 1.00
ATOM 1231 38C 23.939 -11.465 106.470 1.00
ATOM 1232 38O 23.093 -12.140 105.860 1.00
ATOM 1233 39N 24.407 -10.301 106.031 1.00
ATOM 1234 39CA 23.962 -9.687 104.791 1.00
ATOM 1235 39C 24.651 -10.290 103.571 1.00
ATOM 1236 39O 25.765 -10.817 103.667 1.00
ATOM 1237 39CB 24.247 -8.190 104.833 1.00
ATOM 1238 39CG 23.054 -7.296 104.570 1.00
ATOM 1239 39CD 23.459 -5.824 104.486 1.00
ATOM 1240 39OE1 24.566 -5.445 104.884 1.00
ATOM 1241 39NE2 22.566 -4.992 103.965 1.00
ATOM 1242 40N 23.969 -10.188 102.430 1.00
ATOM 1243 40CA 24.480 -10.704 101.170 1.00
ATOM 1244 40C 25.339 -11.939 101.328 1.00
ATOM 1245 40O 25.073 -12.782 102.186 1.00
ATOM 1246 41N 26.369 -12.049 100.496 1.00
ATOM 1247 41CA 27.275 -13.185 100.567 1.00
ATOM 1248 41C 26.542 -14.488 100.269 1.00
ATOM 1249 41O 26.883 -15.542 100.811 1.00
ATOM 1250 41CB 27.914 -13.258 101.962 1.00
ATOM 1251 41CG 29.426 -13.088 101.976 1.00
ATOM 1252 41CD 30.136 -14.434 101.967 1.00
ATOM 1253 41CE 31.321 -14.432 101.007 1.00
ATOM 1254 41NZ 30.931 -14.780 99.610 1.00
ATOM 1255 42N 25.525 -14.414 99.420 1.00
ATOM 1256 42CA 24.775 -15.611 99.062 1.00
ATOM 1257 42C 25.768 -16.548 98.394 1.00
ATOM 1258 42O 26.542 -16.108 97.547 1.00
ATOM 1259 42CB 23.662 -15.252 98.093 1.00
ATOM 1260 43N 25.767 -17.827 98.760 1.00
ATOM 1261 43CA 26.720 -18.748 98.141 1.00
ATOM 1262 43C 26.102 -19.880 97.349 1.00
ATOM 1263 43O 25.918 -20.987 97.849 1.00
ATOM 1264 43CB 27.668 -19.360 99.169 1.00
ATOM 1265 43CG1 27.372 -18.768 100.562 1.00
ATOM 1266 43CG2 29.101 -19.209 98.655 1.00
ATOM 1267 43CD1 28.575 -18.264 101.345 1.00
ATOM 1268 44N 25.802 -19.587 96.092 1.00
ATOM 1269 44CA 25.196 -20.553 95.190 1.00
ATOM 1270 44C 25.965 -21.864 95.212 1.00
ATOM 1271 44O 27.191 -21.868 95.342 1.00
ATOM 1272 44CB 25.170 -19.988 93.758 1.00
ATOM 1273 44CG 25.731 -18.556 93.604 1.00
ATOM 1274 44CD 25.103 -17.801 92.415 1.00
ATOM 1275 44CE 25.471 -16.311 92.410 1.00
ATOM 1276 44NZ 24.353 -15.433 91.940 1.00
ATOM 1277 45N 25.238 -22.973 95.103 1.00
ATOM 1278 45CA 25.851 -24.300 95.086 1.00
ATOM 1279 45C 25.948 -24.719 93.633 1.00
ATOM 1280 45O 25.262 -24.155 92.785 1.00
ATOM 1281 45CB 24.999 -25.295 95.857 1.00
ATOM 1282 46N 26.786 -25.706 93.342 1.00
ATOM 1283 46CA 26.955 -26.158 91.965 1.00
ATOM 1284 46C 25.833 -27.109 91.530 1.00
ATOM 1285 46O 25.056 -27.588 92.359 1.00
ATOM 1286 46CB 28.362 -26.807 91.775 1.00
ATOM 1287 46CG1 28.381 -27.716 90.551 1.00
ATOM 1288 46CG2 28.765 -27.551 93.030 1.00
ATOM 1289 46CD1 28.485 -26.965 89.232 1.00
ATOM 1290 47N 25.744 -27.353 90.224 1.00
ATOM 1291 47CA 24.722 -28.221 89.638 1.00
ATOM 1292 47C 24.934 -29.713 89.884 1.00
ATOM 1293 47O 26.038 -30.233 89.707 1.00
ATOM 1294 47CB 24.635 -27.961 88.145 1.00
ATOM 1295 48N 23.857 -30.396 90.268 1.00
ATOM 1296 48CA 23.928 -31.823 90.541 1.00
ATOM 1297 48C 24.606 -32.056 91.875 1.00
ATOM 1298 48O 24.287 -32.983 92.625 1.00
ATOM 1299 49N 25.565 -31.189 92.159 1.00
ATOM 1300 49CA 26.312 -31.245 93.392 1.00
ATOM 1301 49C 25.471 -30.594 94.483 1.00
ATOM 1302 49O 25.334 -29.371 94.529 1.00
ATOM 1303 49CB 27.642 -30.499 93.224 1.00
ATOM 1304 49CG 28.859 -31.394 93.258 1.00
ATOM 1305 49CD1 29.118 -32.291 92.228 1.00
ATOM 1306 49CD2 29.712 -31.398 94.364 1.00
ATOM 1307 49CE1 30.191 -33.182 92.300 1.00
ATOM 1308 49CE2 30.785 -32.282 94.448 1.00
ATOM 1309 49CZ 31.017 -33.173 93.415 1.00
ATOM 1310 49OH 32.063 -34.064 93.510 1.00
ATOM 1311 50N 24.882 -31.410 95.347 1.00
ATOM 1312 50CA 24.079 -30.874 96.435 1.00
ATOM 1313 50C 24.964 -30.678 97.655 1.00
ATOM 1314 50O 25.892 -31.451 97.887 1.00
ATOM 1315 50CB 22.939 -31.824 96.791 1.00
ATOM 1316 50OG 22.560 -31.659 98.150 1.00
ATOM 1317 51N 24.682 -29.641 98.433 1.00
ATOM 1318 51CA 25.469 -29.384 99.627 1.00
ATOM 1319 51C 24.679 -29.779 100.869 1.00
ATOM 1320 51O 23.478 -29.511 100.982 1.00
ATOM 1321 51CB 25.913 -27.885 99.711 1.00
ATOM 1322 51CG1 25.948 -27.418 101.172 1.00
ATOM 1323 51CG2 25.002 -27.021 98.853 1.00
ATOM 1324 51CD1 26.085 -25.915 101.353 1.00
ATOM 1325 52N 25.368 -30.453 101.782 1.00
ATOM 1326 52CA 24.779 -30.897 103.034 1.00
ATOM 1327 52C 25.801 -30.627 104.122 1.00
ATOM 1328 52O 26.999 -30.796 103.912 1.00
ATOM 1329 52CB 24.449 -32.388 102.977 1.00
ATOM 1330 52OG 23.045 -32.591 102.944 1.00
ATOM 1331 53N 25.327 -30.201 105.283 1.00
ATOM 1332 53CA 26.234 -29.891 106.371 1.00
ATOM 1333 53C 25.683 -30.282 107.722 1.00
ATOM 1334 53O 24.592 -30.851 107.841 1.00
ATOM 1335 53CB 26.546 -28.394 106.378 1.00
ATOM 1336 53CG 25.897 -27.622 105.238 1.00
ATOM 1337 53CD 24.642 -26.885 105.687 1.00
ATOM 1338 53CE 23.741 -26.557 104.500 1.00
ATOM 1339 53NZ 22.753 -27.646 104.235 1.00
ATOM 1340 54N 26.472 -29.969 108.738 1.00
ATOM 1341 54CA 26.119 -30.229 110.113 1.00
ATOM 1342 54C 27.243 -29.683 110.964 1.00
ATOM 1343 54O 27.891 -28.712 110.572 1.00
ATOM 1344 54CB 25.891 -31.729 110.354 1.00
ATOM 1345 54CG 27.113 -32.578 110.375 1.00
ATOM 1346 54CD1 27.647 -33.218 111.458 1.00
ATOM 1347 54CD2 27.919 -32.944 109.255 1.00
ATOM 1348 54NE1 28.735 -33.963 111.080 1.00
ATOM 1349 54CE2 28.925 -33.814 109.732 1.00
ATOM 1350 54CE3 27.889 -32.624 107.892 1.00
ATOM 1351 54CZ2 29.893 -34.369 108.893 1.00
ATOM 1352 54CZ3 28.850 -33.175 107.057 1.00
ATOM 1353 54CH2 29.839 -34.039 107.562 1.00
ATOM 1354 55N 27.481 -30.298 112.116 1.00
ATOM 1355 55CA 28.518 -29.817 113.010 1.00
ATOM 1356 55C 28.871 -30.761 114.146 1.00
ATOM 1357 55O 28.076 -31.608 114.571 1.00
ATOM 1358 55CB 28.088 -28.485 113.618 1.00
ATOM 1359 55CG 27.147 -28.637 114.805 1.00
ATOM 1360 55CD 25.690 -28.629 114.400 1.00
ATOM 1361 55OE1 25.251 -27.636 113.780 1.00
ATOM 1362 55OE2 24.988 -29.619 114.700 1.00
ATOM 1363 56N 30.086 -30.580 114.642 1.00
ATOM 1364 56CA 30.588 -31.355 115.756 1.00
ATOM 1365 56C 30.780 -30.333 116.865 1.00
ATOM 1366 56O 31.284 -29.237 116.627 1.00
ATOM 1367 56CB 31.923 -32.010 115.395 1.00
ATOM 1368 57N 30.346 -30.677 118.068 1.00
ATOM 1369 57CA 30.496 -29.774 119.196 1.00
ATOM 1370 57C 31.878 -30.005 119.799 1.00
ATOM 1371 57O 32.300 -31.147 120.002 1.00
ATOM 1372 57CB 29.399 -30.040 120.225 1.00
ATOM 1373 57OG 28.192 -30.412 119.578 1.00
ATOM 1374 58N 32.584 -28.914 120.067 1.00
ATOM 1375 58CA 33.924 -28.990 120.629 1.00
ATOM 1376 58C 33.994 -29.819 121.895 1.00
ATOM 1377 58O 32.993 -30.044 122.573 1.00
ATOM 1378 58CB 34.450 -27.583 120.938 1.00
ATOM 1379 58OG 34.892 -27.460 122.286 1.00
ATOM 1380 59N 35.194 -30.294 122.189 1.00
ATOM 1381 59CA 35.447 -31.045 123.403 1.00
ATOM 1382 59C 36.378 -30.056 124.080 1.00
ATOM 1383 59O 37.070 -29.288 123.406 1.00
ATOM 1384 59CB 36.170 -32.354 123.103 1.00
ATOM 1385 59CG 36.444 -32.536 121.626 1.00
ATOM 1386 59OD1 37.377 -31.879 121.106 1.00
ATOM 1387 59OD2 35.723 -33.333 120.987 1.00
ATOM 1388 60N 36.382 -30.048 125.402 1.00
ATOM 1389 60CA 37.220 -29.114 126.128 1.00
ATOM 1390 60C 38.620 -29.074 125.545 1.00
ATOM 1391 60O 39.204 -30.112 125.229 1.00
ATOM 1392 60CB 37.272 -29.498 127.598 1.00
ATOM 1393 61N 39.146 -27.866 125.389 1.00
ATOM 1394 61CA 40.493 -27.686 124.867 1.00
ATOM 1395 61C 41.331 -26.964 125.912 1.00
ATOM 1396 61O 40.818 -26.154 126.686 1.00
ATOM 1397 61CB 40.496 -26.850 123.578 1.00
ATOM 1398 61CG1 39.547 -25.664 123.733 1.00
ATOM 1399 61CG2 40.086 -27.709 122.401 1.00
ATOM 1400 61CD1 40.155 -24.495 124.478 1.00
ATOM 1401 62N 42.620 -27.262 125.935 1.00
ATOM 1402 62CA 43.518 -26.631 126.887 1.00
ATOM 1403 62C 44.022 -25.320 126.299 1.00
ATOM 1404 62O 43.659 -24.953 125.181 1.00
ATOM 1405 62CB 44.716 -27.544 127.201 1.00
ATOM 1406 62OG1 45.937 -26.825 126.987 1.00
ATOM 1407 62CG2 44.688 -28.786 126.309 1.00
ATOM 1408 63N 44.858 -24.616 127.052 1.00
ATOM 1409 63CA 45.400 -23.347 126.592 1.00
ATOM 1410 63C 46.488 -23.533 125.538 1.00
ATOM 1411 63O 47.499 -24.191 125.785 1.00
ATOM 1412 63CB 45.948 -22.559 127.775 1.00
ATOM 1413 64N 46.263 -22.950 124.363 1.00
ATOM 1414 64CA 47.207 -23.002 123.247 1.00
ATOM 1415 64C 47.321 -24.356 122.550 1.00
ATOM 1416 64O 47.867 -24.455 121.449 1.00
ATOM 1417 64CB 48.591 -22.543 123.715 1.00
ATOM 1418 64CG 48.835 -21.047 123.539 1.00
ATOM 1419 64CD 48.509 -20.274 124.808 1.00
ATOM 1420 64CE 48.206 -18.812 124.508 1.00
ATOM 1421 64NZ 47.444 -18.159 125.613 1.00
ATOM 1422 65N 46.811 -25.399 123.186 1.00
ATOM 1423 65CA 46.865 -26.723 122.589 1.00
ATOM 1424 65C 45.784 -26.810 121.518 1.00
ATOM 1425 65O 44.855 -25.997 121.500 1.00
ATOM 1426 65CB 46.641 -27.783 123.651 1.00
ATOM 1427 66N 45.902 -27.798 120.633 1.00
ATOM 1428 66CA 44.929 -27.979 119.557 1.00
ATOM 1429 66C 44.394 -29.414 119.442 1.00
ATOM 1430 66O 45.129 -30.336 119.093 1.00
ATOM 1431 66CB 45.536 -27.541 118.196 1.00
ATOM 1432 66OG1 45.787 -28.691 117.376 1.00
ATOM 1433 66CG2 46.839 -26.769 118.423 1.00
ATOM 1434 67N 43.109 -29.593 119.743 1.00
ATOM 1435 67CA 42.467 -30.905 119.670 1.00
ATOM 1436 67C 42.233 -31.264 118.205 1.00
ATOM 1437 67O 42.703 -30.564 117.311 1.00
ATOM 1438 67CB 41.118 -30.881 120.401 1.00
ATOM 1439 67CG 41.256 -31.096 121.899 1.00
ATOM 1440 67OD1 42.240 -30.683 122.517 1.00
ATOM 1441 67ND2 40.260 -31.744 122.493 1.00
ATOM 1442 68N 41.507 -32.354 117.970 1.00
ATOM 1443 68CA 41.186 -32.805 116.615 1.00
ATOM 1444 68C 40.176 -33.928 116.692 1.00
ATOM 1445 68O 40.330 -34.848 117.497 1.00
ATOM 1446 68CB 42.436 -33.295 115.896 1.00
ATOM 1447 69N 39.136 -33.852 115.866 1.00
ATOM 1448 69CA 38.114 -34.895 115.847 1.00
ATOM 1449 69C 38.027 -35.491 114.457 1.00
ATOM 1450 69O 38.064 -34.773 113.461 1.00
ATOM 1451 69CB 36.735 -34.348 116.256 1.00
ATOM 1452 69CG 36.525 -32.866 115.979 1.00
ATOM 1453 69SD 37.133 -31.785 117.304 1.00
ATOM 1454 69CE 35.692 -30.713 117.578 1.00
ATOM 1455 70N 37.937 -36.812 114.389 1.00
ATOM 1456 70CA 37.818 -37.456 113.097 1.00
ATOM 1457 70C 36.548 -36.833 112.556 1.00
ATOM 1458 70O 35.798 -36.177 113.292 1.00
ATOM 1459 70CB 37.650 -38.974 113.244 1.00
ATOM 1460 70OG 38.412 -39.682 112.273 1.00
ATOM 1461 71N 36.300 -37.022 111.273 1.00
ATOM 1462 71CA 35.109 -36.442 110.713 1.00
ATOM 1463 71C 33.859 -37.033 111.322 1.00
ATOM 1464 71O 33.552 -38.225 111.213 1.00
ATOM 1465 71CB 35.063 -36.591 109.214 1.00
ATOM 1466 71CG1 36.314 -35.950 108.591 1.00
ATOM 1467 71CG2 33.775 -35.965 108.700 1.00
ATOM 1468 71CD1 36.837 -34.689 109.314 1.00
ATOM 1469 72N 33.140 -36.147 111.978 1.00
ATOM 1470 72CA 31.916 -36.483 112.655 1.00
ATOM 1471 72C 30.793 -36.756 111.643 1.00
ATOM 1472 72O 29.634 -36.422 111.888 1.00
ATOM 1473 72CB 31.565 -35.307 113.584 1.00
ATOM 1474 72OG1 32.149 -34.103 113.052 1.00
ATOM 1475 72CG2 32.150 -35.540 114.984 1.00
ATOM 1476 73N 31.134 -37.386 110.519 1.00
ATOM 1477 73CA 30.150 -37.659 109.472 1.00
ATOM 1478 73C 28.775 -38.043 109.995 1.00
ATOM 1479 73O 28.661 -38.751 110.997 1.00
ATOM 1480 73CB 30.636 -38.764 108.535 1.00
ATOM 1481 73CG 29.567 -39.205 107.523 1.00
ATOM 1482 73CD1 30.152 -39.295 106.108 1.00
ATOM 1483 73CD2 28.984 -40.540 107.969 1.00
ATOM 1484 74N 27.705 -37.585 109.311 1.00
ATOM 1485 74CA 26.335 -37.892 109.722 1.00
ATOM 1486 74C 25.880 -39.227 109.140 1.00
ATOM 1487 74O 26.190 -39.548 107.992 1.00
ATOM 1488 74CB 25.539 -36.726 109.152 1.00
ATOM 1489 74CG 26.219 -36.443 107.858 1.00
ATOM 1490 74CD 27.709 -36.740 108.099 1.00
ATOM 1491 75N 25.142 -39.995 109.936 1.00
ATOM 1492 75CA 24.639 -41.301 109.512 1.00
ATOM 1493 75C 23.781 -41.203 108.249 1.00
ATOM 1494 75O 23.730 -42.132 107.438 1.00
ATOM 1495 75CB 23.833 -41.945 110.655 1.00
ATOM 1496 75CG 22.497 -42.484 110.237 1.00
ATOM 1497 75ND1 22.281 -43.822 109.986 1.00
ATOM 1498 75CD2 21.309 -41.866 110.029 1.00
ATOM 1499 75CE1 21.018 -44.004 109.638 1.00
ATOM 1500 75NE2 20.407 -42.833 109.657 1.00
ATOM 1501 76N 23.104 -40.074 108.092 1.00
ATOM 1502 76CA 22.246 -39.848 106.941 1.00
ATOM 1503 76C 22.917 -40.288 105.641 1.00
ATOM 1504 76O 22.265 -40.786 104.726 1.00
ATOM 1505 76CB 21.872 -38.366 106.872 1.00
ATOM 1506 76CG 21.332 -37.809 108.191 1.00
ATOM 1507 76CD 22.429 -37.337 109.139 1.00
ATOM 1508 76OE1 22.808 -36.149 109.069 1.00
ATOM 1509 76OE2 22.911 -38.153 109.957 1.00
ATOM 1510 77N 24.230 -40.106 105.569 1.00
ATOM 1511 77CA 24.990 -40.485 104.383 1.00
ATOM 1512 77C 26.147 -41.392 104.788 1.00
ATOM 1513 77O 27.320 -41.117 104.513 1.00
ATOM 1514 77CB 25.520 -39.237 103.676 1.00
ATOM 1515 77CG 25.834 -38.075 104.620 1.00
ATOM 1516 77CD1 27.332 -37.821 104.635 1.00
ATOM 1517 77CD2 25.076 -36.835 104.180 1.00
ATOM 1518 78N 25.802 -42.477 105.465 1.00
ATOM 1519 78CA 26.795 -43.436 105.901 1.00
ATOM 1520 78C 26.704 -44.651 104.993 1.00
ATOM 1521 78O 27.660 -45.418 104.877 1.00
ATOM 1522 78CB 26.543 -43.843 107.357 1.00
ATOM 1523 78OG 27.319 -43.057 108.250 1.00
ATOM 1524 79N 25.556 -44.822 104.340 1.00
ATOM 1525 79CA 25.367 -45.966 103.452 1.00
ATOM 1526 79C 26.517 -46.047 102.476 1.00
ATOM 1527 79O 26.877 -45.051 101.857 1.00
ATOM 1528 79CB 24.054 -45.858 102.669 1.00
ATOM 1529 79OG 23.881 -46.981 101.811 1.00
ATOM 1530 80N 27.098 -47.231 102.345 1.00
ATOM 1531 80CA 28.203 -47.400 101.422 1.00
ATOM 1532 80C 27.757 -46.853 100.074 1.00
ATOM 1533 80O 28.570 -46.372 99.285 1.00
ATOM 1534 80CB 28.578 -48.879 101.308 1.00
ATOM 1535 80CG 29.518 -49.367 102.402 1.00
ATOM 1536 80CD 30.855 -48.636 102.415 1.00
ATOM 1537 80OE1 31.019 -47.644 101.669 1.00
ATOM 1538 80OE2 31.748 -49.055 103.179 1.00
ATOM 1539 81N 26.453 -46.921 99.821 1.00
ATOM 1540 81CA 25.899 -46.412 98.575 1.00
ATOM 1541 81C 26.358 -44.952 98.398 1.00
ATOM 1542 81O 27.091 -44.632 97.457 1.00
ATOM 1543 81CB 24.360 -46.526 98.605 1.00
ATOM 1544 81CG 23.626 -45.715 97.529 1.00
ATOM 1545 81CD 22.116 -45.953 97.554 1.00
ATOM 1546 81CE 21.492 -45.579 98.902 1.00
ATOM 1547 81NZ 20.878 -44.214 98.913 1.00
ATOM 1548 82N 25.957 -44.079 99.321 1.00
ATOM 1549 82CA 26.331 -42.666 99.253 1.00
ATOM 1550 82C 27.681 -42.369 99.909 1.00
ATOM 1551 82O 28.337 -41.389 99.576 1.00
ATOM 1552 82CB 25.251 -41.783 99.895 1.00
ATOM 1553 82CG 24.109 -42.584 100.504 1.00
ATOM 1554 82OD1 23.081 -42.810 99.855 1.00
ATOM 1555 82ND2 24.276 -43.006 101.761 1.00
ATOM 1556 83N 28.096 -43.206 100.849 1.00
ATOM 1557 83CA 29.380 -43.005 101.515 1.00
ATOM 1558 83C 30.492 -43.088 100.473 1.00
ATOM 1559 83O 31.583 -42.538 100.648 1.00
ATOM 1560 83CB 29.588 -44.078 102.578 1.00
ATOM 1561 83CG 30.344 -43.599 103.788 1.00
ATOM 1562 83CD 30.531 -44.726 104.791 1.00
ATOM 1563 83CE 31.155 -45.959 104.151 1.00
ATOM 1564 83NZ 30.773 -47.199 104.884 1.00
ATOM 1565 84N 30.201 -43.797 99.386 1.00
ATOM 1566 84CA 31.150 -43.954 98.294 1.00
ATOM 1567 84C 30.846 -42.862 97.280 1.00
ATOM 1568 84O 30.645 -43.137 96.099 1.00
ATOM 1569 84CB 31.013 -45.344 97.646 1.00
ATOM 1570 84CG 32.183 -45.757 96.737 1.00
ATOM 1571 84CD 33.472 -46.087 97.499 1.00
ATOM 1572 84OE1 34.558 -46.039 96.879 1.00
ATOM 1573 84OE2 33.407 -46.395 98.712 1.00
ATOM 1574 85N 30.798 -41.623 97.762 1.00
ATOM 1575 85CA 30.530 -40.473 96.906 1.00
ATOM 1576 85C 31.768 -39.596 96.802 1.00
ATOM 1577 85O 32.831 -39.961 97.282 1.00
ATOM 1578 85CB 29.378 -39.645 97.463 1.00
ATOM 1579 85CG 27.955 -40.094 97.124 1.00
ATOM 1580 85CD1 27.030 -38.898 97.272 1.00
ATOM 1581 85CD2 27.883 -40.676 95.715 1.00
ATOM 1582 86N 31.619 -38.436 96.173 1.00
ATOM 1583 86CA 32.723 -37.499 95.991 1.00
ATOM 1584 86C 32.308 -36.120 96.477 1.00
ATOM 1585 86O 31.129 -35.873 96.728 1.00
ATOM 1586 86CB 33.116 -37.430 94.517 1.00
ATOM 1587 86CG 31.987 -37.792 93.569 1.00
ATOM 1588 86CD 30.744 -36.946 93.821 1.00
ATOM 1589 86CE 29.637 -37.769 94.454 1.00
ATOM 1590 86NZ 29.303 -37.273 95.818 1.00
ATOM 1591 87N 33.271 -35.213 96.583 1.00
ATOM 1592 87CA 32.988 -33.872 97.079 1.00
ATOM 1593 87C 33.555 -32.773 96.206 1.00
ATOM 1594 87O 33.851 -32.988 95.037 1.00
ATOM 1595 87CB 33.589 -33.688 98.465 1.00
ATOM 1596 87CG1 33.047 -34.745 99.410 1.00
ATOM 1597 87CG2 35.107 -33.791 98.366 1.00
ATOM 1598 88N 33.711 -31.592 96.803 1.00
ATOM 1599 88CA 34.264 -30.450 96.099 1.00
ATOM 1600 88C 34.608 -29.326 97.059 1.00
ATOM 1601 88O 35.586 -29.397 97.827 1.00
ATOM 1602 89N 33.801 -28.273 97.001 1.00
ATOM 1603 89CA 33.981 -27.126 97.871 1.00
ATOM 1604 89C 33.507 -27.541 99.248 1.00
ATOM 1605 89O 32.549 -28.308 99.391 1.00
ATOM 1606 89CB 33.147 -25.936 97.394 1.00
ATOM 1607 89CG 33.563 -25.371 96.052 1.00
ATOM 1608 89CD 32.510 -25.666 94.990 1.00
ATOM 1609 89NE 31.553 -24.573 94.831 1.00
ATOM 1610 89CZ 30.232 -24.721 94.886 1.00
ATOM 1611 89NH1 29.699 -25.919 95.098 1.00
ATOM 1612 89NH2 29.441 -23.668 94.722 1.00
ATOM 1613 90N 34.179 -27.025 100.264 1.00
ATOM 1614 90CA 33.822 -27.361 101.623 1.00
ATOM 1615 90C 34.130 -26.228 102.578 1.00
ATOM 1616 90O 35.284 -25.819 102.757 1.00
ATOM 1617 90CB 34.539 -28.628 102.049 1.00
ATOM 1618 90CG1 33.671 -29.812 101.713 1.00
ATOM 1619 90CG2 35.870 -28.743 101.303 1.00
ATOM 1620 91N 33.064 -25.720 103.178 1.00
ATOM 1621 91CA 33.145 -24.622 104.115 1.00
ATOM 1622 91C 33.363 -25.131 105.525 1.00
ATOM 1623 91O 33.263 -26.325 105.805 1.00
ATOM 1624 91CB 31.864 -23.791 104.048 1.00
ATOM 1625 91CG 31.781 -22.578 104.968 1.00
ATOM 1626 91CD1 33.056 -21.744 104.835 1.00
ATOM 1627 91CD2 30.537 -21.768 104.615 1.00
ATOM 1628 92N 33.656 -24.200 106.415 1.00
ATOM 1629 92CA 33.911 -24.534 107.791 1.00
ATOM 1630 92C 33.918 -23.227 108.558 1.00
ATOM 1631 92O 34.813 -22.400 108.404 1.00
ATOM 1632 92CB 35.270 -25.240 107.897 1.00
ATOM 1633 92CG 35.901 -25.637 109.241 1.00
ATOM 1634 92CD1 37.056 -24.678 109.542 1.00
ATOM 1635 92CD2 34.861 -25.636 110.370 1.00
ATOM 1636 93N 32.892 -23.027 109.363 1.00
ATOM 1637 93CA 32.810 -21.829 110.171 1.00
ATOM 1638 93C 32.459 -22.319 111.560 1.00
ATOM 1639 93O 32.238 -23.517 111.763 1.00
ATOM 1640 93CB 31.738 -20.887 109.632 1.00
ATOM 1641 93CG 30.440 -21.551 109.446 1.00
ATOM 1642 93CD1 30.049 -22.319 108.387 1.00
ATOM 1643 93CD2 29.346 -21.530 110.357 1.00
ATOM 1644 93NE1 28.771 -22.780 108.584 1.00
ATOM 1645 93CE2 28.315 -22.310 109.789 1.00
ATOM 1646 93CE3 29.135 -20.926 111.605 1.00
ATOM 1647 93CZ2 27.086 -22.502 110.426 1.00
ATOM 1648 93CZ3 27.913 -21.117 112.239 1.00
ATOM 1649 93CH2 26.904 -21.899 111.648 1.00
ATOM 1650 94N 32.400 -21.406 112.519 1.00
ATOM 1651 94CA 32.113 -21.824 113.876 1.00
ATOM 1652 94C 31.317 -20.844 114.709 1.00
ATOM 1653 94O 31.342 -19.626 114.488 1.00
ATOM 1654 94CB 33.418 -22.149 114.609 1.00
ATOM 1655 94CG 34.727 -22.222 113.814 1.00
ATOM 1656 94CD1 34.996 -20.940 113.039 1.00
ATOM 1657 94CD2 35.848 -22.465 114.790 1.00
ATOM 1658 95N 30.608 -21.412 115.678 1.00
ATOM 1659 95CA 29.810 -20.632 116.598 1.00
ATOM 1660 95C 30.421 -20.781 117.979 1.00
ATOM 1661 95O 30.675 -21.895 118.447 1.00
ATOM 1662 96N 30.669 -19.655 118.630 1.00
ATOM 1663 96CA 31.259 -19.663 119.956 1.00
ATOM 1664 96C 30.448 -18.747 120.837 1.00
ATOM 1665 96O 29.910 -17.744 120.369 1.00
ATOM 1666 96CB 32.697 -19.166 119.883 1.00
ATOM 1667 96CG 33.046 -18.538 118.531 1.00
ATOM 1668 96CD1 33.917 -17.314 118.759 1.00
ATOM 1669 96CD2 33.749 -19.561 117.639 1.00
ATOM 1670 97N 30.361 -19.083 122.113 1.00
ATOM 1671 97CA 29.590 -18.259 123.019 1.00
ATOM 1672 97C 30.120 -16.838 123.066 1.00
ATOM 1673 97O 31.312 -16.603 122.859 1.00
ATOM 1674 97CB 29.599 -18.861 124.415 1.00
ATOM 1675 97CG 28.373 -19.736 124.643 1.00
ATOM 1676 97CD1 28.784 -21.187 124.475 1.00
ATOM 1677 97CD2 27.774 -19.471 126.023 1.00
ATOM 1678 98N 29.234 -15.868 123.341 1.00
ATOM 1679 98CA 29.620 -14.457 123.418 1.00
ATOM 1680 98C 30.796 -14.298 124.370 1.00
ATOM 1681 98O 31.663 -13.442 124.185 1.00
ATOM 1682 98CB 28.358 -13.763 123.943 1.00
ATOM 1683 98CG 27.493 -14.874 124.486 1.00
ATOM 1684 98CD 27.804 -16.055 123.631 1.00
ATOM 1685 99N 30.813 -15.146 125.390 1.00
ATOM 1686 99CA 31.864 -15.140 126.390 1.00
ATOM 1687 99C 33.112 -15.821 125.833 1.00
ATOM 1688 99O 33.838 -16.506 126.552 1.00
ATOM 1689 99CB 31.375 -15.865 127.645 1.00
ATOM 1690 99OG 29.962 -16.006 127.628 1.00
ATOM 1691 100N 33.349 -15.625 124.540 1.00
ATOM 1692 100CA 34.499 -16.206 123.861 1.00
ATOM 1693 100C 35.813 -15.852 124.558 1.00
ATOM 1694 100O 36.169 -14.677 124.692 1.00
ATOM 1695 100CB 34.564 -15.729 122.395 1.00
ATOM 1696 100CG1 34.615 -14.201 122.336 1.00
ATOM 1697 100CG2 35.775 -16.333 121.710 1.00
ATOM 1698 101N 36.537 -16.881 124.987 1.00
ATOM 1699 101CA 37.810 -16.702 125.678 1.00
ATOM 1700 101C 38.970 -16.389 124.733 1.00
ATOM 1701 101O 39.620 -17.293 124.198 1.00
ATOM 1702 101CB 38.134 -17.951 126.504 1.00
ATOM 1703 102N 39.231 -15.102 124.533 1.00
ATOM 1704 102CA 40.321 -14.704 123.667 1.00
ATOM 1705 102C 40.108 -15.040 122.205 1.00
ATOM 1706 102O 39.147 -14.574 121.588 1.00
ATOM 1707 103N 41.001 -15.850 121.642 1.00
ATOM 1708 103CA 40.897 -16.214 120.236 1.00
ATOM 1709 103C 41.296 -17.654 119.953 1.00
ATOM 1710 103O 42.035 -18.269 120.721 1.00
ATOM 1711 103CB 41.741 -15.253 119.385 1.00
ATOM 1712 103CG 43.072 -15.816 118.890 1.00
ATOM 1713 103CD 43.126 -15.828 117.367 1.00
ATOM 1714 103NE 44.095 -14.874 116.836 1.00
ATOM 1715 103CZ 44.503 -14.844 115.570 1.00
ATOM 1716 103NH1 44.024 -15.718 114.695 1.00
ATOM 1717 103NH2 45.389 -13.936 115.178 1.00
ATOM 1718 104N 40.796 -18.170 118.831 1.00
ATOM 1719 104CA 41.059 -19.537 118.391 1.00
ATOM 1720 104C 41.064 -19.681 116.861 1.00
ATOM 1721 104O 40.347 -18.972 116.146 1.00
ATOM 1722 104CB 40.009 -20.530 118.980 1.00
ATOM 1723 104CG1 39.456 -21.450 117.879 1.00
ATOM 1724 104CG2 38.893 -19.766 119.676 1.00
ATOM 1725 104CD1 38.318 -20.855 117.053 1.00
ATOM 1726 105N 41.870 -20.625 116.379 1.00
ATOM 1727 105CA 41.988 -20.911 114.953 1.00
ATOM 1728 105C 41.548 -22.354 114.716 1.00
ATOM 1729 105O 41.643 -23.188 115.616 1.00
ATOM 1730 105CB 43.440 -20.732 114.500 1.00
ATOM 1731 105CG 43.998 -19.324 114.698 1.00
ATOM 1732 105CD 45.421 -19.365 115.256 1.00
ATOM 1733 105CE 46.318 -18.308 114.614 1.00
ATOM 1734 105NZ 47.771 -18.521 114.912 1.00
ATOM 1735 106N 41.070 -22.646 113.507 1.00
ATOM 1736 106CA 40.610 -23.993 113.167 1.00
ATOM 1737 106C 40.843 -24.360 111.702 1.00
ATOM 1738 106O 40.954 -23.485 110.844 1.00
ATOM 1739 106CB 39.133 -24.130 113.498 1.00
ATOM 1740 107N 40.898 -25.659 111.418 1.00
ATOM 1741 107CA 41.119 -26.136 110.055 1.00
ATOM 1742 107C 40.962 -27.650 109.916 1.00
ATOM 1743 107O 40.387 -28.316 110.782 1.00
ATOM 1744 107CB 42.521 -25.746 109.592 1.00
ATOM 1745 107SG 43.807 -26.820 110.267 1.00
ATOM 1746 108N 41.486 -28.186 108.815 1.00
ATOM 1747 108CA 41.412 -29.621 108.559 1.00
ATOM 1748 108C 42.425 -30.143 107.536 1.00
ATOM 1749 108O 42.614 -29.549 106.459 1.00
ATOM 1750 108CB 40.015 -30.024 108.080 1.00
ATOM 1751 108CG1 39.287 -28.814 107.513 1.00
ATOM 1752 108CG2 40.133 -31.121 107.038 1.00
ATOM 1753 109N 43.039 -31.275 107.888 1.00
ATOM 1754 109CA 44.037 -31.941 107.053 1.00
ATOM 1755 109C 43.977 -33.458 107.186 1.00
ATOM 1756 109O 43.182 -34.006 107.962 1.00
ATOM 1757 109CB 45.434 -31.461 107.411 1.00
ATOM 1758 110N 44.844 -34.120 106.427 1.00
ATOM 1759 110CA 44.913 -35.575 106.407 1.00
ATOM 1760 110C 45.413 -36.173 107.716 1.00
ATOM 1761 110O 46.612 -36.120 108.003 1.00
ATOM 1762 110CB 45.812 -36.031 105.252 1.00
ATOM 1763 110CG 45.288 -37.244 104.479 1.00
ATOM 1764 110CD 44.566 -36.872 103.186 1.00
ATOM 1765 110OE1 45.011 -35.938 102.481 1.00
ATOM 1766 110OE2 43.548 -37.522 102.873 1.00
ATOM 1767 111N 44.483 -36.750 108.485 1.00
ATOM 1768 111CA 44.781 -37.371 109.777 1.00
ATOM 1769 111C 46.200 -37.011 110.197 1.00
ATOM 1770 111O 47.061 -37.878 110.355 1.00
ATOM 1771 111CB 44.617 -38.896 109.689 1.00
ATOM 1772 111CG 43.224 -39.394 110.033 1.00
ATOM 1773 111CD 43.138 -40.909 109.929 1.00
ATOM 1774 111CE 42.113 -41.471 110.901 1.00
ATOM 1775 111NZ 42.735 -41.873 112.193 1.00
ATOM 1776 112N 46.428 -35.711 110.357 1.00
ATOM 1777 112CA 47.726 -35.171 110.730 1.00
ATOM 1778 112C 48.420 -35.928 111.849 1.00
ATOM 1779 112O 47.888 -36.051 112.954 1.00
ATOM 1780 112CB 47.580 -33.702 111.129 1.00
ATOM 1781 112CG 48.258 -32.750 110.174 1.00
ATOM 1782 112CD 49.255 -33.450 109.279 1.00
ATOM 1783 112OE1 50.410 -33.649 109.658 1.00
ATOM 1784 112NE2 48.813 -33.835 108.083 1.00
ATOM 1785 113N 49.616 -36.430 111.552 1.00
ATOM 1786 113CA 50.406 -37.164 112.535 1.00
ATOM 1787 113C 50.558 -36.267 113.753 1.00
ATOM 1788 113O 50.254 -36.655 114.885 1.00
ATOM 1789 113CB 51.771 -37.501 111.955 1.00
ATOM 1790 114N 51.039 -35.058 113.507 1.00
ATOM 1791 114CA 51.199 -34.092 114.569 1.00
ATOM 1792 114C 49.952 -33.217 114.532 1.00
ATOM 1793 114O 49.510 -32.793 113.462 1.00
ATOM 1794 114CB 52.461 -33.257 114.350 1.00
ATOM 1795 114CG 53.252 -33.027 115.619 1.00
ATOM 1796 114CD 52.407 -33.242 116.856 1.00
ATOM 1797 114OE1 52.182 -34.377 117.280 1.00
ATOM 1798 114NE2 51.927 -32.150 117.439 1.00
ATOM 1799 115N 49.380 -32.967 115.703 1.00
ATOM 1800 115CA 48.169 -32.161 115.815 1.00
ATOM 1801 115C 48.306 -30.751 115.245 1.00
ATOM 1802 115O 47.596 -30.375 114.311 1.00
ATOM 1803 115CB 47.744 -32.090 117.273 1.00
ATOM 1804 116N 49.217 -29.975 115.826 1.00
ATOM 1805 116CA 49.459 -28.601 115.399 1.00
ATOM 1806 116C 49.989 -28.539 113.975 1.00
ATOM 1807 116O 49.943 -27.491 113.334 1.00
ATOM 1808 116CB 50.471 -27.935 116.331 1.00
ATOM 1809 116CG 49.886 -27.420 117.626 1.00
ATOM 1810 116CD 49.743 -28.513 118.662 1.00
ATOM 1811 116OE1 50.373 -29.578 118.490 1.00
ATOM 1812 116OE2 49.000 -28.305 119.645 1.00
ATOM 1813 117N 50.497 -29.671 113.493 1.00
ATOM 1814 117CA 51.066 -29.776 112.149 1.00
ATOM 1815 117C 50.053 -29.465 111.066 1.00
ATOM 1816 117O 50.417 -29.105 109.942 1.00
ATOM 1817 117CB 51.631 -31.178 111.931 1.00
ATOM 1818 118N 48.780 -29.619 111.407 1.00
ATOM 1819 118CA 47.705 -29.360 110.465 1.00
ATOM 1820 118C 47.683 -27.893 110.039 1.00
ATOM 1821 118O 47.537 -27.582 108.858 1.00
ATOM 1822 118CB 46.368 -29.752 111.086 1.00
ATOM 1823 119N 47.842 -26.996 111.005 1.00
ATOM 1824 119CA 47.821 -25.560 110.741 1.00
ATOM 1825 119C 48.984 -25.106 109.866 1.00
ATOM 1826 119O 48.956 -24.022 109.274 1.00
ATOM 1827 119CB 47.819 -24.797 112.072 1.00
ATOM 1828 119CG 46.630 -25.109 112.937 1.00
ATOM 1829 119CD1 46.705 -26.095 113.917 1.00
ATOM 1830 119CD2 45.417 -24.454 112.734 1.00
ATOM 1831 119CE1 45.586 -26.429 114.680 1.00
ATOM 1832 119CE2 44.294 -24.776 113.487 1.00
ATOM 1833 119CZ 44.377 -25.767 114.462 1.00
ATOM 1834 120N 50.003 -25.952 109.780 1.00
ATOM 1835 120CA 51.169 -25.635 108.980 1.00
ATOM 1836 120C 50.959 -26.079 107.548 1.00
ATOM 1837 120O 51.911 -26.136 106.777 1.00
ATOM 1838 120CB 52.412 -26.344 109.534 1.00
ATOM 1839 120CG 52.613 -26.210 111.034 1.00
ATOM 1840 120CD 54.035 -26.529 111.466 1.00
ATOM 1841 120OE1 54.594 -25.860 112.339 1.00
ATOM 1842 120NE2 54.626 -27.558 110.858 1.00
ATOM 1843 121N 49.725 -26.378 107.164 1.00
ATOM 1844 121CA 49.550 -26.849 105.806 1.00
ATOM 1845 121C 48.139 -26.886 105.204 1.00
ATOM 1846 121O 47.959 -27.422 104.117 1.00
ATOM 1847 121CB 50.230 -28.251 105.686 1.00
ATOM 1848 121CG1 49.492 -29.266 106.539 1.00
ATOM 1849 121CG2 50.316 -28.691 104.234 1.00
ATOM 1850 122N 47.139 -26.316 105.869 1.00
ATOM 1851 122CA 45.787 -26.338 105.295 1.00
ATOM 1852 122C 45.603 -25.160 104.342 1.00
ATOM 1853 122O 46.223 -24.115 104.531 1.00
ATOM 1854 122CB 44.732 -26.289 106.401 1.00
ATOM 1855 123N 44.761 -25.324 103.321 1.00
ATOM 1856 123CA 44.527 -24.243 102.359 1.00
ATOM 1857 123C 43.794 -23.052 102.999 1.00
ATOM 1858 123O 44.036 -21.892 102.637 1.00
ATOM 1859 123CB 43.783 -24.794 101.109 1.00
ATOM 1860 123CG 42.339 -24.589 100.583 1.00
ATOM 1861 123CD1 41.373 -24.409 101.726 1.00
ATOM 1862 123CD2 42.272 -23.404 99.619 1.00
ATOM 1863 124N 42.929 -23.344 103.972 1.00
ATOM 1864 124CA 42.158 -22.316 104.672 1.00
ATOM 1865 124C 42.144 -22.550 106.176 1.00
ATOM 1866 124O 42.526 -23.617 106.659 1.00
ATOM 1867 124CB 40.725 -22.278 104.147 1.00
ATOM 1868 125N 41.687 -21.545 106.914 1.00
ATOM 1869 125CA 41.620 -21.639 108.364 1.00
ATOM 1870 125C 40.804 -20.505 108.984 1.00
ATOM 1871 125O 41.168 -19.325 108.896 1.00
ATOM 1872 125CB 43.040 -21.650 108.978 1.00
ATOM 1873 125CG1 43.920 -20.648 108.259 1.00
ATOM 1874 125CG2 42.971 -21.335 110.463 1.00
ATOM 1875 126N 39.691 -20.881 109.602 1.00
ATOM 1876 126CA 38.821 -19.922 110.257 1.00
ATOM 1877 126C 39.552 -19.398 111.488 1.00
ATOM 1878 126O 40.279 -20.132 112.156 1.00
ATOM 1879 126CB 37.512 -20.593 110.663 1.00
ATOM 1880 127N 39.367 -18.119 111.779 1.00
ATOM 1881 127CA 40.005 -17.514 112.933 1.00
ATOM 1882 127C 39.000 -16.559 113.576 1.00
ATOM 1883 127O 38.088 -16.064 112.904 1.00
ATOM 1884 127CB 41.283 -16.791 112.492 1.00
ATOM 1885 127CG 41.498 -15.484 113.222 1.00
ATOM 1886 127OD1 41.675 -14.451 112.543 1.00
ATOM 1887 127OD2 41.495 -15.489 114.473 1.00
ATOM 1888 128N 39.161 -16.324 114.876 1.00
ATOM 1889 128CA 38.262 -15.452 115.632 1.00
ATOM 1890 128C 38.616 -13.976 115.541 1.00
ATOM 1891 128O 37.883 -13.122 116.040 1.00
ATOM 1892 128CB 38.248 -15.870 117.101 1.00
ATOM 1893 128OG 39.135 -16.948 117.312 1.00
ATOM 1894 129N 39.746 -13.680 114.916 1.00
ATOM 1895 129CA 40.171 -12.303 114.766 1.00
ATOM 1896 129C 39.848 -11.843 113.355 1.00
ATOM 1897 129O 40.221 -10.745 112.947 1.00
ATOM 1898 129CB 41.670 -12.187 115.036 1.00
ATOM 1899 129OG 41.965 -12.600 116.359 1.00
ATOM 1900 130N 39.146 -12.696 112.615 1.00
ATOM 1901 130CA 38.756 -12.389 111.246 1.00
ATOM 1902 130C 37.313 -11.904 111.242 1.00
ATOM 1903 130O 36.488 -12.394 112.013 1.00
ATOM 1904 130CB 38.878 -13.640 110.367 1.00
ATOM 1905 130CG 40.007 -13.602 109.336 1.00
ATOM 1906 130CD 39.707 -14.517 108.145 1.00
ATOM 1907 130CE 39.631 -15.990 108.555 1.00
ATOM 1908 130NZ 38.226 -16.480 108.752 1.00
ATOM 1909 131N 37.013 -10.934 110.381 1.00
ATOM 1910 131CA 35.660 -10.394 110.270 1.00
ATOM 1911 131C 34.718 -11.582 110.072 1.00
ATOM 1912 131O 33.678 -11.709 110.733 1.00
ATOM 1913 131CB 35.576 -9.445 109.063 1.00
ATOM 1914 131CG 34.400 -8.454 109.080 1.00
ATOM 1915 131CD 34.234 -7.688 107.763 1.00
ATOM 1916 131OE1 34.785 -8.127 106.727 1.00
ATOM 1917 131OE2 33.549 -6.642 107.763 1.00
ATOM 1918 132N 35.110 -12.456 109.153 1.00
ATOM 1919 132CA 34.343 -13.644 108.838 1.00
ATOM 1920 132C 35.106 -14.840 109.393 1.00
ATOM 1921 132O 36.114 -15.269 108.836 1.00
ATOM 1922 132CB 34.166 -13.783 107.313 1.00
ATOM 1923 132CG1 35.525 -13.695 106.624 1.00
ATOM 1924 132CG2 33.449 -15.081 106.983 1.00
ATOM 1925 133N 34.627 -15.363 110.510 1.00
ATOM 1926 133CA 35.276 -16.497 111.139 1.00
ATOM 1927 133C 34.839 -17.786 110.458 1.00
ATOM 1928 133O 33.901 -18.459 110.902 1.00
ATOM 1929 133CB 34.912 -16.558 112.613 1.00
ATOM 1930 133CG1 33.391 -16.480 112.772 1.00
ATOM 1931 133CG2 35.479 -17.819 113.225 1.00
ATOM 1932 134N 35.528 -18.116 109.370 1.00
ATOM 1933 134CA 35.224 -19.311 108.592 1.00
ATOM 1934 134C 36.335 -19.597 107.599 1.00
ATOM 1935 134O 37.107 -18.705 107.241 1.00
ATOM 1936 134CB 33.913 -19.136 107.854 1.00
ATOM 1937 135N 36.395 -20.847 107.150 1.00
ATOM 1938 135CA 37.414 -21.297 106.208 1.00
ATOM 1939 135C 36.807 -22.002 105.004 1.00
ATOM 1940 135O 35.987 -22.908 105.145 1.00
ATOM 1941 135CB 38.397 -22.234 106.910 1.00
ATOM 1942 136N 37.235 -21.588 103.818 1.00
ATOM 1943 136CA 36.741 -22.169 102.579 1.00
ATOM 1944 136C 37.761 -23.092 101.918 1.00
ATOM 1945 136O 38.799 -22.645 101.427 1.00
ATOM 1946 136CB 36.349 -21.058 101.599 1.00
ATOM 1947 136CG 35.506 -21.537 100.423 1.00
ATOM 1948 136SD 34.441 -22.941 100.849 1.00
ATOM 1949 136CE 35.206 -24.257 99.895 1.00
ATOM 1950 137N 37.458 -24.384 101.907 1.00
ATOM 1951 137CA 38.348 -25.344 101.289 1.00
ATOM 1952 137C 37.907 -25.572 99.843 1.00
ATOM 1953 137O 37.368 -26.619 99.449 1.00
ATOM 1954 137CB 38.365 -26.616 102.119 1.00
ATOM 1955 137CG 38.892 -26.370 103.523 1.00
ATOM 1956 137CD1 38.096 -25.747 104.491 1.00
ATOM 1957 137CD2 40.191 -26.755 103.884 1.00
ATOM 1958 137CE1 38.577 -25.517 105.786 1.00
ATOM 1959 137CE2 40.686 -26.531 105.177 1.00
ATOM 1960 137CZ 39.872 -25.912 106.118 1.00
ATOM 1961 137OH 40.350 -25.694 107.389 1.00
ATOM 1962 138N 38.145 -24.516 99.076 1.00
ATOM 1963 138CA 37.834 -24.413 97.663 1.00
ATOM 1964 138C 38.467 -25.520 96.849 1.00
ATOM 1965 138O 39.680 -25.523 96.645 1.00
ATOM 1966 138CB 38.356 -23.079 97.116 1.00
ATOM 1967 138OG1 39.658 -22.824 97.665 1.00
ATOM 1968 138CG2 37.425 -21.938 97.498 1.00
ATOM 1969 139N 37.648 -26.460 96.393 1.00
ATOM 1970 139CA 38.127 -27.562 95.561 1.00
ATOM 1971 139C 39.268 -28.409 96.124 1.00
ATOM 1972 139O 39.535 -29.500 95.623 1.00
ATOM 1973 139CB 38.555 -27.020 94.194 1.00
ATOM 1974 139CG 40.051 -26.773 94.106 1.00
ATOM 1975 139OD1 40.472 -25.610 94.289 1.00
ATOM 1976 139OD2 40.803 -27.739 93.853 1.00
ATOM 1977 140N 39.947 -27.907 97.147 1.00
ATOM 1978 140CA 41.071 -28.615 97.748 1.00
ATOM 1979 140C 40.790 -30.104 98.047 1.00
ATOM 1980 140O 41.714 -30.894 98.305 1.00
ATOM 1981 140CB 41.499 -27.882 99.022 1.00
ATOM 1982 141N 39.520 -30.494 97.996 1.00
ATOM 1983 141CA 39.151 -31.876 98.272 1.00
ATOM 1984 141C 38.280 -32.441 97.182 1.00
ATOM 1985 141O 37.783 -33.564 97.280 1.00
ATOM 1986 141CB 38.419 -31.942 99.590 1.00
ATOM 1987 141CG 39.246 -31.481 100.741 1.00
ATOM 1988 141CD1 38.971 -30.275 101.374 1.00
ATOM 1989 141CD2 40.302 -32.260 101.206 1.00
ATOM 1990 141CE1 39.734 -29.850 102.463 1.00
ATOM 1991 141CE2 41.070 -31.846 102.294 1.00
ATOM 1992 141CZ 40.785 -30.637 102.926 1.00
ATOM 1993 142N 38.102 -31.638 96.144 1.00
ATOM 1994 142CA 37.306 -32.022 95.000 1.00
ATOM 1995 142C 37.662 -33.439 94.569 1.00
ATOM 1996 142O 38.837 -33.801 94.501 1.00
ATOM 1997 142CB 37.564 -31.047 93.848 1.00
ATOM 1998 142CG 36.457 -30.994 92.810 1.00
ATOM 1999 142CD 35.452 -29.896 93.119 1.00
ATOM 2000 142NE 35.827 -28.629 92.505 1.00
ATOM 2001 142CZ 35.778 -27.459 93.129 1.00
ATOM 2002 142NH1 35.366 -27.393 94.387 1.00
ATOM 2003 142NH2 36.150 -26.356 92.495 1.00
ATOM 2004 143N 36.633 -34.240 94.302 1.00
ATOM 2005 143CA 36.830 -35.604 93.842 1.00
ATOM 2006 143C 37.294 -36.600 94.878 1.00
ATOM 2007 143O 38.070 -37.506 94.571 1.00
ATOM 2008 144N 36.818 -36.445 96.103 1.00
ATOM 2009 144CA 37.211 -37.357 97.157 1.00
ATOM 2010 144C 36.000 -38.090 97.716 1.00
ATOM 2011 144O 34.945 -37.492 97.941 1.00
ATOM 2012 144CB 37.926 -36.594 98.253 1.00
ATOM 2013 145N 36.158 -39.394 97.930 1.00
ATOM 2014 145CA 35.077 -40.216 98.456 1.00
ATOM 2015 145C 34.462 -39.578 99.695 1.00
ATOM 2016 145O 35.157 -39.043 100.557 1.00
ATOM 2017 145CB 35.559 -41.657 98.802 1.00
ATOM 2018 145OG1 35.920 -42.343 97.596 1.00
ATOM 2019 145CG2 34.459 -42.449 99.509 1.00
ATOM 2020 146N 33.143 -39.616 99.766 1.00
ATOM 2021 146CA 32.456 -39.071 100.909 1.00
ATOM 2022 146C 32.944 -39.821 102.131 1.00
ATOM 2023 146O 32.905 -39.320 103.248 1.00
ATOM 2024 146CB 30.961 -39.277 100.754 1.00
ATOM 2025 146CG 30.156 -38.026 101.063 1.00
ATOM 2026 146CD1 30.947 -36.796 100.617 1.00
ATOM 2027 146CD2 28.808 -38.116 100.363 1.00
ATOM 2028 147N 33.379 -41.052 101.908 1.00
ATOM 2029 147CA 33.888 -41.842 103.005 1.00
ATOM 2030 147C 35.303 -41.374 103.237 1.00
ATOM 2031 147O 35.758 -41.247 104.371 1.00
ATOM 2032 148N 35.983 -41.090 102.132 1.00
ATOM 2033 148CA 37.364 -40.633 102.147 1.00
ATOM 2034 148C 37.627 -39.560 103.196 1.00
ATOM 2035 148O 38.778 -39.270 103.520 1.00
ATOM 2036 148CB 37.751 -40.102 100.763 1.00
ATOM 2037 148CG 38.436 -41.153 99.896 1.00
ATOM 2038 148OD1 38.164 -42.365 100.073 1.00
ATOM 2039 148OD2 39.251 -40.759 99.033 1.00
ATOM 2040 149N 36.569 -38.982 103.743 1.00
ATOM 2041 149CA 36.743 -37.934 104.736 1.00
ATOM 2042 149C 37.100 -38.437 106.129 1.00
ATOM 2043 149O 38.011 -37.925 106.757 1.00
ATOM 2044 149CB 35.486 -37.066 104.795 1.00
ATOM 2045 149CG 34.530 -37.297 103.625 1.00
ATOM 2046 149CD1 33.268 -36.503 103.837 1.00
ATOM 2047 149CD2 35.180 -36.906 102.321 1.00
ATOM 2048 150N 36.400 -39.450 106.612 1.00
ATOM 2049 150CA 36.670 -39.965 107.947 1.00
ATOM 2050 150C 38.157 -40.162 108.292 1.00
ATOM 2051 150O 38.528 -40.177 109.474 1.00
ATOM 2052 150CB 35.893 -41.265 108.154 1.00
ATOM 2053 150CG 34.363 -41.132 108.160 1.00
ATOM 2054 150CD1 33.927 -40.169 109.260 1.00
ATOM 2055 150CD2 33.876 -40.656 106.797 1.00
ATOM 2056 151N 39.006 -40.320 107.276 1.00
ATOM 2057 151CA 40.440 -40.477 107.519 1.00
ATOM 2058 151C 41.037 -39.081 107.500 1.00
ATOM 2059 151O 42.216 -38.882 107.198 1.00
ATOM 2060 151CB 41.116 -41.347 106.453 1.00
ATOM 2061 151CG 40.270 -41.534 105.214 1.00
ATOM 2062 151OD1 39.083 -41.218 105.197 1.00
ATOM 2063 151ND2 40.883 -42.060 104.162 1.00
ATOM 2064 152N 40.174 -38.121 107.814 1.00
ATOM 2065 152CA 40.506 -36.706 107.893 1.00
ATOM 2066 152C 40.230 -36.327 109.330 1.00
ATOM 2067 152O 39.678 -37.116 110.098 1.00
ATOM 2068 152CB 39.577 -35.871 107.009 1.00
ATOM 2069 152CG 40.075 -35.308 105.683 1.00
ATOM 2070 152CD1 41.093 -34.224 105.956 1.00
ATOM 2071 152CD2 40.672 -36.423 104.844 1.00
ATOM 2072 153N 40.601 -35.114 109.694 1.00
ATOM 2073 153CA 40.344 -34.657 111.040 1.00
ATOM 2074 153C 40.154 -33.163 110.976 1.00
ATOM 2075 153O 40.490 -32.523 109.979 1.00
ATOM 2076 153CB 41.506 -35.008 111.976 1.00
ATOM 2077 153CG 41.179 -36.091 112.992 1.00
ATOM 2078 153CD 42.167 -37.246 112.948 1.00
ATOM 2079 153OE1 41.860 -38.338 112.452 1.00
ATOM 2080 153NE2 43.366 -37.009 113.469 1.00
ATOM 2081 154N 39.593 -32.622 112.046 1.00
ATOM 2082 154CA 39.337 -31.199 112.158 1.00
ATOM 2083 154C 40.164 -30.748 113.347 1.00
ATOM 2084 154O 40.053 -31.321 114.430 1.00
ATOM 2085 154CB 37.843 -30.936 112.423 1.00
ATOM 2086 154CG1 36.991 -32.047 111.786 1.00
ATOM 2087 154CG2 37.458 -29.590 111.856 1.00
ATOM 2088 154CD1 35.737 -32.437 112.578 1.00
ATOM 2089 155N 40.994 -29.732 113.145 1.00
ATOM 2090 155CA 41.868 -29.248 114.211 1.00
ATOM 2091 155C 41.522 -27.847 114.708 1.00
ATOM 2092 155O 41.374 -26.925 113.909 1.00
ATOM 2093 155CB 43.321 -29.305 113.725 1.00
ATOM 2094 155CG 43.664 -30.623 113.051 1.00
ATOM 2095 155CD1 43.272 -30.883 111.736 1.00
ATOM 2096 155CD2 44.349 -31.626 113.743 1.00
ATOM 2097 155CE1 43.553 -32.109 111.129 1.00
ATOM 2098 155CE2 44.634 -32.857 113.145 1.00
ATOM 2099 155CZ 44.233 -33.089 111.840 1.00
ATOM 2100 155OH 44.500 -34.301 111.250 1.00
ATOM 2101 156N 41.406 -27.697 116.031 1.00
ATOM 2102 156CA 41.057 -26.417 116.664 1.00
ATOM 2103 156C 41.994 -26.045 117.817 1.00
ATOM 2104 156O 42.196 -26.835 118.739 1.00
ATOM 2105 156CB 39.623 -26.475 117.199 1.00
ATOM 2106 156CG 39.327 -27.723 118.047 1.00
ATOM 2107 156CD1 38.143 -27.454 118.960 1.00
ATOM 2108 156CD2 39.045 -28.922 117.148 1.00
ATOM 2109 157N 42.553 -24.838 117.769 1.00
ATOM 2110 157CA 43.467 -24.375 118.813 1.00
ATOM 2111 157C 42.859 -23.177 119.529 1.00
ATOM 2112 157O 42.118 -22.412 118.918 1.00
ATOM 2113 157CB 44.818 -23.984 118.198 1.00
ATOM 2114 157CG 45.397 -22.690 118.736 1.00
ATOM 2115 157CD1 46.386 -22.699 119.722 1.00
ATOM 2116 157CD2 44.944 -21.455 118.268 1.00
ATOM 2117 157CE1 46.908 -21.505 120.231 1.00
ATOM 2118 157CE2 45.458 -20.260 118.769 1.00
ATOM 2119 157CZ 46.437 -20.290 119.748 1.00
ATOM 2120 157OH 46.941 -19.104 120.228 1.00
ATOM 2121 158N 43.184 -23.005 120.811 1.00
ATOM 2122 158CA 42.652 -21.878 121.582 1.00
ATOM 2123 158C 43.715 -21.096 122.346 1.00
ATOM 2124 158O 44.678 -21.668 122.853 1.00
ATOM 2125 158CB 41.592 -22.365 122.557 1.00
ATOM 2126 159N 43.531 -19.783 122.425 1.00
ATOM 2127 159CA 44.465 -18.942 123.156 1.00
ATOM 2128 159C 44.546 -19.513 124.569 1.00
ATOM 2129 159O 45.521 -20.176 124.915 1.00
ATOM 2130 159CB 43.964 -17.494 123.185 1.00
ATOM 2131 159OG 44.005 -16.913 121.891 1.00
ATOM 2132 160N 43.514 -19.273 125.377 1.00
ATOM 2133 160CA 43.479 -19.795 126.743 1.00
ATOM 2134 160C 42.572 -21.009 126.804 1.00
ATOM 2135 160O 41.608 -21.120 126.042 1.00
ATOM 2136 160CB 42.966 -18.744 127.732 1.00
ATOM 2137 160CG 41.911 -17.822 127.166 1.00
ATOM 2138 160CD 42.518 -16.582 126.543 1.00
ATOM 2139 160OE1 42.249 -16.322 125.350 1.00
ATOM 2140 160OE2 43.268 -15.871 127.244 1.00
ATOM 2141 161N 42.889 -21.916 127.720 1.00
ATOM 2142 161CA 42.111 -23.131 127.890 1.00
ATOM 2143 161C 40.629 -22.800 127.841 1.00
ATOM 2144 161O 40.234 -21.630 127.924 1.00
ATOM 2145 161CB 42.461 -23.802 129.215 1.00
ATOM 2146 162N 39.808 -23.835 127.719 1.00
ATOM 2147 162CA 38.379 -23.625 127.633 1.00
ATOM 2148 162C 37.586 -24.936 127.660 1.00
ATOM 2149 162O 38.130 -26.008 127.390 1.00
ATOM 2150 162CB 38.072 -22.831 126.350 1.00
ATOM 2151 162CG1 37.064 -23.576 125.488 1.00
ATOM 2152 162CG2 37.597 -21.434 126.718 1.00
ATOM 2153 163N 36.284 -24.860 127.991 1.00
ATOM 2154 163CA 35.402 -26.029 128.060 1.00
ATOM 2155 163C 35.095 -26.704 126.737 1.00
ATOM 2156 163O 35.593 -26.320 125.678 1.00
ATOM 2157 163CB 34.127 -25.478 128.690 1.00
ATOM 2158 163CG 34.116 -24.057 128.270 1.00
ATOM 2159 163CD 35.558 -23.626 128.338 1.00
ATOM 2160 164N 34.258 -27.728 126.829 1.00
ATOM 2161 164CA 33.829 -28.486 125.671 1.00
ATOM 2162 164C 32.486 -27.901 125.295 1.00
ATOM 2163 164O 31.921 -27.113 126.061 1.00
ATOM 2164 164CB 33.680 -29.956 126.025 1.00
ATOM 2165 165N 31.978 -28.286 124.126 1.00
ATOM 2166 165CA 30.697 -27.789 123.635 1.00
ATOM 2167 165C 30.789 -26.274 123.617 1.00
ATOM 2168 165O 29.885 -25.586 123.141 1.00
ATOM 2169 165CB 29.556 -28.228 124.561 1.00
ATOM 2170 165CG 28.473 -29.067 123.885 1.00
ATOM 2171 165CD 27.456 -29.588 124.903 1.00
ATOM 2172 165CE 27.005 -31.009 124.575 1.00
ATOM 2173 165NZ 26.298 -31.655 125.719 1.00
ATOM 2174 166N 31.905 -25.780 124.146 1.00
ATOM 2175 166CA 32.206 -24.362 124.239 1.00
ATOM 2176 166C 32.148 -23.745 122.847 1.00
ATOM 2177 166O 31.844 -22.558 122.681 1.00
ATOM 2178 166CB 33.590 -24.180 124.847 1.00
ATOM 2179 167N 32.443 -24.565 121.848 1.00
ATOM 2180 167CA 32.403 -24.115 120.471 1.00
ATOM 2181 167C 31.890 -25.200 119.547 1.00
ATOM 2182 167O 32.086 -26.399 119.775 1.00
ATOM 2183 167CB 33.791 -23.664 119.976 1.00
ATOM 2184 167CG1 34.243 -24.510 118.776 1.00
ATOM 2185 167CG2 33.727 -22.211 119.579 1.00
ATOM 2186 168N 31.222 -24.762 118.497 1.00
ATOM 2187 168CA 30.701 -25.684 117.524 1.00
ATOM 2188 168C 31.333 -25.335 116.193 1.00
ATOM 2189 168O 31.471 -24.166 115.836 1.00
ATOM 2190 168CB 29.177 -25.584 117.426 1.00
ATOM 2191 168CG1 28.774 -24.200 116.951 1.00
ATOM 2192 168CG2 28.662 -26.653 116.491 1.00
ATOM 2193 169N 31.736 -26.365 115.471 1.00
ATOM 2194 169CA 32.362 -26.193 114.176 1.00
ATOM 2195 169C 31.363 -26.680 113.139 1.00
ATOM 2196 169O 30.739 -27.727 113.324 1.00
ATOM 2197 169CB 33.646 -27.021 114.112 1.00
ATOM 2198 169CG1 33.715 -27.929 115.333 1.00
ATOM 2199 169CG2 33.696 -27.835 112.830 1.00
ATOM 2200 170N 31.211 -25.932 112.050 1.00
ATOM 2201 170CA 30.255 -26.327 111.032 1.00
ATOM 2202 170C 30.827 -26.728 109.693 1.00
ATOM 2203 170O 31.211 -25.897 108.870 1.00
ATOM 2204 170CB 29.217 -25.234 110.852 1.00
ATOM 2205 170CG 28.556 -24.839 112.132 1.00
ATOM 2206 170ND1 27.243 -25.151 112.417 1.00
ATOM 2207 170CD2 29.032 -24.175 113.213 1.00
ATOM 2208 170CE1 26.938 -24.695 113.619 1.00
ATOM 2209 170NE2 28.006 -24.098 114.123 1.00
ATOM 2210 171N 30.875 -28.038 109.501 1.00
ATOM 2211 171CA 31.366 -28.638 108.280 1.00
ATOM 2212 171C 30.229 -28.480 107.275 1.00
ATOM 2213 171O 29.201 -29.158 107.353 1.00
ATOM 2214 171CB 31.689 -30.124 108.514 1.00
ATOM 2215 171CG 31.499 -30.686 109.942 1.00
ATOM 2216 171CD1 31.791 -32.179 109.988 1.00
ATOM 2217 171CD2 32.429 -29.974 110.902 1.00
ATOM 2218 172N 30.410 -27.532 106.367 1.00
ATOM 2219 172CA 29.441 -27.248 105.320 1.00
ATOM 2220 172C 30.075 -27.826 104.051 1.00
ATOM 2221 172O 31.060 -27.292 103.539 1.00
ATOM 2222 172CB 29.250 -25.729 105.201 1.00
ATOM 2223 172CG 27.915 -25.276 104.627 1.00
ATOM 2224 172CD 27.087 -24.472 105.616 1.00
ATOM 2225 172OE1 27.231 -24.693 106.841 1.00
ATOM 2226 172OE2 26.290 -23.621 105.162 1.00
ATOM 2227 173N 29.531 -28.930 103.556 1.00
ATOM 2228 173CA 30.092 -29.561 102.366 1.00
ATOM 2229 173C 29.070 -29.762 101.268 1.00
ATOM 2230 173O 27.868 -29.828 101.523 1.00
ATOM 2231 173CB 30.725 -30.947 102.703 1.00
ATOM 2232 173CG1 30.146 -31.473 104.008 1.00
ATOM 2233 173CG2 30.496 -31.959 101.549 1.00
ATOM 2234 174N 29.568 -29.853 100.040 1.00
ATOM 2235 174CA 28.720 -30.082 98.886 1.00
ATOM 2236 174C 29.294 -31.308 98.163 1.00
ATOM 2237 174O 30.500 -31.573 98.227 1.00
ATOM 2238 174CB 28.677 -28.813 98.014 1.00
ATOM 2239 174CG 29.146 -28.958 96.594 1.00
ATOM 2240 174CD 30.635 -28.726 96.464 1.00
ATOM 2241 174OE1 31.042 -28.064 95.486 1.00
ATOM 2242 174OE2 31.394 -29.204 97.339 1.00
ATOM 2243 175N 28.414 -32.065 97.509 1.00
ATOM 2244 175CA 28.784 -33.299 96.816 1.00
ATOM 2245 175C 27.705 -33.625 95.787 1.00
ATOM 2246 175O 27.676 -33.035 94.729 1.00
ATOM 2247 175CB 28.859 -34.422 97.829 1.00
ATOM 2248 175CG 27.785 -34.341 98.865 1.00
ATOM 2249 175ND1 26.731 -35.227 98.913 1.00
ATOM 2250 175CD2 27.556 -33.430 99.842 1.00
ATOM 2251 175CE1 25.898 -34.864 99.873 1.00
ATOM 2252 175NE2 26.376 -33.777 100.452 1.00
ATOM 2253 176N 26.809 -34.563 96.091 1.00
ATOM 2254 176CA 25.745 -34.913 95.142 1.00
ATOM 2255 176C 24.509 -35.543 95.793 1.00
ATOM 2256 176O 24.506 -35.838 96.984 1.00
ATOM 2257 176CB 26.242 -35.914 94.082 1.00
ATOM 2258 176CG1 27.582 -35.492 93.508 1.00
ATOM 2259 176CG2 26.360 -37.278 94.705 1.00
ATOM 2260 177N 23.465 -35.751 94.994 1.00
ATOM 2261 177CA 22.229 -36.376 95.465 1.00
ATOM 2262 177C 22.316 -37.836 95.015 1.00
ATOM 2263 177O 22.696 -38.105 93.880 1.00
ATOM 2264 177CB 21.017 -35.687 94.828 1.00
ATOM 2265 177CG 21.373 -34.590 93.816 1.00
ATOM 2266 177CD 21.197 -33.184 94.400 1.00
ATOM 2267 177NE 20.427 -32.300 93.521 1.00
ATOM 2268 177CZ 20.566 -30.977 93.469 1.00
ATOM 2269 177NH1 21.452 -30.367 94.248 1.00
ATOM 2270 177NH2 19.815 -30.260 92.639 1.00
ATOM 2271 178N 21.959 -38.798 95.887 1.00
ATOM 2272 178CA 22.040 -40.219 95.508 1.00
ATOM 2273 178C 20.866 -40.883 94.769 1.00
ATOM 2274 178O 20.494 -40.503 93.649 1.00
ATOM 2275 178CB 22.323 -40.914 96.842 1.00
ATOM 2276 178CG 21.612 -40.039 97.867 1.00
ATOM 2277 178CD 21.471 -38.635 97.269 1.00
ATOM 2278 179N 20.317 -41.910 95.409 1.00
ATOM 2279 179CA 19.203 -42.668 94.868 1.00
ATOM 2280 179C 18.228 -43.047 95.982 1.00
ATOM 2281 179O 17.559 -44.072 95.884 1.00
ATOM 2282 179CB 19.703 -43.964 94.165 1.00
ATOM 2283 179OG1 21.033 -43.751 93.683 1.00
ATOM 2284 179CG2 18.799 -44.351 92.984 1.00
ATOM 2285 180N 18.151 -42.252 97.052 1.00
ATOM 2286 180CA 17.199 -42.590 98.105 1.00
ATOM 2287 180C 16.110 -41.583 98.454 1.00
ATOM 2288 180O 14.933 -41.946 98.440 1.00
ATOM 2289 180CB 17.877 -43.022 99.403 1.00
ATOM 2290 180CG 16.949 -43.806 100.302 1.00
ATOM 2291 180CD1 16.860 -45.194 100.195 1.00
ATOM 2292 180CD2 16.077 -43.148 101.175 1.00
ATOM 2293 180CE1 15.913 -45.912 100.937 1.00
ATOM 2294 180CE2 15.125 -43.858 101.923 1.00
ATOM 2295 180CZ 15.044 -45.241 101.800 1.00
ATOM 2296 181N 16.466 -40.342 98.792 1.00
ATOM 2297 181CA 15.438 -39.339 99.124 1.00
ATOM 2298 181C 14.354 -39.521 98.084 1.00
ATOM 2299 181O 13.169 -39.279 98.317 1.00
ATOM 2300 181CB 15.989 -37.912 99.012 1.00
ATOM 2301 181CG 14.956 -36.922 98.464 1.00
ATOM 2302 181OD1 14.223 -36.314 99.274 1.00
ATOM 2303 181OD2 14.877 -36.751 97.227 1.00
ATOM 2304 182N 14.816 -39.958 96.924 1.00
ATOM 2305 182CA 13.985 -40.221 95.777 1.00
ATOM 2306 182C 12.722 -40.987 96.165 1.00
ATOM 2307 182O 11.631 -40.659 95.701 1.00
ATOM 2308 182CB 14.797 -41.013 94.740 1.00
ATOM 2309 182CG 16.273 -40.590 94.686 1.00
ATOM 2310 182OD1 16.663 -39.635 95.392 1.00
ATOM 2311 182OD2 17.047 -41.215 93.930 1.00
ATOM 2312 183N 12.856 -41.989 97.028 1.00
ATOM 2313 183CA 11.690 -42.776 97.408 1.00
ATOM 2314 183C 11.799 -43.545 98.717 1.00
ATOM 2315 183O 12.839 -43.556 99.374 1.00
ATOM 2316 183CB 11.365 -43.757 96.286 1.00
ATOM 2317 183CG 12.578 -44.250 95.553 1.00
ATOM 2318 183CD1 13.537 -45.016 96.207 1.00
ATOM 2319 183CD2 12.769 -43.940 94.209 1.00
ATOM 2320 183CE1 14.670 -45.468 95.535 1.00
ATOM 2321 183CE2 13.899 -44.387 93.526 1.00
ATOM 2322 183CZ 14.852 -45.154 94.191 1.00
ATOM 2323 184N 10.694 -44.187 99.085 1.00
ATOM 2324 184CA 10.630 -44.985 100.300 1.00
ATOM 2325 184C 11.306 -46.319 100.001 1.00
ATOM 2326 184O 12.196 -46.393 99.148 1.00
ATOM 2327 184CB 9.172 -45.223 100.723 1.00
ATOM 2328 184CG 8.371 -43.955 100.939 1.00
ATOM 2329 184CD1 8.018 -43.137 99.864 1.00
ATOM 2330 184CD2 7.946 -43.593 102.221 1.00
ATOM 2331 184CE1 7.253 -41.981 100.065 1.00
ATOM 2332 184CE2 7.178 -42.436 102.433 1.00
ATOM 2333 184CZ 6.831 -41.631 101.355 1.00
ATOM 2334 185N 10.873 -47.375 100.683 1.00
ATOM 2335 185CA 11.465 -48.689 100.481 1.00
ATOM 2336 185C 10.449 -49.822 100.510 1.00
ATOM 2337 185O 9.336 -49.659 101.005 1.00
ATOM 2338 185CB 12.535 -48.967 101.544 1.00
ATOM 2339 185OG1 12.294 -48.141 102.691 1.00
ATOM 2340 185CG2 13.927 -48.679 100.980 1.00
ATOM 2341 186N 10.836 -50.996 99.989 1.00
ATOM 2342 186CA 10.031 -52.219 99.905 1.00
ATOM 2343 186C 8.736 -52.384 100.735 1.00
ATOM 2344 186O 8.763 -52.484 101.968 1.00
ATOM 2345 186CB 11.060 -53.316 100.200 1.00
ATOM 2346 186CG 12.411 -52.710 99.711 1.00
ATOM 2347 186CD 12.180 -51.230 99.430 1.00
ATOM 2348 187N 7.601 -52.407 100.031 1.00
ATOM 2349 187CA 6.298 -52.616 100.657 1.00
ATOM 2350 187C 6.389 -54.085 101.032 1.00
ATOM 2351 187O 6.679 -54.421 102.181 1.00
ATOM 2352 187CB 5.121 -52.395 99.651 1.00
ATOM 2353 187CG1 5.527 -52.831 98.241 1.00
ATOM 2354 187CG2 3.880 -53.160 100.113 1.00
ATOM 2355 188N 6.156 -54.953 100.049 1.00
ATOM 2356 188CA 6.276 -56.389 100.252 1.00
ATOM 2357 188C 7.437 -56.844 99.368 1.00
ATOM 2358 188O 7.391 -56.709 98.142 1.00
ATOM 2359 188CB 4.985 -57.138 99.872 1.00
ATOM 2360 188CG 4.881 -58.518 100.518 1.00
ATOM 2361 188CD1 4.028 -59.500 100.004 1.00
ATOM 2362 188CD2 5.655 -58.848 101.638 1.00
ATOM 2363 188CE1 3.953 -60.780 100.591 1.00
ATOM 2364 188CE2 5.589 -60.119 102.229 1.00
ATOM 2365 188CZ 4.739 -61.079 101.704 1.00
ATOM 2366 188OH 4.690 -62.330 102.288 1.00
ATOM 2367 189N 8.483 -57.355 100.015 1.00
ATOM 2368 189CA 9.692 -57.830 99.343 1.00
ATOM 2369 189C 9.388 -58.751 98.160 1.00
ATOM 2370 189O 9.209 -59.970 98.382 1.00
ATOM 2371 189CB 10.597 -58.551 100.357 1.00
ATOM 2372 189CG 10.830 -57.769 101.657 1.00
ATOM 2373 189CD 11.340 -58.653 102.800 1.00
ATOM 2374 189NE 10.544 -59.867 102.984 1.00
ATOM 2375 189CZ 9.961 -60.222 104.127 1.00
ATOM 2376 189NH1 10.080 -59.456 105.207 1.00
ATOM 2377 189NH2 9.264 -61.349 104.194 1.00
ATOM 2378 189OXT 9.333 -58.238 97.021 1.00
