ATOM 1 1N 56.197 8.782 68.727 1.00
ATOM 2 1CA 55.622 9.760 69.698 1.00
ATOM 3 1C 54.514 9.119 70.533 1.00
ATOM 4 1O 53.958 8.087 70.153 1.00
ATOM 5 1CB 55.079 10.972 68.947 1.00
ATOM 6 2N 54.198 9.734 71.671 1.00
ATOM 7 2CA 53.157 9.223 72.558 1.00
ATOM 8 2C 52.689 10.284 73.554 1.00
ATOM 9 2O 51.820 11.100 73.242 1.00
ATOM 10 2CB 53.666 7.987 73.305 1.00
ATOM 11 3N 53.274 10.268 74.749 1.00
ATOM 12 3CA 52.914 11.218 75.798 1.00
ATOM 13 3C 53.795 12.465 75.787 1.00
ATOM 14 3O 55.007 12.383 76.006 1.00
ATOM 15 3CB 52.991 10.538 77.159 1.00
ATOM 16 4N 53.170 13.615 75.539 1.00
ATOM 17 4CA 53.871 14.894 75.493 1.00
ATOM 18 4C 55.109 14.788 74.609 1.00
ATOM 19 4O 56.096 15.501 74.810 1.00
ATOM 20 4CB 54.263 15.326 76.903 1.00
ATOM 21 5N 55.044 13.893 73.628 1.00
ATOM 22 5CA 56.149 13.674 72.705 1.00
ATOM 23 5C 56.282 14.832 71.722 1.00
ATOM 24 5O 56.592 14.630 70.546 1.00
ATOM 25 6N 56.044 16.044 72.213 1.00
ATOM 26 6CA 56.141 17.245 71.391 1.00
ATOM 27 6C 57.254 18.153 71.914 1.00
ATOM 28 6O 57.084 18.845 72.921 1.00
ATOM 29 6CB 54.810 17.987 71.393 1.00
ATOM 30 7N 58.393 18.144 71.222 1.00
ATOM 31 7CA 59.544 18.956 71.609 1.00
ATOM 32 7C 60.013 19.847 70.458 1.00
ATOM 33 7O 59.240 20.170 69.555 1.00
ATOM 34 8N 61.283 20.241 70.503 1.00
ATOM 35 8CA 61.866 21.093 69.470 1.00
ATOM 36 8C 63.056 20.398 68.815 1.00
ATOM 37 8O 63.682 19.520 69.414 1.00
ATOM 38 8CB 62.305 22.421 70.075 1.00
ATOM 39 9N 63.362 20.799 67.584 1.00
ATOM 40 9CA 64.471 20.218 66.831 1.00
ATOM 41 9C 64.313 18.704 66.684 1.00
ATOM 42 9O 63.409 18.102 67.270 1.00
ATOM 43 9CB 65.799 20.546 67.514 1.00
ATOM 44 10N 65.195 18.095 65.897 1.00
ATOM 45 10CA 65.151 16.654 65.666 1.00
ATOM 46 10C 65.581 15.861 66.899 1.00
ATOM 47 10O 66.177 16.408 67.830 1.00
ATOM 48 10CB 66.037 16.290 64.475 1.00
ATOM 49 11N 65.268 14.568 66.890 1.00
ATOM 50 11CA 65.600 13.662 67.987 1.00
ATOM 51 11C 64.943 12.305 67.742 1.00
ATOM 52 11O 63.857 12.030 68.258 1.00
ATOM 53 11CB 65.120 14.243 69.313 1.00
ATOM 54 12N 65.605 11.462 66.953 1.00
ATOM 55 12CA 65.085 10.136 66.620 1.00
ATOM 56 12C 64.861 9.255 67.850 1.00
ATOM 57 12O 65.256 9.608 68.962 1.00
ATOM 58 12CB 66.032 9.439 65.645 1.00
ATOM 59 13N 64.222 8.105 67.637 1.00
ATOM 60 13CA 63.941 7.166 68.720 1.00
ATOM 61 13C 63.493 5.801 68.191 1.00
ATOM 62 13O 62.685 5.716 67.264 1.00
ATOM 63 13CB 62.872 7.743 69.646 1.00
ATOM 64 14N 64.029 4.739 68.788 1.00
ATOM 65 14CA 63.693 3.371 68.399 1.00
ATOM 66 14C 63.518 2.514 69.650 1.00
ATOM 67 14O 63.971 2.886 70.733 1.00
ATOM 68 14CB 64.792 2.791 67.517 1.00
ATOM 69 15N 62.859 1.368 69.500 1.00
ATOM 70 15CA 62.629 0.474 70.629 1.00
ATOM 71 15C 63.249 -0.899 70.394 1.00
ATOM 72 15O 64.365 -1.008 69.884 1.00
ATOM 73 15CB 61.126 0.335 70.885 1.00
ATOM 74 16N 62.516 -1.944 70.773 1.00
ATOM 75 16CA 62.975 -3.320 70.612 1.00
ATOM 76 16C 61.796 -4.269 70.398 1.00
ATOM 77 16O 60.677 -3.991 70.833 1.00
ATOM 78 16CB 63.775 -3.749 71.836 1.00
ATOM 79 17N 62.056 -5.391 69.731 1.00
ATOM 80 17CA 61.021 -6.383 69.456 1.00
ATOM 81 17C 61.200 -7.640 70.305 1.00
ATOM 82 17O 62.286 -8.221 70.357 1.00
ATOM 83 17CB 61.033 -6.748 67.974 1.00
ATOM 84 18N 60.124 -8.051 70.967 1.00
ATOM 85 18CA 60.140 -9.236 71.817 1.00
ATOM 86 18C 58.714 -9.750 71.991 1.00
ATOM 87 18O 57.895 -9.644 71.078 1.00
ATOM 88 18CB 60.750 -8.899 73.174 1.00
ATOM 89 19N 58.421 -10.304 73.163 1.00
ATOM 90 19CA 57.089 -10.823 73.449 1.00
ATOM 91 19C 56.382 -9.911 74.444 1.00
ATOM 92 19O 55.936 -10.363 75.498 1.00
ATOM 93 19CB 57.188 -12.237 74.013 1.00
ATOM 94 20N 56.282 -8.629 74.100 1.00
ATOM 95 20CA 55.638 -7.649 74.968 1.00
ATOM 96 20C 56.206 -7.781 76.380 1.00
ATOM 97 20O 57.335 -8.244 76.551 1.00
ATOM 98 20CB 54.128 -7.868 74.978 1.00
ATOM 99 21N 55.430 -7.380 77.386 1.00
ATOM 100 21CA 55.883 -7.471 78.773 1.00
ATOM 101 21C 54.844 -7.019 79.801 1.00
ATOM 102 21O 54.519 -7.757 80.733 1.00
ATOM 103 21CB 57.167 -6.665 78.953 1.00
ATOM 104 22N 54.334 -5.804 79.632 1.00
ATOM 105 22CA 53.347 -5.245 80.551 1.00
ATOM 106 22C 52.174 -6.191 80.808 1.00
ATOM 107 22O 51.952 -7.140 80.054 1.00
ATOM 108 22CB 52.833 -3.921 80.005 1.00
ATOM 109 23N 51.430 -5.929 81.880 1.00
ATOM 110 23CA 50.271 -6.747 82.221 1.00
ATOM 111 23C 49.325 -6.780 81.020 1.00
ATOM 112 23O 49.406 -5.922 80.142 1.00
ATOM 113 23CB 49.560 -6.165 83.435 1.00
ATOM 114 24N 48.430 -7.764 80.985 1.00
ATOM 115 24CA 47.484 -7.895 79.877 1.00
ATOM 116 24C 46.378 -6.837 79.903 1.00
ATOM 117 24O 46.100 -6.197 78.886 1.00
ATOM 118 24CB 46.872 -9.293 79.880 1.00
ATOM 119 25N 45.745 -6.660 81.063 1.00
ATOM 120 25CA 44.676 -5.673 81.213 1.00
ATOM 121 25C 45.227 -4.400 81.840 1.00
ATOM 122 25O 46.284 -4.419 82.474 1.00
ATOM 123 25CB 43.552 -6.229 82.078 1.00
ATOM 124 26N 44.505 -3.295 81.670 1.00
ATOM 125 26CA 44.957 -2.023 82.217 1.00
ATOM 126 26C 44.106 -1.457 83.348 1.00
ATOM 127 26O 42.950 -1.837 83.540 1.00
ATOM 128 26CB 45.121 -0.994 81.095 1.00
ATOM 129 26CG 46.567 -0.874 80.577 1.00
ATOM 130 26CD 47.301 -2.225 80.571 1.00
ATOM 131 26NE 48.657 -2.136 80.029 1.00
ATOM 132 26CZ 49.177 -3.007 79.167 1.00
ATOM 133 26NH1 48.456 -4.036 78.746 1.00
ATOM 134 26NH2 50.417 -2.849 78.726 1.00
ATOM 135 27N 44.719 -0.527 84.074 1.00
ATOM 136 27CA 44.166 0.120 85.261 1.00
ATOM 137 27C 43.001 1.102 85.207 1.00
ATOM 138 27O 42.733 1.742 84.187 1.00
ATOM 139 27CB 45.289 0.836 86.026 1.00
ATOM 140 27CG1 45.596 2.177 85.356 1.00
ATOM 141 27CG2 44.889 1.025 87.479 1.00
ATOM 142 28N 42.346 1.214 86.366 1.00
ATOM 143 28CA 41.212 2.101 86.615 1.00
ATOM 144 28C 41.405 2.670 88.018 1.00
ATOM 145 28O 41.631 1.929 88.971 1.00
ATOM 146 28CB 39.888 1.329 86.563 1.00
ATOM 147 28CG 38.728 2.008 87.296 1.00
ATOM 148 28CD 37.602 2.440 86.361 1.00
ATOM 149 28OE1 37.589 3.571 85.868 1.00
ATOM 150 28NE2 36.648 1.538 86.118 1.00
ATOM 151 29N 41.327 3.999 88.159 1.00
ATOM 152 29CA 41.495 4.658 89.455 1.00
ATOM 153 29C 40.135 4.898 90.059 1.00
ATOM 154 29O 39.133 4.898 89.346 1.00
ATOM 155 29CB 42.167 5.966 89.091 1.00
ATOM 156 29CG 41.569 6.291 87.724 1.00
ATOM 157 29CD 41.081 4.985 87.097 1.00
ATOM 158 30N 40.091 5.117 91.365 1.00
ATOM 159 30CA 38.819 5.363 92.022 1.00
ATOM 160 30C 38.985 6.224 93.241 1.00
ATOM 161 30O 40.101 6.554 93.646 1.00
ATOM 162 30CB 38.153 4.071 92.490 1.00
ATOM 163 30CG1 37.528 3.353 91.316 1.00
ATOM 164 30CG2 39.176 3.197 93.199 1.00
ATOM 165 31N 37.855 6.569 93.837 1.00
ATOM 166 31CA 37.874 7.387 95.023 1.00
ATOM 167 31C 36.721 7.030 95.956 1.00
ATOM 168 31O 35.567 7.404 95.730 1.00
ATOM 169 31CB 37.837 8.880 94.643 1.00
ATOM 170 31CG1 38.090 9.729 95.889 1.00
ATOM 171 31CG2 36.525 9.215 93.959 1.00
ATOM 172 31CD1 39.258 9.243 96.739 1.00
ATOM 173 32N 37.050 6.280 96.999 1.00
ATOM 174 32CA 36.066 5.868 97.984 1.00
ATOM 175 32C 35.531 7.099 98.681 1.00
ATOM 176 32O 36.277 7.828 99.337 1.00
ATOM 177 32CB 36.684 4.957 99.053 1.00
ATOM 178 32CG1 36.820 3.553 98.506 1.00
ATOM 179 32CG2 38.047 5.511 99.502 1.00
ATOM 180 33N 34.238 7.337 98.541 1.00
ATOM 181 33CA 33.643 8.490 99.185 1.00
ATOM 182 33C 33.493 8.248 100.675 1.00
ATOM 183 33O 33.288 7.114 101.121 1.00
ATOM 184 33CB 32.276 8.793 98.586 1.00
ATOM 185 33CG 31.987 10.278 98.470 1.00
ATOM 186 33CD 32.945 10.986 97.526 1.00
ATOM 187 33OE1 33.749 10.292 96.863 1.00
ATOM 188 33OE2 32.891 12.236 97.446 1.00
ATOM 189 34N 33.624 9.313 101.474 1.00
ATOM 190 34CA 33.485 9.173 102.920 1.00
ATOM 191 34C 32.006 9.336 103.251 1.00
ATOM 192 34O 31.399 10.363 102.958 1.00
ATOM 193 34CB 34.347 10.303 103.481 1.00
ATOM 194 34CG 34.625 11.234 102.300 1.00
ATOM 195 34CD 33.913 10.702 101.092 1.00
ATOM 196 35N 31.428 8.299 103.839 1.00
ATOM 197 35CA 30.021 8.307 104.190 1.00
ATOM 198 35C 29.844 8.615 105.675 1.00
ATOM 199 35O 30.648 8.192 106.515 1.00
ATOM 200 35CB 29.399 6.948 103.845 1.00
ATOM 201 35CG 30.215 5.684 104.186 1.00
ATOM 202 35CD1 29.346 4.462 103.933 1.00
ATOM 203 35CD2 31.501 5.594 103.356 1.00
ATOM 204 36N 28.794 9.370 105.983 1.00
ATOM 205 36CA 28.485 9.748 107.358 1.00
ATOM 206 36C 27.364 8.890 107.904 1.00
ATOM 207 36O 26.794 8.049 107.201 1.00
ATOM 208 36CB 28.080 11.213 107.433 1.00
ATOM 209 37N 27.040 9.126 109.166 1.00
ATOM 210 37CA 25.993 8.381 109.830 1.00
ATOM 211 37C 24.673 8.399 109.053 1.00
ATOM 212 37O 24.310 9.407 108.447 1.00
ATOM 213 37CB 25.793 8.935 111.237 1.00
ATOM 214 38N 23.983 7.261 109.057 1.00
ATOM 215 38CA 22.686 7.146 108.410 1.00
ATOM 216 38C 22.590 7.216 106.902 1.00
ATOM 217 38O 21.529 6.938 106.342 1.00
ATOM 218 39N 23.675 7.599 106.243 1.00
ATOM 219 39CA 23.671 7.687 104.790 1.00
ATOM 220 39C 23.451 6.296 104.216 1.00
ATOM 221 39O 22.862 6.140 103.144 1.00
ATOM 222 39CB 25.006 8.224 104.290 1.00
ATOM 223 39CG 25.362 9.605 104.790 1.00
ATOM 224 39CD 26.328 10.304 103.859 1.00
ATOM 225 39OE1 27.544 10.250 104.044 1.00
ATOM 226 39NE2 25.790 10.959 102.842 1.00
ATOM 227 40N 23.938 5.303 104.960 1.00
ATOM 228 40CA 23.851 3.901 104.583 1.00
ATOM 229 40C 22.773 3.479 103.608 1.00
ATOM 230 40O 22.630 4.044 102.521 1.00
ATOM 231 41N 22.021 2.455 103.988 1.00
ATOM 232 41CA 20.957 1.972 103.126 1.00
ATOM 233 41C 19.886 1.165 103.852 1.00
ATOM 234 41O 20.185 0.194 104.551 1.00
ATOM 235 41CB 21.549 1.144 101.981 1.00
ATOM 236 41CG 21.006 1.504 100.599 1.00
ATOM 237 41CD 20.514 2.944 100.532 1.00
ATOM 238 41CE 19.025 3.055 100.861 1.00
ATOM 239 41NZ 18.303 1.746 100.836 1.00
ATOM 240 42N 18.637 1.591 103.676 1.00
ATOM 241 42CA 17.478 0.940 104.281 1.00
ATOM 242 42C 16.661 0.279 103.179 1.00
ATOM 243 42O 15.497 0.615 102.966 1.00
ATOM 244 42CB 16.621 1.962 105.020 1.00
ATOM 245 43N 17.294 -0.652 102.475 1.00
ATOM 246 43CA 16.670 -1.394 101.389 1.00
ATOM 247 43C 15.165 -1.482 101.538 1.00
ATOM 248 43O 14.659 -1.821 102.606 1.00
ATOM 249 43CB 17.222 -2.819 101.328 1.00
ATOM 250 43CG1 16.578 -3.686 102.418 1.00
ATOM 251 43CG2 18.731 -2.787 101.511 1.00
ATOM 252 43CD1 16.916 -3.259 103.827 1.00
ATOM 253 44N 14.444 -1.179 100.467 1.00
ATOM 254 44CA 12.992 -1.243 100.522 1.00
ATOM 255 44C 12.540 -2.700 100.540 1.00
ATOM 256 44O 13.229 -3.578 100.011 1.00
ATOM 257 44CB 12.378 -0.502 99.329 1.00
ATOM 258 44CG 11.099 -1.122 98.777 1.00
ATOM 259 44CD 9.886 -0.756 99.616 1.00
ATOM 260 44CE 8.628 -1.435 99.091 1.00
ATOM 261 44NZ 7.861 -2.118 100.171 1.00
ATOM 262 45N 11.389 -2.945 101.165 1.00
ATOM 263 45CA 10.820 -4.286 101.261 1.00
ATOM 264 45C 10.582 -4.814 99.862 1.00
ATOM 265 45O 11.141 -4.301 98.895 1.00
ATOM 266 45CB 9.506 -4.243 102.021 1.00
ATOM 267 46N 9.750 -5.838 99.740 1.00
ATOM 268 46CA 9.486 -6.365 98.419 1.00
ATOM 269 46C 8.013 -6.278 98.030 1.00
ATOM 270 46O 7.246 -5.510 98.615 1.00
ATOM 271 46CB 10.024 -7.820 98.274 1.00
ATOM 272 46CG1 10.224 -8.155 96.788 1.00
ATOM 273 46CG2 9.087 -8.816 98.940 1.00
ATOM 274 46CD1 10.567 -6.959 95.895 1.00
ATOM 275 47N 7.630 -7.064 97.033 1.00
ATOM 276 47CA 6.273 -7.081 96.513 1.00
ATOM 277 47C 5.233 -7.498 97.535 1.00
ATOM 278 47O 5.392 -8.519 98.204 1.00
ATOM 279 47CB 6.207 -8.018 95.323 1.00
ATOM 280 48N 4.163 -6.709 97.637 1.00
ATOM 281 48CA 3.086 -7.014 98.566 1.00
ATOM 282 48C 3.574 -7.422 99.940 1.00
ATOM 283 48O 2.903 -8.151 100.681 1.00
ATOM 284 49N 4.757 -6.937 100.282 1.00
ATOM 285 49CA 5.342 -7.250 101.563 1.00
ATOM 286 49C 5.482 -6.001 102.386 1.00
ATOM 287 49O 5.978 -4.978 101.913 1.00
ATOM 288 49CB 6.708 -7.901 101.377 1.00
ATOM 289 49CG 6.657 -9.391 101.569 1.00
ATOM 290 49CD1 6.411 -10.247 100.495 1.00
ATOM 291 49CD2 6.794 -9.944 102.837 1.00
ATOM 292 49CE1 6.295 -11.622 100.690 1.00
ATOM 293 49CE2 6.680 -11.312 103.044 1.00
ATOM 294 49CZ 6.427 -12.145 101.973 1.00
ATOM 295 49OH 6.290 -13.496 102.198 1.00
ATOM 296 50N 5.021 -6.088 103.624 1.00
ATOM 297 50CA 5.116 -4.973 104.541 1.00
ATOM 298 50C 6.343 -5.252 105.395 1.00
ATOM 299 50O 6.859 -6.370 105.411 1.00
ATOM 300 50CB 3.856 -4.893 105.425 1.00
ATOM 301 50OG 3.903 -3.806 106.344 1.00
ATOM 302 51N 6.836 -4.216 106.058 1.00
ATOM 303 51CA 7.967 -4.357 106.956 1.00
ATOM 304 51C 7.436 -3.798 108.253 1.00
ATOM 305 51O 7.268 -2.586 108.396 1.00
ATOM 306 51CB 9.195 -3.517 106.527 1.00
ATOM 307 51CG1 9.784 -4.065 105.227 1.00
ATOM 308 51CG2 10.270 -3.541 107.630 1.00
ATOM 309 51CD1 9.617 -5.543 105.045 1.00
ATOM 310 52N 7.099 -4.683 109.178 1.00
ATOM 311 52CA 6.606 -4.212 110.451 1.00
ATOM 312 52C 7.788 -4.217 111.394 1.00
ATOM 313 52O 8.549 -5.174 111.451 1.00
ATOM 314 52CB 5.486 -5.107 110.972 1.00
ATOM 315 52OG 4.291 -4.354 111.110 1.00
ATOM 316 53N 7.967 -3.120 112.104 1.00
ATOM 317 53CA 9.073 -3.026 113.024 1.00
ATOM 318 53C 8.534 -2.598 114.365 1.00
ATOM 319 53O 7.355 -2.259 114.494 1.00
ATOM 320 53CB 10.089 -2.006 112.513 1.00
ATOM 321 53CG 9.617 -1.235 111.283 1.00
ATOM 322 53CD 10.733 -1.071 110.253 1.00
ATOM 323 53CE 10.256 -0.334 109.000 1.00
ATOM 324 53NZ 10.815 1.049 108.866 1.00
ATOM 325 54N 9.409 -2.633 115.359 1.00
ATOM 326 54CA 9.088 -2.238 116.718 1.00
ATOM 327 54C 10.228 -2.730 117.577 1.00
ATOM 328 54O 10.993 -3.588 117.157 1.00
ATOM 329 54CB 7.740 -2.829 117.182 1.00
ATOM 330 54CG 7.776 -4.260 117.641 1.00
ATOM 331 54CD1 8.001 -4.718 118.916 1.00
ATOM 332 54CD2 7.555 -5.417 116.833 1.00
ATOM 333 54NE1 7.934 -6.091 118.946 1.00
ATOM 334 54CE2 7.663 -6.547 117.682 1.00
ATOM 335 54CE3 7.276 -5.613 115.470 1.00
ATOM 336 54CZ2 7.502 -7.855 117.210 1.00
ATOM 337 54CZ3 7.118 -6.917 114.997 1.00
ATOM 338 54CH2 7.231 -8.020 115.871 1.00
ATOM 339 55N 10.331 -2.188 118.784 1.00
ATOM 340 55CA 11.405 -2.552 119.693 1.00
ATOM 341 55C 10.938 -3.168 120.995 1.00
ATOM 342 55O 9.756 -3.135 121.339 1.00
ATOM 343 55CB 12.252 -1.319 120.006 1.00
ATOM 344 55CG 11.895 -0.102 119.171 1.00
ATOM 345 55CD 10.857 0.776 119.829 1.00
ATOM 346 55OE1 10.365 1.711 119.159 1.00
ATOM 347 55OE2 10.532 0.530 121.013 1.00
ATOM 348 56N 11.896 -3.724 121.719 1.00
ATOM 349 56CA 11.634 -4.343 123.003 1.00
ATOM 350 56C 12.715 -3.869 123.974 1.00
ATOM 351 56O 13.907 -3.990 123.696 1.00
ATOM 352 56CB 11.657 -5.863 122.863 1.00
ATOM 353 57N 12.298 -3.307 125.103 1.00
ATOM 354 57CA 13.238 -2.812 126.100 1.00
ATOM 355 57C 14.007 -3.952 126.768 1.00
ATOM 356 57O 13.449 -5.016 127.037 1.00
ATOM 357 57CB 12.497 -1.990 127.155 1.00
ATOM 358 57OG 12.263 -0.669 126.697 1.00
ATOM 359 58N 15.288 -3.711 127.034 1.00
ATOM 360 58CA 16.174 -4.697 127.651 1.00
ATOM 361 58C 15.867 -5.101 129.083 1.00
ATOM 362 58O 15.063 -4.490 129.785 1.00
ATOM 363 58CB 17.630 -4.206 127.593 1.00
ATOM 364 58OG 18.304 -4.309 128.848 1.00
ATOM 365 59N 16.538 -6.178 129.480 1.00
ATOM 366 59CA 16.433 -6.747 130.810 1.00
ATOM 367 59C 17.817 -6.666 131.425 1.00
ATOM 368 59O 18.832 -6.827 130.738 1.00
ATOM 369 59CB 15.995 -8.208 130.732 1.00
ATOM 370 59CG 14.521 -8.385 131.005 1.00
ATOM 371 59OD1 14.048 -9.540 130.968 1.00
ATOM 372 59OD2 13.837 -7.369 131.254 1.00
ATOM 373 60N 17.859 -6.406 132.723 1.00
ATOM 374 60CA 19.127 -6.305 133.417 1.00
ATOM 375 60C 19.961 -7.539 133.116 1.00
ATOM 376 60O 19.647 -8.647 133.555 1.00
ATOM 377 60CB 18.894 -6.177 134.913 1.00
ATOM 378 61N 21.022 -7.346 132.346 1.00
ATOM 379 61CA 21.897 -8.448 131.998 1.00
ATOM 380 61C 23.063 -8.487 132.988 1.00
ATOM 381 61O 23.428 -7.469 133.573 1.00
ATOM 382 61CB 22.416 -8.286 130.564 1.00
ATOM 383 61CG1 23.665 -9.144 130.349 1.00
ATOM 384 61CG2 22.687 -6.822 130.293 1.00
ATOM 385 61CD1 23.405 -10.635 130.430 1.00
ATOM 386 62N 23.641 -9.670 133.168 1.00
ATOM 387 62CA 24.742 -9.862 134.104 1.00
ATOM 388 62C 26.127 -9.933 133.466 1.00
ATOM 389 62O 26.272 -9.822 132.252 1.00
ATOM 390 62CB 24.526 -11.143 134.916 1.00
ATOM 391 62OG1 25.538 -12.098 134.570 1.00
ATOM 392 62CG2 23.140 -11.735 134.621 1.00
ATOM 393 63N 27.132 -10.132 134.316 1.00
ATOM 394 63CA 28.543 -10.230 133.931 1.00
ATOM 395 63C 28.817 -10.592 132.476 1.00
ATOM 396 63O 28.901 -9.719 131.615 1.00
ATOM 397 63CB 29.250 -11.225 134.840 1.00
ATOM 398 64N 28.979 -11.882 132.213 1.00
ATOM 399 64CA 29.252 -12.350 130.864 1.00
ATOM 400 64C 28.095 -13.212 130.399 1.00
ATOM 401 64O 28.146 -13.830 129.341 1.00
ATOM 402 64CB 30.543 -13.166 130.848 1.00
ATOM 403 64CG 31.736 -12.420 130.274 1.00
ATOM 404 64CD 32.946 -12.529 131.188 1.00
ATOM 405 64CE 33.523 -11.156 131.504 1.00
ATOM 406 64NZ 33.408 -10.816 132.952 1.00
ATOM 407 65N 27.046 -13.240 131.204 1.00
ATOM 408 65CA 25.872 -14.041 130.899 1.00
ATOM 409 65C 25.116 -13.480 129.712 1.00
ATOM 410 65O 25.396 -12.372 129.260 1.00
ATOM 411 65CB 24.960 -14.102 132.109 1.00
ATOM 412 66N 24.178 -14.270 129.194 1.00
ATOM 413 66CA 23.351 -13.861 128.065 1.00
ATOM 414 66C 21.899 -14.275 128.300 1.00
ATOM 415 66O 21.607 -15.455 128.487 1.00
ATOM 416 66CB 23.857 -14.478 126.741 1.00
ATOM 417 66OG1 22.952 -15.501 126.303 1.00
ATOM 418 66CG2 25.249 -15.063 126.921 1.00
ATOM 419 67N 20.997 -13.293 128.299 1.00
ATOM 420 67CA 19.569 -13.533 128.525 1.00
ATOM 421 67C 18.858 -13.881 127.215 1.00
ATOM 422 67O 19.497 -14.042 126.177 1.00
ATOM 423 67CB 18.888 -12.289 129.141 1.00
ATOM 424 67CG 19.552 -11.808 130.441 1.00
ATOM 425 67OD1 20.100 -12.595 131.218 1.00
ATOM 426 67ND2 19.490 -10.499 130.680 1.00
ATOM 427 68N 17.532 -13.985 127.277 1.00
ATOM 428 68CA 16.708 -14.298 126.111 1.00
ATOM 429 68C 15.321 -13.724 126.338 1.00
ATOM 430 68O 14.977 -13.388 127.471 1.00
ATOM 431 68CB 16.611 -15.793 125.923 1.00
ATOM 432 69N 14.528 -13.609 125.275 1.00
ATOM 433 69CA 13.173 -13.069 125.404 1.00
ATOM 434 69C 12.243 -13.492 124.289 1.00
ATOM 435 69O 12.350 -13.003 123.167 1.00
ATOM 436 69CB 13.188 -11.534 125.452 1.00
ATOM 437 69CG 14.539 -10.911 125.764 1.00
ATOM 438 69SD 14.381 -9.235 126.372 1.00
ATOM 439 69CE 15.662 -8.431 125.468 1.00
ATOM 440 70N 11.304 -14.375 124.600 1.00
ATOM 441 70CA 10.369 -14.809 123.587 1.00
ATOM 442 70C 9.890 -13.505 123.006 1.00
ATOM 443 70O 9.405 -12.637 123.736 1.00
ATOM 444 70CB 9.202 -15.576 124.213 1.00
ATOM 445 70OG 9.130 -16.895 123.695 1.00
ATOM 446 71N 10.066 -13.329 121.714 1.00
ATOM 447 71CA 9.609 -12.093 121.147 1.00
ATOM 448 71C 8.161 -12.252 120.752 1.00
ATOM 449 71O 7.754 -13.288 120.227 1.00
ATOM 450 71CB 10.419 -11.696 119.923 1.00
ATOM 451 71CG1 9.805 -10.413 119.311 1.00
ATOM 452 71CG2 10.541 -12.914 118.968 1.00
ATOM 453 71CD1 9.723 -9.162 120.284 1.00
ATOM 454 72N 7.385 -11.214 121.030 1.00
ATOM 455 72CA 5.978 -11.213 120.702 1.00
ATOM 456 72C 5.657 -10.018 119.836 1.00
ATOM 457 72O 6.250 -8.939 119.960 1.00
ATOM 458 72CB 5.106 -11.146 121.951 1.00
ATOM 459 72OG1 5.261 -9.859 122.563 1.00
ATOM 460 72CG2 5.499 -12.248 122.934 1.00
ATOM 461 73N 4.685 -10.243 118.968 1.00
ATOM 462 73CA 4.197 -9.269 118.012 1.00
ATOM 463 73C 3.163 -8.339 118.628 1.00
ATOM 464 73O 2.732 -8.535 119.768 1.00
ATOM 465 73CB 3.561 -10.015 116.842 1.00
ATOM 466 73CG 3.140 -11.445 117.201 1.00
ATOM 467 73CD1 2.170 -11.444 118.389 1.00
ATOM 468 73CD2 2.512 -12.096 115.983 1.00
ATOM 469 74N 2.759 -7.306 117.872 1.00
ATOM 470 74CA 1.768 -6.313 118.291 1.00
ATOM 471 74C 0.348 -6.743 117.894 1.00
ATOM 472 74O 0.152 -7.442 116.895 1.00
ATOM 473 74CB 2.216 -5.032 117.577 1.00
ATOM 474 74CG 3.256 -5.480 116.530 1.00
ATOM 475 74CD 3.284 -6.983 116.537 1.00
ATOM 476 75N -0.632 -6.314 118.684 1.00
ATOM 477 75CA -2.037 -6.648 118.467 1.00
ATOM 478 75C -2.523 -6.679 117.011 1.00
ATOM 479 75O -3.267 -7.582 116.627 1.00
ATOM 480 75CB -2.923 -5.693 119.279 1.00
ATOM 481 75CG -4.285 -6.240 119.591 1.00
ATOM 482 75ND1 -4.875 -7.243 118.850 1.00
ATOM 483 75CD2 -5.175 -5.915 120.558 1.00
ATOM 484 75CE1 -6.069 -7.512 119.348 1.00
ATOM 485 75NE2 -6.276 -6.720 120.385 1.00
ATOM 486 76N -2.117 -5.703 116.205 1.00
ATOM 487 76CA -2.557 -5.648 114.810 1.00
ATOM 488 76C -2.393 -6.984 114.101 1.00
ATOM 489 76O -3.377 -7.635 113.743 1.00
ATOM 490 76CB -1.783 -4.575 114.033 1.00
ATOM 491 76CG -0.747 -3.829 114.848 1.00
ATOM 492 76CD -1.370 -3.040 115.980 1.00
ATOM 493 76OE1 -0.960 -3.243 117.143 1.00
ATOM 494 76OE2 -2.274 -2.219 115.703 1.00
ATOM 495 77N -1.139 -7.380 113.907 1.00
ATOM 496 77CA -0.794 -8.628 113.233 1.00
ATOM 497 77C -1.060 -9.842 114.122 1.00
ATOM 498 77O -0.792 -10.988 113.734 1.00
ATOM 499 77CB 0.677 -8.593 112.831 1.00
ATOM 500 77CG 1.576 -7.890 113.853 1.00
ATOM 501 77CD1 2.960 -8.502 113.798 1.00
ATOM 502 77CD2 1.634 -6.395 113.570 1.00
ATOM 503 78N -1.581 -9.575 115.316 1.00
ATOM 504 78CA -1.900 -10.624 116.273 1.00
ATOM 505 78C -3.320 -11.144 116.027 1.00
ATOM 506 78O -4.102 -11.317 116.961 1.00
ATOM 507 78CB -1.778 -10.086 117.705 1.00
ATOM 508 78OG -0.430 -10.060 118.149 1.00
ATOM 509 79N -3.648 -11.376 114.759 1.00
ATOM 510 79CA -4.959 -11.895 114.380 1.00
ATOM 511 79C -4.740 -13.307 113.876 1.00
ATOM 512 79O -3.759 -13.563 113.187 1.00
ATOM 513 79CB -5.572 -11.069 113.258 1.00
ATOM 514 79OG -6.427 -11.885 112.470 1.00
ATOM 515 80N -5.643 -14.223 114.201 1.00
ATOM 516 80CA -5.459 -15.596 113.753 1.00
ATOM 517 80C -5.381 -15.641 112.234 1.00
ATOM 518 80O -4.708 -16.495 111.654 1.00
ATOM 519 80CB -6.595 -16.483 114.258 1.00
ATOM 520 80CG -6.124 -17.844 114.777 1.00
ATOM 521 80CD -5.166 -17.747 115.961 1.00
ATOM 522 80OE1 -3.943 -17.939 115.765 1.00
ATOM 523 80OE2 -5.642 -17.489 117.089 1.00
ATOM 524 81N -6.063 -14.701 111.597 1.00
ATOM 525 81CA -6.059 -14.624 110.148 1.00
ATOM 526 81C -4.675 -14.142 109.651 1.00
ATOM 527 81O -4.196 -14.565 108.593 1.00
ATOM 528 81CB -7.202 -13.692 109.704 1.00
ATOM 529 81CG -6.914 -12.809 108.503 1.00
ATOM 530 81CD -7.902 -11.650 108.439 1.00
ATOM 531 81CE -7.869 -10.961 107.081 1.00
ATOM 532 81NZ -9.044 -10.062 106.875 1.00
ATOM 533 82N -4.027 -13.281 110.438 1.00
ATOM 534 82CA -2.709 -12.740 110.093 1.00
ATOM 535 82C -1.594 -13.522 110.773 1.00
ATOM 536 82O -0.441 -13.452 110.369 1.00
ATOM 537 82CB -2.590 -11.271 110.518 1.00
ATOM 538 82CG -3.694 -10.399 109.945 1.00
ATOM 539 82OD1 -4.010 -10.472 108.753 1.00
ATOM 540 82ND2 -4.284 -9.556 110.795 1.00
ATOM 541 83N -1.939 -14.245 111.830 1.00
ATOM 542 83CA -0.954 -15.039 112.543 1.00
ATOM 543 83C -0.403 -16.035 111.546 1.00
ATOM 544 83O 0.806 -16.229 111.446 1.00
ATOM 545 83CB -1.603 -15.789 113.703 1.00
ATOM 546 83CG -1.050 -15.409 115.054 1.00
ATOM 547 83CD -1.578 -14.055 115.487 1.00
ATOM 548 83CE -2.711 -14.210 116.489 1.00
ATOM 549 83NZ -2.254 -14.024 117.894 1.00
ATOM 550 84N -1.305 -16.667 110.803 1.00
ATOM 551 84CA -0.899 -17.635 109.802 1.00
ATOM 552 84C -0.510 -16.881 108.535 1.00
ATOM 553 84O -0.979 -17.189 107.438 1.00
ATOM 554 84CB -2.028 -18.640 109.529 1.00
ATOM 555 84CG -2.288 -19.613 110.687 1.00
ATOM 556 84CD -1.203 -20.678 110.862 1.00
ATOM 557 84OE1 -0.706 -21.196 109.838 1.00
ATOM 558 84OE2 -0.853 -21.000 112.025 1.00
ATOM 559 85N 0.342 -15.873 108.711 1.00
ATOM 560 85CA 0.839 -15.070 107.603 1.00
ATOM 561 85C 2.302 -15.417 107.366 1.00
ATOM 562 85O 2.991 -15.897 108.269 1.00
ATOM 563 85CB 0.709 -13.584 107.905 1.00
ATOM 564 85CG -0.002 -12.783 106.818 1.00
ATOM 565 85CD1 -1.511 -13.009 106.909 1.00
ATOM 566 85CD2 0.343 -11.313 106.981 1.00
ATOM 567 86N 2.780 -15.153 106.156 1.00
ATOM 568 86CA 4.149 -15.493 105.790 1.00
ATOM 569 86C 5.109 -14.343 105.951 1.00
ATOM 570 86O 4.728 -13.181 105.808 1.00
ATOM 571 86CB 4.196 -16.004 104.352 1.00
ATOM 572 86CG 3.406 -17.293 104.117 1.00
ATOM 573 86CD 1.953 -17.217 104.622 1.00
ATOM 574 86CE 1.148 -16.099 103.953 1.00
ATOM 575 86NZ -0.040 -15.683 104.763 1.00
ATOM 576 87N 6.364 -14.686 106.231 1.00
ATOM 577 87CA 7.409 -13.691 106.449 1.00
ATOM 578 87C 8.493 -13.730 105.384 1.00
ATOM 579 87O 8.607 -14.699 104.642 1.00
ATOM 580 87CB 8.056 -13.883 107.846 1.00
ATOM 581 87CG1 7.585 -15.201 108.443 1.00
ATOM 582 87CG2 9.589 -13.839 107.754 1.00
ATOM 583 88N 9.290 -12.668 105.329 1.00
ATOM 584 88CA 10.367 -12.599 104.365 1.00
ATOM 585 88C 11.700 -12.470 105.074 1.00
ATOM 586 88O 11.902 -13.027 106.165 1.00
ATOM 587 89N 12.623 -11.748 104.448 1.00
ATOM 588 89CA 13.928 -11.526 105.049 1.00
ATOM 589 89C 13.649 -10.602 106.227 1.00
ATOM 590 89O 12.689 -9.817 106.212 1.00
ATOM 591 89CB 14.865 -10.836 104.055 1.00
ATOM 592 89CG 14.261 -9.578 103.448 1.00
ATOM 593 89CD 15.218 -8.878 102.505 1.00
ATOM 594 89NE 14.660 -7.629 101.991 1.00
ATOM 595 89CZ 14.116 -7.492 100.784 1.00
ATOM 596 89NH1 14.056 -8.530 99.961 1.00
ATOM 597 89NH2 13.641 -6.315 100.394 1.00
ATOM 598 90N 14.453 -10.709 107.270 1.00
ATOM 599 90CA 14.232 -9.853 108.414 1.00
ATOM 600 90C 15.514 -9.552 109.184 1.00
ATOM 601 90O 16.434 -10.371 109.260 1.00
ATOM 602 90CB 13.156 -10.463 109.328 1.00
ATOM 603 90CG1 13.341 -11.979 109.403 1.00
ATOM 604 90CG2 13.203 -9.804 110.695 1.00
ATOM 605 91N 15.566 -8.352 109.747 1.00
ATOM 606 91CA 16.737 -7.917 110.483 1.00
ATOM 607 91C 16.438 -7.342 111.854 1.00
ATOM 608 91O 15.331 -6.878 112.143 1.00
ATOM 609 91CB 17.485 -6.855 109.691 1.00
ATOM 610 91CG 17.373 -5.488 110.372 1.00
ATOM 611 91CD1 18.693 -5.187 111.053 1.00
ATOM 612 91CD2 16.989 -4.400 109.375 1.00
ATOM 613 92N 17.471 -7.364 112.684 1.00
ATOM 614 92CA 17.404 -6.832 114.031 1.00
ATOM 615 92C 18.626 -5.968 114.239 1.00
ATOM 616 92O 19.722 -6.286 113.778 1.00
ATOM 617 92CB 17.384 -7.962 115.069 1.00
ATOM 618 92CG 18.636 -8.414 115.852 1.00
ATOM 619 92CD1 19.701 -8.949 114.904 1.00
ATOM 620 92CD2 19.174 -7.267 116.687 1.00
ATOM 621 93N 18.426 -4.849 114.909 1.00
ATOM 622 93CA 19.523 -3.955 115.215 1.00
ATOM 623 93C 19.150 -3.408 116.571 1.00
ATOM 624 93O 18.061 -3.690 117.074 1.00
ATOM 625 93CB 19.650 -2.846 114.177 1.00
ATOM 626 93CG 18.445 -2.016 114.067 1.00
ATOM 627 93CD1 17.360 -2.237 113.267 1.00
ATOM 628 93CD2 18.185 -0.813 114.778 1.00
ATOM 629 93NE1 16.437 -1.238 113.438 1.00
ATOM 630 93CE2 16.921 -0.348 114.360 1.00
ATOM 631 93CE3 18.899 -0.077 115.730 1.00
ATOM 632 93CZ2 16.354 0.822 114.864 1.00
ATOM 633 93CZ3 18.334 1.088 116.232 1.00
ATOM 634 93CH2 17.076 1.524 115.797 1.00
ATOM 635 94N 20.031 -2.620 117.166 1.00
ATOM 636 94CA 19.744 -2.137 118.501 1.00
ATOM 637 94C 20.242 -0.754 118.867 1.00
ATOM 638 94O 21.384 -0.381 118.579 1.00
ATOM 639 94CB 20.283 -3.138 119.519 1.00
ATOM 640 94CG 21.660 -3.772 119.263 1.00
ATOM 641 94CD1 21.452 -5.252 119.021 1.00
ATOM 642 94CD2 22.401 -3.129 118.077 1.00
ATOM 643 95N 19.351 0.005 119.494 1.00
ATOM 644 95CA 19.685 1.337 119.950 1.00
ATOM 645 95C 19.979 1.186 121.430 1.00
ATOM 646 95O 19.230 0.525 122.148 1.00
ATOM 647 96N 21.066 1.791 121.890 1.00
ATOM 648 96CA 21.446 1.682 123.290 1.00
ATOM 649 96C 22.089 2.957 123.803 1.00
ATOM 650 96O 22.477 3.832 123.025 1.00
ATOM 651 96CB 22.429 0.523 123.477 1.00
ATOM 652 96CG 23.579 0.369 122.474 1.00
ATOM 653 96CD1 23.016 0.008 121.108 1.00
ATOM 654 96CD2 24.402 1.656 122.400 1.00
ATOM 655 97N 22.222 3.042 125.123 1.00
ATOM 656 97CA 22.817 4.208 125.747 1.00
ATOM 657 97C 24.247 4.450 125.256 1.00
ATOM 658 97O 24.951 3.512 124.879 1.00
ATOM 659 97CB 22.797 4.049 127.268 1.00
ATOM 660 97CG 22.098 5.191 128.017 1.00
ATOM 661 97CD1 20.733 4.723 128.510 1.00
ATOM 662 97CD2 22.966 5.669 129.181 1.00
ATOM 663 98N 24.681 5.725 125.237 1.00
ATOM 664 98CA 26.030 6.101 124.795 1.00
ATOM 665 98C 27.098 5.552 125.740 1.00
ATOM 666 98O 28.069 4.922 125.316 1.00
ATOM 667 98CB 25.992 7.628 124.805 1.00
ATOM 668 98CG 24.930 7.967 125.813 1.00
ATOM 669 98CD 23.890 6.907 125.629 1.00
ATOM 670 99N 26.902 5.812 127.027 1.00
ATOM 671 99CA 27.809 5.358 128.071 1.00
ATOM 672 99C 27.626 3.856 128.249 1.00
ATOM 673 99O 26.845 3.416 129.095 1.00
ATOM 674 99CB 27.468 6.082 129.371 1.00
ATOM 675 99OG 26.232 6.773 129.250 1.00
ATOM 676 100N 28.359 3.070 127.464 1.00
ATOM 677 100CA 28.238 1.615 127.511 1.00
ATOM 678 100C 29.402 0.852 128.136 1.00
ATOM 679 100O 30.568 1.115 127.834 1.00
ATOM 680 100CB 28.014 1.062 126.105 1.00
ATOM 681 100CG1 26.616 1.428 125.627 1.00
ATOM 682 100CG2 29.074 1.615 125.161 1.00
ATOM 683 101N 29.060 -0.114 128.992 1.00
ATOM 684 101CA 30.036 -0.952 129.693 1.00
ATOM 685 101C 30.497 -2.140 128.848 1.00
ATOM 686 101O 29.790 -3.145 128.718 1.00
ATOM 687 101CB 29.443 -1.452 131.020 1.00
ATOM 688 102N 31.694 -2.019 128.288 1.00
ATOM 689 102CA 32.232 -3.081 127.465 1.00
ATOM 690 102C 31.501 -3.179 126.144 1.00
ATOM 691 102O 30.661 -2.342 125.822 1.00
ATOM 692 103N 31.837 -4.206 125.374 1.00
ATOM 693 103CA 31.216 -4.438 124.079 1.00
ATOM 694 103C 30.402 -5.711 124.212 1.00
ATOM 695 103O 30.714 -6.569 125.037 1.00
ATOM 696 103CB 32.293 -4.601 122.996 1.00
ATOM 697 103CG 31.854 -5.381 121.758 1.00
ATOM 698 103CD 32.318 -6.834 121.820 1.00
ATOM 699 103NE 32.708 -7.345 120.510 1.00
ATOM 700 103CZ 33.364 -8.485 120.319 1.00
ATOM 701 103NH1 33.707 -9.239 121.355 1.00
ATOM 702 103NH2 33.685 -8.870 119.090 1.00
ATOM 703 104N 29.353 -5.835 123.405 1.00
ATOM 704 104CA 28.504 -7.017 123.476 1.00
ATOM 705 104C 27.822 -7.353 122.144 1.00
ATOM 706 104O 27.820 -6.546 121.213 1.00
ATOM 707 104CB 27.425 -6.835 124.549 1.00
ATOM 708 104CG1 26.241 -6.075 123.948 1.00
ATOM 709 104CG2 27.998 -6.089 125.765 1.00
ATOM 710 104CD1 26.624 -4.769 123.294 1.00
ATOM 711 105N 27.229 -8.544 122.068 1.00
ATOM 712 105CA 26.572 -8.994 120.844 1.00
ATOM 713 105C 25.178 -9.571 121.090 1.00
ATOM 714 105O 24.763 -9.727 122.236 1.00
ATOM 715 105CB 27.448 -10.049 120.163 1.00
ATOM 716 105CG 28.951 -9.900 120.445 1.00
ATOM 717 105CD 29.576 -11.177 121.026 1.00
ATOM 718 105CE 31.102 -11.064 121.142 1.00
ATOM 719 105NZ 31.829 -12.276 120.648 1.00
ATOM 720 106N 24.475 -9.908 120.006 1.00
ATOM 721 106CA 23.119 -10.464 120.085 1.00
ATOM 722 106C 22.599 -11.057 118.766 1.00
ATOM 723 106O 22.939 -10.588 117.681 1.00
ATOM 724 106CB 22.169 -9.398 120.569 1.00
ATOM 725 107N 21.757 -12.084 118.874 1.00
ATOM 726 107CA 21.203 -12.766 117.704 1.00
ATOM 727 107C 19.783 -13.307 117.930 1.00
ATOM 728 107O 19.000 -12.754 118.703 1.00
ATOM 729 107CB 22.120 -13.931 117.316 1.00
ATOM 730 107SG 22.190 -15.288 118.545 1.00
ATOM 731 108N 19.461 -14.394 117.231 1.00
ATOM 732 108CA 18.153 -15.035 117.351 1.00
ATOM 733 108C 18.063 -16.402 116.648 1.00
ATOM 734 108O 18.451 -16.559 115.478 1.00
ATOM 735 108CB 17.050 -14.114 116.809 1.00
ATOM 736 108CG1 17.621 -13.220 115.717 1.00
ATOM 737 108CG2 15.885 -14.942 116.294 1.00
ATOM 738 109N 17.540 -17.384 117.380 1.00
ATOM 739 109CA 17.375 -18.743 116.872 1.00
ATOM 740 109C 16.215 -19.408 117.592 1.00
ATOM 741 109O 15.761 -18.919 118.627 1.00
ATOM 742 109CB 18.650 -19.548 117.082 1.00
ATOM 743 110N 15.739 -20.518 117.036 1.00
ATOM 744 110CA 14.614 -21.262 117.606 1.00
ATOM 745 110C 14.748 -21.449 119.112 1.00
ATOM 746 110O 15.799 -21.887 119.582 1.00
ATOM 747 110CB 14.496 -22.635 116.933 1.00
ATOM 748 110CG 13.604 -22.654 115.697 1.00
ATOM 749 110CD 14.315 -22.137 114.457 1.00
ATOM 750 110OE1 15.567 -22.159 114.438 1.00
ATOM 751 110OE2 13.626 -21.712 113.503 1.00
ATOM 752 111N 13.676 -21.124 119.844 1.00
ATOM 753 111CA 13.622 -21.238 121.307 1.00
ATOM 754 111C 14.715 -22.176 121.814 1.00
ATOM 755 111O 14.456 -23.326 122.178 1.00
ATOM 756 111CB 12.236 -21.743 121.748 1.00
ATOM 757 111CG 12.133 -22.111 123.222 1.00
ATOM 758 111CD 11.129 -23.231 123.444 1.00
ATOM 759 111CE 10.972 -23.549 124.921 1.00
ATOM 760 111NZ 10.219 -22.484 125.641 1.00
ATOM 761 112N 15.942 -21.662 121.830 1.00
ATOM 762 112CA 17.112 -22.420 122.248 1.00
ATOM 763 112C 16.970 -23.077 123.609 1.00
ATOM 764 112O 16.356 -22.525 124.531 1.00
ATOM 765 112CB 18.349 -21.518 122.266 1.00
ATOM 766 112CG 19.119 -21.463 120.963 1.00
ATOM 767 112CD 19.385 -22.828 120.380 1.00
ATOM 768 112OE1 18.679 -23.274 119.471 1.00
ATOM 769 112NE2 20.408 -23.505 120.895 1.00
ATOM 770 113N 17.544 -24.270 123.716 1.00
ATOM 771 113CA 17.541 -25.020 124.960 1.00
ATOM 772 113C 18.614 -24.341 125.795 1.00
ATOM 773 113O 18.398 -23.968 126.951 1.00
ATOM 774 113CB 17.915 -26.463 124.694 1.00
ATOM 775 114N 19.777 -24.186 125.177 1.00
ATOM 776 114CA 20.901 -23.521 125.808 1.00
ATOM 777 114C 20.886 -22.091 125.268 1.00
ATOM 778 114O 20.864 -21.876 124.055 1.00
ATOM 779 114CB 22.209 -24.228 125.441 1.00
ATOM 780 114CG 23.097 -24.537 126.637 1.00
ATOM 781 114CD 22.907 -23.538 127.765 1.00
ATOM 782 114OE1 22.055 -23.724 128.637 1.00
ATOM 783 114NE2 23.700 -22.469 127.751 1.00
ATOM 784 115N 20.883 -21.119 126.174 1.00
ATOM 785 115CA 20.837 -19.711 125.797 1.00
ATOM 786 115C 22.094 -19.200 125.102 1.00
ATOM 787 115O 22.016 -18.469 124.113 1.00
ATOM 788 115CB 20.551 -18.868 127.028 1.00
ATOM 789 116N 23.255 -19.568 125.629 1.00
ATOM 790 116CA 24.518 -19.126 125.051 1.00
ATOM 791 116C 24.780 -19.819 123.715 1.00
ATOM 792 116O 25.392 -19.238 122.817 1.00
ATOM 793 116CB 25.670 -19.422 126.020 1.00
ATOM 794 116CG 26.263 -18.192 126.680 1.00
ATOM 795 116CD 25.697 -17.948 128.063 1.00
ATOM 796 116OE1 24.761 -18.673 128.460 1.00
ATOM 797 116OE2 26.187 -17.031 128.753 1.00
ATOM 798 117N 24.303 -21.058 123.598 1.00
ATOM 799 117CA 24.485 -21.879 122.397 1.00
ATOM 800 117C 24.010 -21.202 121.133 1.00
ATOM 801 117O 24.468 -21.534 120.040 1.00
ATOM 802 117CB 23.763 -23.217 122.558 1.00
ATOM 803 118N 23.081 -20.263 121.288 1.00
ATOM 804 118CA 22.526 -19.526 120.155 1.00
ATOM 805 118C 23.622 -18.941 119.267 1.00
ATOM 806 118O 23.613 -19.128 118.048 1.00
ATOM 807 118CB 21.614 -18.405 120.656 1.00
ATOM 808 119N 24.569 -18.249 119.890 1.00
ATOM 809 119CA 25.666 -17.604 119.180 1.00
ATOM 810 119C 26.584 -18.547 118.403 1.00
ATOM 811 119O 27.391 -18.112 117.577 1.00
ATOM 812 119CB 26.458 -16.762 120.177 1.00
ATOM 813 119CG 25.606 -15.769 120.918 1.00
ATOM 814 119CD1 25.045 -16.094 122.150 1.00
ATOM 815 119CD2 25.336 -14.515 120.367 1.00
ATOM 816 119CE1 24.225 -15.187 122.820 1.00
ATOM 817 119CE2 24.520 -13.599 121.028 1.00
ATOM 818 119CZ 23.962 -13.936 122.257 1.00
ATOM 819 120N 26.448 -19.840 118.650 1.00
ATOM 820 120CA 27.266 -20.818 117.959 1.00
ATOM 821 120C 26.609 -21.238 116.657 1.00
ATOM 822 120O 27.221 -21.904 115.825 1.00
ATOM 823 120CB 27.446 -22.051 118.835 1.00
ATOM 824 120CG 27.564 -21.755 120.308 1.00
ATOM 825 120CD 28.710 -22.508 120.929 1.00
ATOM 826 120OE1 29.668 -21.908 121.423 1.00
ATOM 827 120NE2 28.629 -23.838 120.898 1.00
ATOM 828 121N 25.363 -20.826 116.474 1.00
ATOM 829 121CA 24.633 -21.239 115.292 1.00
ATOM 830 121C 23.852 -20.204 114.450 1.00
ATOM 831 121O 23.625 -20.448 113.266 1.00
ATOM 832 121CB 23.684 -22.427 115.678 1.00
ATOM 833 121CG1 22.575 -21.945 116.609 1.00
ATOM 834 121CG2 23.109 -23.076 114.429 1.00
ATOM 835 122N 23.455 -19.059 115.009 1.00
ATOM 836 122CA 22.674 -18.074 114.236 1.00
ATOM 837 122C 23.348 -17.573 112.950 1.00
ATOM 838 122O 24.563 -17.370 112.919 1.00
ATOM 839 122CB 22.308 -16.892 115.120 1.00
ATOM 840 123N 22.548 -17.369 111.901 1.00
ATOM 841 123CA 23.047 -16.904 110.601 1.00
ATOM 842 123C 23.850 -15.593 110.681 1.00
ATOM 843 123O 24.944 -15.486 110.111 1.00
ATOM 844 123CB 21.862 -16.791 109.612 1.00
ATOM 845 123CG 21.497 -15.676 108.601 1.00
ATOM 846 123CD1 21.187 -14.401 109.351 1.00
ATOM 847 123CD2 22.596 -15.453 107.565 1.00
ATOM 848 124N 23.317 -14.607 111.398 1.00
ATOM 849 124CA 23.991 -13.318 111.553 1.00
ATOM 850 124C 24.038 -12.925 113.020 1.00
ATOM 851 124O 23.384 -13.541 113.853 1.00
ATOM 852 124CB 23.269 -12.251 110.758 1.00
ATOM 853 125N 24.802 -11.891 113.343 1.00
ATOM 854 125CA 24.898 -11.482 114.732 1.00
ATOM 855 125C 25.227 -10.005 114.954 1.00
ATOM 856 125O 26.301 -9.517 114.582 1.00
ATOM 857 125CB 25.928 -12.357 115.476 1.00
ATOM 858 125CG1 27.355 -11.962 115.085 1.00
ATOM 859 125CG2 25.715 -12.232 116.966 1.00
ATOM 860 126N 24.287 -9.292 115.564 1.00
ATOM 861 126CA 24.490 -7.882 115.835 1.00
ATOM 862 126C 25.658 -7.745 116.809 1.00
ATOM 863 126O 25.539 -8.057 117.994 1.00
ATOM 864 126CB 23.228 -7.281 116.430 1.00
ATOM 865 127N 26.799 -7.307 116.296 1.00
ATOM 866 127CA 27.970 -7.128 117.136 1.00
ATOM 867 127C 28.211 -5.643 117.380 1.00
ATOM 868 127O 28.034 -4.819 116.481 1.00
ATOM 869 127CB 29.196 -7.744 116.463 1.00
ATOM 870 127CG 30.312 -8.060 117.447 1.00
ATOM 871 127OD1 31.012 -9.074 117.232 1.00
ATOM 872 127OD2 30.493 -7.304 118.429 1.00
ATOM 873 128N 28.623 -5.309 118.599 1.00
ATOM 874 128CA 28.905 -3.924 118.971 1.00
ATOM 875 128C 30.292 -3.538 118.466 1.00
ATOM 876 128O 30.524 -2.408 118.016 1.00
ATOM 877 128CB 28.848 -3.762 120.496 1.00
ATOM 878 128OG 29.925 -2.965 120.976 1.00
ATOM 879 129N 31.213 -4.495 118.539 1.00
ATOM 880 129CA 32.577 -4.271 118.094 1.00
ATOM 881 129C 32.570 -3.896 116.618 1.00
ATOM 882 129O 33.381 -3.080 116.175 1.00
ATOM 883 129CB 33.417 -5.531 118.309 1.00
ATOM 884 129OG 34.805 -5.241 118.254 1.00
ATOM 885 130N 31.631 -4.477 115.873 1.00
ATOM 886 130CA 31.504 -4.215 114.443 1.00
ATOM 887 130C 30.973 -2.797 114.181 1.00
ATOM 888 130O 30.442 -2.138 115.087 1.00
ATOM 889 130CB 30.574 -5.259 113.799 1.00
ATOM 890 130CG 31.168 -6.672 113.709 1.00
ATOM 891 130CD 30.766 -7.385 112.418 1.00
ATOM 892 130CE 29.257 -7.342 112.193 1.00
ATOM 893 130NZ 28.587 -8.572 112.692 1.00
ATOM 894 131N 31.138 -2.325 112.948 1.00
ATOM 895 131CA 30.668 -0.997 112.553 1.00
ATOM 896 131C 29.148 -1.085 112.385 1.00
ATOM 897 131O 28.412 -0.111 112.582 1.00
ATOM 898 131CB 31.319 -0.584 111.224 1.00
ATOM 899 131CG 31.632 0.911 111.083 1.00
ATOM 900 131CD 32.002 1.319 109.653 1.00
ATOM 901 131OE1 31.728 0.543 108.707 1.00
ATOM 902 131OE2 32.568 2.422 109.476 1.00
ATOM 903 132N 28.679 -2.279 112.041 1.00
ATOM 904 132CA 27.256 -2.497 111.852 1.00
ATOM 905 132C 26.663 -3.338 112.960 1.00
ATOM 906 132O 26.756 -4.573 112.962 1.00
ATOM 907 132CB 26.959 -3.157 110.512 1.00
ATOM 908 132CG1 26.954 -2.095 109.433 1.00
ATOM 909 132CG2 27.993 -4.242 110.221 1.00
ATOM 910 133N 26.030 -2.639 113.889 1.00
ATOM 911 133CA 25.402 -3.256 115.041 1.00
ATOM 912 133C 24.044 -3.801 114.650 1.00
ATOM 913 133O 23.001 -3.267 115.044 1.00
ATOM 914 133CB 25.213 -2.236 116.139 1.00
ATOM 915 133CG1 26.532 -2.017 116.855 1.00
ATOM 916 133CG2 24.695 -0.927 115.530 1.00
ATOM 917 134N 24.065 -4.865 113.858 1.00
ATOM 918 134CA 22.839 -5.486 113.401 1.00
ATOM 919 134C 23.143 -6.744 112.609 1.00
ATOM 920 134O 24.266 -6.940 112.125 1.00
ATOM 921 134CB 22.056 -4.507 112.541 1.00
ATOM 922 135N 22.117 -7.578 112.466 1.00
ATOM 923 135CA 22.223 -8.830 111.739 1.00
ATOM 924 135C 21.107 -8.952 110.704 1.00
ATOM 925 135O 19.962 -8.566 110.947 1.00
ATOM 926 135CB 22.174 -9.994 112.713 1.00
ATOM 927 136N 21.452 -9.482 109.538 1.00
ATOM 928 136CA 20.477 -9.655 108.476 1.00
ATOM 929 136C 20.053 -11.115 108.256 1.00
ATOM 930 136O 20.834 -11.974 107.822 1.00
ATOM 931 136CB 21.007 -9.059 107.172 1.00
ATOM 932 136CG 19.911 -8.458 106.302 1.00
ATOM 933 136SD 18.237 -8.880 106.882 1.00
ATOM 934 136CE 17.275 -7.574 106.111 1.00
ATOM 935 137N 18.790 -11.387 108.551 1.00
ATOM 936 137CA 18.257 -12.727 108.385 1.00
ATOM 937 137C 17.500 -12.837 107.072 1.00
ATOM 938 137O 16.291 -13.108 107.011 1.00
ATOM 939 137CB 17.379 -13.075 109.580 1.00
ATOM 940 137CG 18.186 -13.095 110.855 1.00
ATOM 941 137CD1 18.695 -11.914 111.396 1.00
ATOM 942 137CD2 18.482 -14.300 111.502 1.00
ATOM 943 137CE1 19.480 -11.931 112.551 1.00
ATOM 944 137CE2 19.270 -14.329 112.662 1.00
ATOM 945 137CZ 19.763 -13.140 113.178 1.00
ATOM 946 137OH 20.521 -13.151 114.328 1.00
ATOM 947 138N 18.266 -12.597 106.019 1.00
ATOM 948 138CA 17.815 -12.648 104.646 1.00
ATOM 949 138C 17.541 -14.104 104.340 1.00
ATOM 950 138O 18.424 -14.948 104.515 1.00
ATOM 951 138CB 18.944 -12.176 103.722 1.00
ATOM 952 138OG1 20.205 -12.650 104.235 1.00
ATOM 953 138CG2 18.968 -10.653 103.638 1.00
ATOM 954 139N 16.322 -14.395 103.898 1.00
ATOM 955 139CA 15.932 -15.760 103.555 1.00
ATOM 956 139C 16.157 -16.725 104.715 1.00
ATOM 957 139O 15.707 -17.874 104.685 1.00
ATOM 958 139CB 16.706 -16.231 102.313 1.00
ATOM 959 139CG 17.684 -17.355 102.616 1.00
ATOM 960 139OD1 18.767 -17.068 103.171 1.00
ATOM 961 139OD2 17.371 -18.522 102.295 1.00
ATOM 962 140N 16.853 -16.247 105.738 1.00
ATOM 963 140CA 17.140 -17.059 106.903 1.00
ATOM 964 140C 15.822 -17.517 107.514 1.00
ATOM 965 140O 15.692 -18.648 107.997 1.00
ATOM 966 140CB 17.940 -16.242 107.909 1.00
ATOM 967 141N 14.835 -16.634 107.474 1.00
ATOM 968 141CA 13.551 -16.970 108.039 1.00
ATOM 969 141C 12.418 -16.721 107.087 1.00
ATOM 970 141O 11.249 -16.753 107.462 1.00
ATOM 971 141CB 13.373 -16.216 109.338 1.00
ATOM 972 141CG 14.090 -16.862 110.482 1.00
ATOM 973 141CD1 14.766 -16.093 111.437 1.00
ATOM 974 141CD2 14.103 -18.259 110.597 1.00
ATOM 975 141CE1 15.447 -16.712 112.490 1.00
ATOM 976 141CE2 14.776 -18.885 111.640 1.00
ATOM 977 141CZ 15.451 -18.113 112.591 1.00
ATOM 978 142N 12.791 -16.492 105.836 1.00
ATOM 979 142CA 11.835 -16.275 104.767 1.00
ATOM 980 142C 10.847 -17.442 104.767 1.00
ATOM 981 142O 11.241 -18.607 104.644 1.00
ATOM 982 142CB 12.565 -16.222 103.420 1.00
ATOM 983 142CG 12.064 -15.152 102.465 1.00
ATOM 984 142CD 13.138 -14.118 102.173 1.00
ATOM 985 142NE 13.926 -14.468 100.995 1.00
ATOM 986 142CZ 14.783 -13.646 100.399 1.00
ATOM 987 142NH1 14.966 -12.421 100.873 1.00
ATOM 988 142NH2 15.457 -14.050 99.329 1.00
ATOM 989 143N 9.566 -17.117 104.911 1.00
ATOM 990 143CA 8.531 -18.135 104.917 1.00
ATOM 991 143C 8.328 -18.708 106.297 1.00
ATOM 992 143O 9.142 -19.502 106.764 1.00
ATOM 993 144N 7.244 -18.310 106.954 1.00
ATOM 994 144CA 6.972 -18.801 108.293 1.00
ATOM 995 144C 5.769 -18.144 108.976 1.00
ATOM 996 144O 5.585 -16.914 108.946 1.00
ATOM 997 144CB 8.227 -18.632 109.166 1.00
ATOM 998 145N 4.949 -18.987 109.597 1.00
ATOM 999 145CA 3.785 -18.506 110.313 1.00
ATOM 1000 145C 4.217 -17.227 111.027 1.00
ATOM 1001 145O 5.164 -17.228 111.820 1.00
ATOM 1002 145CB 3.301 -19.549 111.359 1.00
ATOM 1003 145OG1 2.809 -20.712 110.680 1.00
ATOM 1004 145CG2 2.187 -18.973 112.242 1.00
ATOM 1005 146N 3.542 -16.129 110.704 1.00
ATOM 1006 146CA 3.830 -14.846 111.322 1.00
ATOM 1007 146C 3.550 -14.985 112.810 1.00
ATOM 1008 146O 3.401 -13.992 113.519 1.00
ATOM 1009 146CB 2.929 -13.759 110.735 1.00
ATOM 1010 146CG 3.558 -12.754 109.769 1.00
ATOM 1011 146CD1 2.773 -11.446 109.812 1.00
ATOM 1012 146CD2 5.013 -12.527 110.138 1.00
ATOM 1013 147N 3.457 -16.234 113.258 1.00
ATOM 1014 147CA 3.205 -16.541 114.651 1.00
ATOM 1015 147C 4.277 -17.509 115.098 1.00
ATOM 1016 147O 4.687 -17.499 116.257 1.00
ATOM 1017 148N 4.718 -18.342 114.153 1.00
ATOM 1018 148CA 5.771 -19.339 114.368 1.00
ATOM 1019 148C 6.832 -18.696 115.244 1.00
ATOM 1020 148O 7.224 -19.203 116.304 1.00
ATOM 1021 148CB 6.407 -19.706 113.024 1.00
ATOM 1022 148CG 6.033 -21.094 112.554 1.00
ATOM 1023 148OD1 5.212 -21.763 113.223 1.00
ATOM 1024 148OD2 6.569 -21.511 111.505 1.00
ATOM 1025 149N 7.282 -17.562 114.736 1.00
ATOM 1026 149CA 8.279 -16.702 115.340 1.00
ATOM 1027 149C 8.150 -16.602 116.852 1.00
ATOM 1028 149O 9.154 -16.575 117.566 1.00
ATOM 1029 149CB 8.119 -15.331 114.713 1.00
ATOM 1030 149CG 6.729 -15.311 114.066 1.00
ATOM 1031 149CD1 5.811 -14.489 114.944 1.00
ATOM 1032 149CD2 6.786 -14.787 112.638 1.00
ATOM 1033 150N 6.917 -16.529 117.339 1.00
ATOM 1034 150CA 6.700 -16.440 118.771 1.00
ATOM 1035 150C 7.594 -17.465 119.451 1.00
ATOM 1036 150O 8.514 -17.089 120.186 1.00
ATOM 1037 150CB 5.234 -16.689 119.111 1.00
ATOM 1038 150CG 4.507 -15.418 119.565 1.00
ATOM 1039 150CD1 5.215 -14.809 120.781 1.00
ATOM 1040 150CD2 4.468 -14.424 118.411 1.00
ATOM 1041 151N 7.338 -18.753 119.210 1.00
ATOM 1042 151CA 8.204 -19.764 119.802 1.00
ATOM 1043 151C 9.495 -19.664 119.015 1.00
ATOM 1044 151O 9.628 -20.221 117.924 1.00
ATOM 1045 151CB 7.629 -21.182 119.699 1.00
ATOM 1046 151CG 8.287 -22.152 120.700 1.00
ATOM 1047 151OD1 8.691 -21.761 121.803 1.00
ATOM 1048 151ND2 8.395 -23.417 120.308 1.00
ATOM 1049 152N 10.420 -18.912 119.598 1.00
ATOM 1050 152CA 11.735 -18.620 119.056 1.00
ATOM 1051 152C 12.130 -17.302 119.735 1.00
ATOM 1052 152O 11.632 -16.221 119.390 1.00
ATOM 1053 152CB 11.643 -18.457 117.537 1.00
ATOM 1054 152CG 12.437 -17.391 116.784 1.00
ATOM 1055 152CD1 13.857 -17.275 117.322 1.00
ATOM 1056 152CD2 12.452 -17.780 115.314 1.00
ATOM 1057 153N 13.009 -17.410 120.724 1.00
ATOM 1058 153CA 13.460 -16.253 121.477 1.00
ATOM 1059 153C 14.637 -15.557 120.789 1.00
ATOM 1060 153O 15.067 -15.960 119.696 1.00
ATOM 1061 153CB 13.829 -16.687 122.914 1.00
ATOM 1062 153CG 13.559 -18.176 123.224 1.00
ATOM 1063 153CD 12.294 -18.416 124.051 1.00
ATOM 1064 153OE1 12.102 -17.803 125.100 1.00
ATOM 1065 153NE2 11.432 -19.319 123.581 1.00
ATOM 1066 154N 15.127 -14.495 121.431 1.00
ATOM 1067 154CA 16.261 -13.717 120.933 1.00
ATOM 1068 154C 17.312 -13.653 122.035 1.00
ATOM 1069 154O 16.988 -13.485 123.214 1.00
ATOM 1070 154CB 15.832 -12.304 120.521 1.00
ATOM 1071 154CG1 15.949 -11.348 121.711 1.00
ATOM 1072 154CG2 14.402 -12.353 119.978 1.00
ATOM 1073 154CD1 14.954 -11.620 122.813 1.00
ATOM 1074 155N 18.573 -13.771 121.650 1.00
ATOM 1075 155CA 19.632 -13.803 122.640 1.00
ATOM 1076 155C 20.585 -12.619 122.638 1.00
ATOM 1077 155O 20.947 -12.098 121.587 1.00
ATOM 1078 155CB 20.363 -15.144 122.497 1.00
ATOM 1079 155CG 19.375 -16.299 122.500 1.00
ATOM 1080 155CD1 18.697 -16.678 121.330 1.00
ATOM 1081 155CD2 19.019 -16.930 123.695 1.00
ATOM 1082 155CE1 17.677 -17.648 121.363 1.00
ATOM 1083 155CE2 18.005 -17.898 123.738 1.00
ATOM 1084 155CZ 17.336 -18.248 122.576 1.00
ATOM 1085 155OH 16.306 -19.161 122.652 1.00
ATOM 1086 156N 20.979 -12.203 123.842 1.00
ATOM 1087 156CA 21.872 -11.059 124.048 1.00
ATOM 1088 156C 22.930 -11.336 125.118 1.00
ATOM 1089 156O 22.608 -11.792 126.212 1.00
ATOM 1090 156CB 21.048 -9.847 124.477 1.00
ATOM 1091 156CG 19.701 -10.219 125.115 1.00
ATOM 1092 156CD1 19.933 -10.960 126.416 1.00
ATOM 1093 156CD2 18.880 -8.973 125.369 1.00
ATOM 1094 157N 24.187 -11.045 124.808 1.00
ATOM 1095 157CA 25.267 -11.271 125.761 1.00
ATOM 1096 157C 25.966 -9.956 126.055 1.00
ATOM 1097 157O 25.992 -9.078 125.203 1.00
ATOM 1098 157CB 26.274 -12.272 125.185 1.00
ATOM 1099 157CG 27.698 -12.043 125.644 1.00
ATOM 1100 157CD1 28.517 -11.111 125.005 1.00
ATOM 1101 157CD2 28.221 -12.748 126.726 1.00
ATOM 1102 157CE1 29.825 -10.884 125.432 1.00
ATOM 1103 157CE2 29.528 -12.530 127.163 1.00
ATOM 1104 157CZ 30.325 -11.597 126.512 1.00
ATOM 1105 157OH 31.619 -11.382 126.935 1.00
ATOM 1106 158N 26.549 -9.832 127.246 1.00
ATOM 1107 158CA 27.261 -8.612 127.634 1.00
ATOM 1108 158C 28.580 -8.937 128.313 1.00
ATOM 1109 158O 28.663 -9.883 129.095 1.00
ATOM 1110 158CB 26.409 -7.765 128.564 1.00
ATOM 1111 159N 29.619 -8.172 127.999 1.00
ATOM 1112 159CA 30.929 -8.399 128.602 1.00
ATOM 1113 159C 30.891 -7.925 130.048 1.00
ATOM 1114 159O 31.396 -8.592 130.950 1.00
ATOM 1115 159CB 32.016 -7.640 127.831 1.00
ATOM 1116 159OG 31.538 -6.395 127.354 1.00
ATOM 1117 160N 30.282 -6.764 130.256 1.00
ATOM 1118 160CA 30.156 -6.188 131.585 1.00
ATOM 1119 160C 28.699 -6.244 131.992 1.00
ATOM 1120 160O 27.818 -5.836 131.227 1.00
ATOM 1121 160CB 30.622 -4.732 131.586 1.00
ATOM 1122 160CG 31.965 -4.511 132.257 1.00
ATOM 1123 160CD 33.113 -4.511 131.267 1.00
ATOM 1124 160OE1 33.326 -5.546 130.599 1.00
ATOM 1125 160OE2 33.803 -3.476 131.154 1.00
ATOM 1126 161N 28.448 -6.758 133.193 1.00
ATOM 1127 161CA 27.089 -6.854 133.708 1.00
ATOM 1128 161C 26.406 -5.526 133.405 1.00
ATOM 1129 161O 27.076 -4.497 133.253 1.00
ATOM 1130 161CB 27.110 -7.119 135.213 1.00
ATOM 1131 162N 25.081 -5.534 133.322 1.00
ATOM 1132 162CA 24.395 -4.300 132.993 1.00
ATOM 1133 162C 22.902 -4.207 133.320 1.00
ATOM 1134 162O 22.194 -5.215 133.355 1.00
ATOM 1135 162CB 24.612 -4.002 131.510 1.00
ATOM 1136 162CG1 23.284 -3.657 130.832 1.00
ATOM 1137 162CG2 25.638 -2.891 131.376 1.00
ATOM 1138 163N 22.408 -2.971 133.543 1.00
ATOM 1139 163CA 21.011 -2.660 133.872 1.00
ATOM 1140 163C 19.986 -3.036 132.818 1.00
ATOM 1141 163O 20.317 -3.422 131.691 1.00
ATOM 1142 163CB 21.018 -1.154 134.109 1.00
ATOM 1143 163CG 22.188 -0.666 133.329 1.00
ATOM 1144 163CD 23.222 -1.743 133.489 1.00
ATOM 1145 164N 18.728 -2.909 133.215 1.00
ATOM 1146 164CA 17.620 -3.212 132.335 1.00
ATOM 1147 164C 17.288 -1.923 131.614 1.00
ATOM 1148 164O 17.795 -0.858 131.984 1.00
ATOM 1149 164CB 16.425 -3.699 133.138 1.00
ATOM 1150 165N 16.437 -2.024 130.594 1.00
ATOM 1151 165CA 16.041 -0.871 129.791 1.00
ATOM 1152 165C 17.338 -0.178 129.420 1.00
ATOM 1153 165O 17.355 0.976 128.995 1.00
ATOM 1154 165CB 15.144 0.078 130.596 1.00
ATOM 1155 165CG 14.041 -0.611 131.403 1.00
ATOM 1156 165CD 12.958 -1.212 130.507 1.00
ATOM 1157 165CE 12.019 -2.126 131.294 1.00
ATOM 1158 165NZ 12.021 -3.539 130.800 1.00
ATOM 1159 166N 18.425 -0.920 129.603 1.00
ATOM 1160 166CA 19.765 -0.451 129.321 1.00
ATOM 1161 166C 19.950 -0.376 127.818 1.00
ATOM 1162 166O 20.946 0.153 127.322 1.00
ATOM 1163 166CB 20.774 -1.409 129.926 1.00
ATOM 1164 167N 18.972 -0.898 127.091 1.00
ATOM 1165 167CA 19.044 -0.911 125.638 1.00
ATOM 1166 167C 17.821 -1.548 125.001 1.00
ATOM 1167 167O 17.237 -2.502 125.524 1.00
ATOM 1168 167CB 20.271 -1.699 125.136 1.00
ATOM 1169 167CG1 20.262 -3.074 125.730 1.00
ATOM 1170 167CG2 20.241 -1.816 123.619 1.00
ATOM 1171 168N 17.439 -1.017 123.850 1.00
ATOM 1172 168CA 16.308 -1.560 123.134 1.00
ATOM 1173 168C 16.870 -2.338 121.972 1.00
ATOM 1174 168O 18.076 -2.539 121.858 1.00
ATOM 1175 168CB 15.371 -0.465 122.585 1.00
ATOM 1176 168CG1 14.638 0.219 123.732 1.00
ATOM 1177 168CG2 16.164 0.533 121.765 1.00
ATOM 1178 169N 15.975 -2.806 121.123 1.00
ATOM 1179 169CA 16.365 -3.569 119.963 1.00
ATOM 1180 169C 15.174 -3.582 119.042 1.00
ATOM 1181 169O 14.070 -3.965 119.441 1.00
ATOM 1182 169CB 16.706 -5.002 120.339 1.00
ATOM 1183 169CG1 16.017 -5.365 121.641 1.00
ATOM 1184 169CG2 16.273 -5.941 119.222 1.00
ATOM 1185 170N 15.403 -3.186 117.802 1.00
ATOM 1186 170CA 14.319 -3.155 116.852 1.00
ATOM 1187 170C 14.380 -4.350 115.938 1.00
ATOM 1188 170O 15.424 -4.999 115.769 1.00
ATOM 1189 170CB 14.346 -1.846 116.070 1.00
ATOM 1190 170CG 14.713 -0.674 116.921 1.00
ATOM 1191 170ND1 15.822 -0.675 117.741 1.00
ATOM 1192 170CD2 14.101 0.517 117.114 1.00
ATOM 1193 170CE1 15.877 0.463 118.406 1.00
ATOM 1194 170NE2 14.845 1.204 118.044 1.00
ATOM 1195 171N 13.221 -4.674 115.393 1.00
ATOM 1196 171CA 13.118 -5.797 114.497 1.00
ATOM 1197 171C 12.315 -5.401 113.273 1.00
ATOM 1198 171O 11.083 -5.339 113.281 1.00
ATOM 1199 171CB 12.489 -6.991 115.219 1.00
ATOM 1200 171CG 11.695 -6.544 116.452 1.00
ATOM 1201 171CD1 10.424 -5.900 115.965 1.00
ATOM 1202 171CD2 11.383 -7.703 117.381 1.00
ATOM 1203 172N 13.054 -5.100 112.219 1.00
ATOM 1204 172CA 12.453 -4.735 110.958 1.00
ATOM 1205 172C 12.183 -6.092 110.338 1.00
ATOM 1206 172O 13.109 -6.865 110.094 1.00
ATOM 1207 172CB 13.447 -3.934 110.118 1.00
ATOM 1208 172CG 14.390 -3.085 110.950 1.00
ATOM 1209 172CD 13.785 -1.749 111.293 1.00
ATOM 1210 172OE1 13.627 -0.942 110.357 1.00
ATOM 1211 172OE2 13.462 -1.506 112.481 1.00
ATOM 1212 173N 10.913 -6.411 110.139 1.00
ATOM 1213 173CA 10.579 -7.703 109.563 1.00
ATOM 1214 173C 9.685 -7.659 108.338 1.00
ATOM 1215 173O 8.636 -7.004 108.318 1.00
ATOM 1216 173CB 9.914 -8.622 110.601 1.00
ATOM 1217 173CG1 9.257 -7.788 111.691 1.00
ATOM 1218 173CG2 8.895 -9.534 109.912 1.00
ATOM 1219 174N 10.115 -8.390 107.321 1.00
ATOM 1220 174CA 9.367 -8.477 106.093 1.00
ATOM 1221 174C 8.313 -9.538 106.297 1.00
ATOM 1222 174O 8.579 -10.592 106.873 1.00
ATOM 1223 174CB 10.278 -8.867 104.938 1.00
ATOM 1224 174CG 9.809 -8.356 103.593 1.00
ATOM 1225 174CD 10.875 -8.477 102.522 1.00
ATOM 1226 174OE1 11.119 -7.468 101.825 1.00
ATOM 1227 174OE2 11.462 -9.577 102.378 1.00
ATOM 1228 175N 7.114 -9.244 105.824 1.00
ATOM 1229 175CA 5.989 -10.151 105.941 1.00
ATOM 1230 175C 4.964 -9.642 104.952 1.00
ATOM 1231 175O 4.951 -8.460 104.610 1.00
ATOM 1232 175CB 5.410 -10.110 107.354 1.00
ATOM 1233 175CG 4.946 -8.750 107.775 1.00
ATOM 1234 175ND1 3.644 -8.326 107.617 1.00
ATOM 1235 175CD2 5.612 -7.715 108.343 1.00
ATOM 1236 175CE1 3.528 -7.089 108.070 1.00
ATOM 1237 175NE2 4.708 -6.695 108.516 1.00
ATOM 1238 176N 4.127 -10.541 104.466 1.00
ATOM 1239 176CA 3.096 -10.175 103.512 1.00
ATOM 1240 176C 2.187 -9.102 104.086 1.00
ATOM 1241 176O 1.729 -9.198 105.224 1.00
ATOM 1242 176CB 2.233 -11.394 103.145 1.00
ATOM 1243 176CG1 2.718 -11.984 101.845 1.00
ATOM 1244 176CG2 2.286 -12.440 104.262 1.00
ATOM 1245 177N 1.938 -8.071 103.289 1.00
ATOM 1246 177CA 1.081 -6.975 103.710 1.00
ATOM 1247 177C -0.338 -7.499 103.925 1.00
ATOM 1248 177O -0.839 -8.298 103.138 1.00
ATOM 1249 177CB 1.080 -5.872 102.642 1.00
ATOM 1250 177CG 0.611 -4.505 103.138 1.00
ATOM 1251 177CD 1.742 -3.482 103.125 1.00
ATOM 1252 177NE 1.835 -2.778 101.848 1.00
ATOM 1253 177CZ 2.945 -2.691 101.121 1.00
ATOM 1254 177NH1 4.065 -3.265 101.539 1.00
ATOM 1255 177NH2 2.934 -2.031 99.971 1.00
ATOM 1256 178N -0.998 -7.066 105.006 1.00
ATOM 1257 178CA -2.362 -7.540 105.250 1.00
ATOM 1258 178C -3.371 -6.797 104.373 1.00
ATOM 1259 178O -3.006 -6.175 103.375 1.00
ATOM 1260 178CB -2.570 -7.265 106.731 1.00
ATOM 1261 178CG -1.705 -6.063 107.003 1.00
ATOM 1262 178CD -0.536 -6.133 106.050 1.00
ATOM 1263 179N -4.641 -6.853 104.759 1.00
ATOM 1264 179CA -5.693 -6.193 103.999 1.00
ATOM 1265 179C -6.360 -5.040 104.768 1.00
ATOM 1266 179O -7.002 -4.177 104.172 1.00
ATOM 1267 179CB -6.755 -7.226 103.564 1.00
ATOM 1268 179OG1 -6.349 -8.535 103.988 1.00
ATOM 1269 179CG2 -6.904 -7.230 102.050 1.00
ATOM 1270 180N -6.195 -5.023 106.087 1.00
ATOM 1271 180CA -6.772 -3.972 106.923 1.00
ATOM 1272 180C -6.354 -2.587 106.432 1.00
ATOM 1273 180O -7.192 -1.699 106.277 1.00
ATOM 1274 180CB -6.354 -4.195 108.395 1.00
ATOM 1275 180CG -5.738 -2.983 109.081 1.00
ATOM 1276 180CD1 -6.510 -1.864 109.402 1.00
ATOM 1277 180CD2 -4.393 -2.987 109.458 1.00
ATOM 1278 180CE1 -5.953 -0.773 110.091 1.00
ATOM 1279 180CE2 -3.829 -1.902 110.147 1.00
ATOM 1280 180CZ -4.612 -0.796 110.464 1.00
ATOM 1281 181N -5.056 -2.423 106.181 1.00
ATOM 1282 181CA -4.468 -1.162 105.717 1.00
ATOM 1283 181C -5.392 -0.341 104.823 1.00
ATOM 1284 181O -5.411 0.889 104.885 1.00
ATOM 1285 181CB -3.166 -1.446 104.957 1.00
ATOM 1286 181CG -1.932 -0.981 105.709 1.00
ATOM 1287 181OD1 -1.964 0.131 106.283 1.00
ATOM 1288 181OD2 -0.930 -1.727 105.723 1.00
ATOM 1289 182N -6.157 -1.040 103.998 1.00
ATOM 1290 182CA -7.070 -0.410 103.063 1.00
ATOM 1291 182C -8.468 -0.206 103.637 1.00
ATOM 1292 182O -8.624 0.354 104.718 1.00
ATOM 1293 182CB -7.134 -1.262 101.800 1.00
ATOM 1294 182CG -5.881 -2.102 101.607 1.00
ATOM 1295 182OD1 -5.889 -3.292 101.987 1.00
ATOM 1296 182OD2 -4.883 -1.567 101.080 1.00
ATOM 1297 183N -9.473 -0.666 102.899 1.00
ATOM 1298 183CA -10.887 -0.555 103.266 1.00
ATOM 1299 183C -11.274 -0.335 104.737 1.00
ATOM 1300 183O -10.595 -0.784 105.661 1.00
ATOM 1301 183CB -11.634 -1.781 102.738 1.00
ATOM 1302 183CG -10.926 -3.073 102.997 1.00
ATOM 1303 183CD1 -10.682 -3.966 101.960 1.00
ATOM 1304 183CD2 -10.497 -3.400 104.283 1.00
ATOM 1305 183CE1 -10.019 -5.169 102.199 1.00
ATOM 1306 183CE2 -9.835 -4.597 104.535 1.00
ATOM 1307 183CZ -9.595 -5.485 103.490 1.00
ATOM 1308 184N -12.401 0.350 104.924 1.00
ATOM 1309 184CA -12.949 0.656 106.244 1.00
ATOM 1310 184C -13.604 -0.569 106.858 1.00
ATOM 1311 184O -13.110 -1.696 106.752 1.00
ATOM 1312 184CB -14.026 1.728 106.146 1.00
ATOM 1313 184CG -13.516 3.127 106.245 1.00
ATOM 1314 184CD1 -12.761 3.685 105.221 1.00
ATOM 1315 184CD2 -13.845 3.916 107.336 1.00
ATOM 1316 184CE1 -12.347 5.017 105.282 1.00
ATOM 1317 184CE2 -13.436 5.248 107.408 1.00
ATOM 1318 184CZ -12.687 5.800 106.379 1.00
ATOM 1319 185N -14.757 -0.328 107.470 1.00
ATOM 1320 185CA -15.498 -1.377 108.145 1.00
ATOM 1321 185C -16.977 -1.451 107.773 1.00
ATOM 1322 185O -17.624 -0.429 107.529 1.00
ATOM 1323 185CB -15.387 -1.187 109.676 1.00
ATOM 1324 185OG1 -14.657 -2.280 110.240 1.00
ATOM 1325 185CG2 -16.770 -1.103 110.326 1.00
ATOM 1326 186N -17.531 -2.674 107.723 1.00
ATOM 1327 186CA -18.945 -2.854 107.389 1.00
ATOM 1328 186C -19.815 -2.023 108.322 1.00
ATOM 1329 186O -19.855 -2.260 109.528 1.00
ATOM 1330 186CB -19.179 -4.351 107.585 1.00
ATOM 1331 186CG -17.841 -4.966 107.413 1.00
ATOM 1332 186CD -16.853 -3.963 107.945 1.00
ATOM 1333 187N -20.492 -1.034 107.760 1.00
ATOM 1334 187CA -21.370 -0.182 108.541 1.00
ATOM 1335 187C -22.446 -1.059 109.188 1.00
ATOM 1336 187O -22.854 -0.836 110.343 1.00
ATOM 1337 187CB -22.048 0.858 107.632 1.00
ATOM 1338 187CG1 -22.280 0.261 106.232 1.00
ATOM 1339 187CG2 -23.354 1.308 108.249 1.00
ATOM 1340 188N -22.897 -2.048 108.414 1.00
ATOM 1341 188CA -23.922 -2.996 108.843 1.00
ATOM 1342 188C -23.286 -4.118 109.629 1.00
ATOM 1343 188O -22.593 -4.970 109.074 1.00
ATOM 1344 188CB -24.660 -3.597 107.641 1.00
ATOM 1345 188CG -25.900 -4.393 108.018 1.00
ATOM 1346 188CD1 -27.176 -3.843 107.881 1.00
ATOM 1347 188CD2 -25.798 -5.688 108.526 1.00
ATOM 1348 188CE1 -28.325 -4.561 108.243 1.00
ATOM 1349 188CE2 -26.942 -6.416 108.892 1.00
ATOM 1350 188CZ -28.201 -5.846 108.749 1.00
ATOM 1351 188OH -29.332 -6.552 109.115 1.00
ATOM 1352 189N -23.534 -4.113 110.928 1.00
ATOM 1353 189CA -22.985 -5.129 111.803 1.00
ATOM 1354 189C -24.135 -5.862 112.495 1.00
ATOM 1355 189O -23.892 -6.941 113.073 1.00
ATOM 1356 189CB -22.057 -4.469 112.828 1.00
ATOM 1357 189CG -21.841 -2.958 112.615 1.00
ATOM 1358 189CD -20.964 -2.352 113.713 1.00
ATOM 1359 189NE -20.387 -3.390 114.569 1.00
ATOM 1360 189CZ -20.453 -3.398 115.899 1.00
ATOM 1361 189NH1 -21.076 -2.413 116.536 1.00
ATOM 1362 189NH2 -19.908 -4.398 116.594 1.00
ATOM 1363 189OXT -25.276 -5.350 112.439 1.00
