2587611,46779,3930,623694,3930,0,605127,100645
959885,29456,2300,151229,2303,0,380536,58946.5
904057,24662,2151,118632,2145,0,329260,54974
484255,14734,1729,123164,1727,0,213341,44244
555298,17679,2763,177285,2766,0,277988,70829.8
759541,27942,3394,194880,3396,0,405147,86967.4
636979,19773,3055,192085,3057,0,304309,78279.2
558960,18994,3008,183837,3007,0,305379,77014.9
316247,9584,1826,106360,1826,0,156521,46747.1
0,0,0,0,0,-nan,0,0
156527,11674,937,12601,934,0,152312,23937.4
0,0,0,0,0,-nan,0,0
