2587611,46783,3930,623694,3930,0
959885,29460,2300,151229,2303,0
904057,24663,2150,118632,2144,0
484255,14735,1729,123164,1727,0
555298,17681,2764,177285,2767,0
759541,27944,3394,194880,3396,0
636979,19771,3054,192085,3056,0
558960,18994,3008,183837,3007,0
316247,9583,1825,106360,1825,0
156527,11675,937,12601,934,0
83971,5592,2647,36147,2650,0
