836064,8399,1402,364236,1398,0
203468,3600,824,76892,823,0
261194,3936,859,126632,857,0
311666,5536,1143,145652,1142,0
213188,4232,878,90152,873,0
358376,7112,1052,130472,1052,0
273026,4288,992,134312,987,0
260300,4319,894,125852,892,0
372146,6831,977,135032,973,0
254828,4545,930,127712,926,0
