579755,23700,6612,259765,6623,0
57617,5163,2846,28853,2852,0
77795,7765,3287,29435,3292,0
98081,9546,3833,37013,3835,0
89885,8858,5100,48192,5105,0
93641,8615,3415,36911,3422,0
79829,7727,3448,31704,3455,0
82907,8221,4980,47669,4990,0
0,0,0,0,0,-nan
0,0,0,0,0,-nan
