3129786,60486,4233,775960,4257,0
1007486,37917,1870,187176,1891,0
1138364,39265,3039,268820,3049,0
1479158,45787,2676,246384,2689,0
1088006,27590,3577,317660,3600,0
1149326,32174,3720,318153,3747,0
965372,25174,3698,321801,3719,0
990158,28595,3338,304833,3359,0
1073060,25034,2373,221181,2378,0
498428,11501,1285,141872,1289,0
382793,18379,2261,76338,2276,0
