5708889,30657,19,76073,19,0,991908,5546.66
2702784,18266,15,41664,15,0,684829,4378.94
3910716,29441,15,41663,15,0,911758,4378.94
3465444,27113,15,33034,15,0,818642,4378.94
5391720,30286,15,48947,15,0,966312,4378.94
3086112,24152,19,51715,19,0,789247,5546.66
5126772,29569,11,46030,11,0,938440,3211.22
2613552,17873,17,50286,17,0,727110,4962.8
2579886,16701,19,51715,19,0,715608,5546.66
2759766,22563,18,50990,18,0,701298,5254.73
2798730,19090,16,40930,16,0,768015,4670.87
2484708,14722,16,48137,16,0,644973,4670.87
2254902,13944,8,14348,8,0,549070,2335.43
2606442,19698,15,48128,15,0,632776,4378.94
3889578,28486,15,40997,15,0,845762,4378.94
2408742,19375,11,29229,11,0,611114,3211.22
1185024,20822,9,6716,9,0,574526,2627.36
1101252,8322,13,24626,13,0,464868,3795.08
111624,1852,12,10244,12,0,134582,3503.15
315606,8789,11,5427,11,0,395174,3211.22
