3956627,4858,468,1876665,467,0,522162,199972
2381687,3939,397,1138402,396,0,449271,169270
2390341,3706,388,1189157,389,0,422373,166351
2414587,3851,379,1178060,380,0,422480,162459
2577929,4224,394,1171970,394,0,452724,168151
2474463,3914,395,1174755,394,0,434347,169124
2234769,2277,367,1167977,354,0,336589,154431
2478324,4089,403,1186796,401,0,450466,171508
2429620,3983,376,1138583,372,0,433416,159491
2249526,3803,375,1046113,376,0,408882,160853
2530054,3713,393,1191997,397,0,408564,169903
2349534,3939,393,1172194,396,0,433631,168881
2326377,4069,367,1033769,367,0,437922,156912
2288377,4230,369,945975,368,0,430084,157447
2527929,4105,358,1105769,364,0,424053,155598
1956126,2837,304,1048468,298,0,306676,128643
1494966,3314,317,702374,317,0,366604,135017
1435458,3174,320,708489,320,0,356479,136623
1470124,3307,323,702045,318,0,368775,136282
746834,2796,190,219451,194,0,267253,82713.3
1266445,2951,315,600246,316,0,344213,134969
1303478,1697,303,694819,294,0,271419,128449
1394564,3039,316,686607,312,0,354214,133606
