4347833,1682,487,2690577,492,0,509078,319663
2660212,1431,406,1688200,409,0,422789,265583
2673477,1270,422,1734387,424,0,428404,275800
2741791,1418,416,1748513,423,0,425809,274559
2752966,1417,407,1737374,412,0,423244,267334
2536766,1373,413,1658176,416,0,420455,270910
2672996,1395,402,1653866,406,0,422885,263393
2733520,1222,407,1736308,406,0,406240,264634
2564399,1236,381,1603929,387,0,395298,251935
2945141,1273,391,1784742,398,0,405133,258357
2831119,1182,371,1628945,367,0,385238,240404
2831119,1182,371,1628945,367,0,385238,240404
2581651,1229,354,1614959,364,0,363834,236463
2770673,1253,341,1628018,346,0,371438,224421
2758092,1507,410,1637905,415,0,441876,269086
2760609,1378,408,1746587,412,0,426293,267918
2745888,1487,403,1630973,409,0,434687,265145
2749030,1422,404,1672888,409,0,431878,265145
1691471,1141,334,1050851,338,0,356886,219312
1622964,1220,328,948053,333,0,357875,215444
900328,792,216,539995,225,0,230778,145381
1691471,1141,334,1050851,338,0,356886,219312
1622964,1220,328,948053,333,0,357875,215444
959036,594,247,595688,247,0,236298,161437
1562523,1040,306,1014228,316,0,305729,204934
1684379,1048,280,1001688,286,0,305715,185010
2831119,1182,371,1628945,367,0,385238,240404
2831119,1182,371,1628945,367,0,385238,240404
