924268,270,241,909095,243,0
500493,216,196,496755,196,0
512474,215,189,502631,191,0
506306,218,196,499551,198,0
500922,212,193,492271,195,0
500404,208,200,498316,200,0
510588,211,192,502404,192,0
492645,223,197,482756,199,0
490711,217,190,479788,192,0
476199,217,195,466796,197,0
510267,217,195,501126,197,0
488719,218,197,480742,198,0
474063,226,199,464163,201,0
506085,219,192,496366,193,0
237564,172,159,235584,159,0
252158,162,150,248853,152,0
103867,133,117,101195,117,0
254658,156,152,254394,152,0
250242,176,152,243354,154,0
250388,178,158,246163,160,0
250388,174,149,243559,151,0
