278574,308,220,258460,221,0
122868,219,169,114977,169,0
125382,233,166,116607,167,0
121236,228,171,114720,172,0
130884,230,172,123296,173,0
131658,234,161,121116,161,0
130380,236,172,121045,173,0
142800,258,173,124605,174,0
122286,191,155,116247,155,0
117696,207,150,112522,151,0
278574,308,220,258460,221,0
278574,308,220,258460,221,0
278574,308,220,258460,221,0
278574,308,220,258460,221,0
278574,308,220,258460,221,0
278574,308,220,258460,221,0
21212,124,82,17217,82,0
122286,191,155,116247,155,0
125382,233,166,116607,167,0
278574,308,220,258460,221,0
278574,308,220,258460,221,0
130884,230,172,123296,173,0
130884,230,172,123296,173,0
122286,191,155,116247,155,0
125382,233,166,116607,167,0
