ATOM 1134 25N 34.140 -12.285 84.760 1.00
ATOM 1135 25CA 34.232 -10.874 85.232 1.00
ATOM 1136 25C 35.645 -10.546 85.715 1.00
ATOM 1137 25O 35.903 -10.534 86.918 1.00
ATOM 1138 25CB 33.225 -10.642 86.359 1.00
ATOM 1139 26N 36.555 -10.279 84.778 1.00
ATOM 1140 26CA 37.939 -9.954 85.123 1.00
ATOM 1141 26C 37.982 -8.863 86.182 1.00
ATOM 1142 26O 37.158 -7.945 86.178 1.00
ATOM 1143 26CB 38.721 -9.494 83.884 1.00
ATOM 1144 26CG 40.010 -8.731 84.202 1.00
ATOM 1145 26CD 41.124 -9.042 83.207 1.00
ATOM 1146 26NE 42.396 -8.438 83.600 1.00
ATOM 1147 26CZ 43.539 -8.593 82.937 1.00
ATOM 1148 26NH1 43.579 -9.336 81.839 1.00
ATOM 1149 26NH2 44.645 -8.002 83.370 1.00
ATOM 1150 27N 38.949 -8.968 87.086 1.00
ATOM 1151 27CA 39.088 -7.998 88.159 1.00
ATOM 1152 27C 39.408 -6.610 87.643 1.00
ATOM 1153 27O 40.016 -6.442 86.584 1.00
ATOM 1154 27CB 40.192 -8.390 89.143 1.00
ATOM 1155 27CG1 41.545 -8.053 88.555 1.00
ATOM 1156 27CG2 39.991 -7.659 90.461 1.00
ATOM 1157 28N 39.001 -5.617 88.420 1.00
ATOM 1158 28CA 39.232 -4.235 88.064 1.00
ATOM 1159 28C 40.409 -3.664 88.827 1.00
ATOM 1160 28O 40.345 -3.462 90.041 1.00
ATOM 1161 28CB 37.988 -3.392 88.346 1.00
ATOM 1162 28CG 38.047 -1.989 87.761 1.00
ATOM 1163 28CD 38.401 -1.994 86.290 1.00
ATOM 1164 28OE1 37.538 -2.192 85.430 1.00
ATOM 1165 28NE2 39.677 -1.777 85.990 1.00
ATOM 1166 29N 41.517 -3.424 88.123 1.00
ATOM 1167 29CA 42.692 -2.861 88.787 1.00
ATOM 1168 29C 42.304 -1.428 89.106 1.00
ATOM 1169 29O 42.301 -0.565 88.228 1.00
ATOM 1170 29CB 43.790 -2.939 87.724 1.00
ATOM 1171 29CG 43.221 -3.796 86.600 1.00
ATOM 1172 29CD 41.741 -3.666 86.687 1.00
ATOM 1173 30N 41.954 -1.176 90.359 1.00
ATOM 1174 30CA 41.524 0.155 90.751 1.00
ATOM 1175 30C 42.492 0.863 91.684 1.00
ATOM 1176 30O 43.535 0.319 92.045 1.00
ATOM 1177 30CB 40.137 0.087 91.418 1.00
ATOM 1178 30CG1 40.276 -0.258 92.908 1.00
ATOM 1179 30CG2 39.409 1.398 91.219 1.00
ATOM 1180 31N 42.140 2.085 92.074 1.00
ATOM 1181 31CA 42.981 2.848 92.979 1.00
ATOM 1182 31C 42.253 3.933 93.768 1.00
ATOM 1183 31O 41.892 4.987 93.231 1.00
ATOM 1184 31CB 44.124 3.505 92.230 1.00
ATOM 1185 31CG1 44.896 4.430 93.175 1.00
ATOM 1186 31CG2 43.576 4.259 91.041 1.00
ATOM 1187 31CD1 45.324 3.769 94.483 1.00
ATOM 1188 32N 42.061 3.663 95.056 1.00
ATOM 1189 32CA 41.399 4.597 95.952 1.00
ATOM 1190 32C 42.226 5.857 96.019 1.00
ATOM 1191 32O 43.389 5.822 96.421 1.00
ATOM 1192 32CB 41.312 4.054 97.386 1.00
ATOM 1193 32CG1 40.386 4.937 98.223 1.00
ATOM 1194 32CG2 40.848 2.614 97.368 1.00
ATOM 1195 33N 41.636 6.973 95.626 1.00
ATOM 1196 33CA 42.368 8.215 95.690 1.00
ATOM 1197 33C 42.169 8.819 97.074 1.00
ATOM 1198 33O 41.111 8.660 97.691 1.00
ATOM 1199 33CB 41.897 9.171 94.601 1.00
ATOM 1200 33CG 42.875 9.273 93.440 1.00
ATOM 1201 33CD 43.900 10.380 93.634 1.00
ATOM 1202 33OE1 43.735 11.195 94.572 1.00
ATOM 1203 33OE2 44.869 10.435 92.848 1.00
ATOM 1204 34N 43.208 9.493 97.591 1.00
ATOM 1205 34CA 43.202 10.138 98.904 1.00
ATOM 1206 34C 42.311 11.376 98.946 1.00
ATOM 1207 34O 42.399 12.267 98.091 1.00
ATOM 1208 34CB 44.664 10.479 99.126 1.00
ATOM 1209 34CG 45.171 10.725 97.747 1.00
ATOM 1210 34CD 44.502 9.674 96.914 1.00
ATOM 1211 35N 41.465 11.413 99.967 1.00
ATOM 1212 35CA 40.517 12.495 100.197 1.00
ATOM 1213 35C 41.034 13.392 101.323 1.00
ATOM 1214 35O 41.307 12.909 102.421 1.00
ATOM 1215 35CB 39.157 11.898 100.591 1.00
ATOM 1216 35CG 38.961 10.366 100.545 1.00
ATOM 1217 35CD1 39.996 9.627 101.404 1.00
ATOM 1218 35CD2 37.560 10.041 101.042 1.00
ATOM 1219 36N 41.171 14.690 101.056 1.00
ATOM 1220 36CA 41.663 15.629 102.068 1.00
ATOM 1221 36C 40.578 16.543 102.619 1.00
ATOM 1222 36O 39.859 17.197 101.866 1.00
ATOM 1223 36CB 42.793 16.470 101.503 1.00
ATOM 1224 37N 40.489 16.586 103.943 1.00
ATOM 1225 37CA 39.507 17.396 104.660 1.00
ATOM 1226 37C 38.810 18.473 103.826 1.00
ATOM 1227 37O 39.469 19.271 103.158 1.00
ATOM 1228 37CB 40.172 18.030 105.878 1.00
ATOM 1229 38N 37.475 18.470 103.872 1.00
ATOM 1230 38CA 36.664 19.446 103.152 1.00
ATOM 1231 38C 36.562 19.266 101.648 1.00
ATOM 1232 38O 35.973 20.100 100.940 1.00
ATOM 1233 39N 37.139 18.170 101.168 1.00
ATOM 1234 39CA 37.154 17.840 99.752 1.00
ATOM 1235 39C 35.843 17.207 99.296 1.00
ATOM 1236 39O 35.120 16.599 100.093 1.00
ATOM 1237 39CB 38.298 16.874 99.466 1.00
ATOM 1238 39CG 39.259 17.310 98.380 1.00
ATOM 1239 39CD 40.282 16.221 98.060 1.00
ATOM 1240 39OE1 40.446 15.259 98.818 1.00
ATOM 1241 39NE2 40.971 16.367 96.935 1.00
ATOM 1242 40N 35.566 17.355 98.000 1.00
ATOM 1243 40CA 34.361 16.810 97.396 1.00
ATOM 1244 40C 33.175 16.782 98.335 1.00
ATOM 1245 40O 33.004 17.683 99.156 1.00
ATOM 1246 41N 32.352 15.747 98.210 1.00
ATOM 1247 41CA 31.188 15.603 99.072 1.00
ATOM 1248 41C 30.212 16.755 98.867 1.00
ATOM 1249 41O 29.524 17.174 99.802 1.00
ATOM 1250 41CB 31.629 15.554 100.543 1.00
ATOM 1251 41CG 31.307 14.250 101.257 1.00
ATOM 1252 41CD 29.994 14.346 102.021 1.00
ATOM 1253 41CE 29.149 13.090 101.837 1.00
ATOM 1254 41NZ 28.290 13.148 100.619 1.00
ATOM 1255 42N 30.161 17.280 97.649 1.00
ATOM 1256 42CA 29.245 18.374 97.354 1.00
ATOM 1257 42C 27.846 17.832 97.600 1.00
ATOM 1258 42O 27.540 16.724 97.165 1.00
ATOM 1259 42CB 29.395 18.796 95.902 1.00
ATOM 1260 43N 26.996 18.586 98.290 1.00
ATOM 1261 43CA 25.646 18.084 98.551 1.00
ATOM 1262 43C 24.525 18.905 97.951 1.00
ATOM 1263 43O 23.937 19.762 98.606 1.00
ATOM 1264 43CB 25.372 17.941 100.046 1.00
ATOM 1265 43CG1 26.639 18.315 100.842 1.00
ATOM 1266 43CG2 24.794 16.547 100.300 1.00
ATOM 1267 43CD1 27.066 17.331 101.921 1.00
ATOM 1268 44N 24.226 18.613 96.694 1.00
ATOM 1269 44CA 23.181 19.308 95.960 1.00
ATOM 1270 44C 21.894 19.347 96.767 1.00
ATOM 1271 44O 21.577 18.398 97.486 1.00
ATOM 1272 44CB 22.930 18.603 94.613 1.00
ATOM 1273 44CG 23.839 17.386 94.327 1.00
ATOM 1274 44CD 24.048 17.149 92.817 1.00
ATOM 1275 44CE 25.138 16.105 92.537 1.00
ATOM 1276 44NZ 25.959 16.425 91.326 1.00
ATOM 1277 45N 21.167 20.457 96.657 1.00
ATOM 1278 45CA 19.896 20.619 97.361 1.00
ATOM 1279 45C 18.800 20.301 96.363 1.00
ATOM 1280 45O 19.044 20.312 95.160 1.00
ATOM 1281 45CB 19.739 22.044 97.866 1.00
ATOM 1282 46N 17.597 20.026 96.852 1.00
ATOM 1283 46CA 16.491 19.691 95.961 1.00
ATOM 1284 46C 15.850 20.939 95.343 1.00
ATOM 1285 46O 16.118 22.063 95.773 1.00
ATOM 1286 46CB 15.436 18.818 96.712 1.00
ATOM 1287 46CG1 14.083 18.878 96.012 1.00
ATOM 1288 46CG2 15.337 19.251 98.159 1.00
ATOM 1289 46CD1 13.999 18.011 94.765 1.00
ATOM 1290 47N 15.028 20.730 94.317 1.00
ATOM 1291 47CA 14.348 21.809 93.600 1.00
ATOM 1292 47C 13.199 22.459 94.366 1.00
ATOM 1293 47O 12.348 21.772 94.936 1.00
ATOM 1294 47CB 13.839 21.289 92.268 1.00
ATOM 1295 48N 13.170 23.792 94.349 1.00
ATOM 1296 48CA 12.131 24.532 95.047 1.00
ATOM 1297 48C 12.400 24.512 96.537 1.00
ATOM 1298 48O 12.124 25.466 97.271 1.00
ATOM 1299 49N 12.947 23.390 96.978 1.00
ATOM 1300 49CA 13.288 23.195 98.366 1.00
ATOM 1301 49C 14.620 23.887 98.627 1.00
ATOM 1302 49O 15.674 23.400 98.219 1.00
ATOM 1303 49CB 13.396 21.694 98.665 1.00
ATOM 1304 49CG 12.313 21.167 99.578 1.00
ATOM 1305 49CD1 10.992 21.088 99.151 1.00
ATOM 1306 49CD2 12.599 20.821 100.900 1.00
ATOM 1307 49CE1 9.976 20.688 100.021 1.00
ATOM 1308 49CE2 11.594 20.421 101.778 1.00
ATOM 1309 49CZ 10.285 20.359 101.334 1.00
ATOM 1310 49OH 9.289 19.989 102.208 1.00
ATOM 1311 50N 14.573 25.039 99.284 1.00
ATOM 1312 50CA 15.799 25.756 99.597 1.00
ATOM 1313 50C 16.294 25.319 100.966 1.00
ATOM 1314 50O 15.498 25.027 101.857 1.00
ATOM 1315 50CB 15.561 27.264 99.609 1.00
ATOM 1316 50OG 16.490 27.908 100.468 1.00
ATOM 1317 51N 17.609 25.270 101.134 1.00
ATOM 1318 51CA 18.171 24.873 102.414 1.00
ATOM 1319 51C 18.716 26.093 103.146 1.00
ATOM 1320 51O 19.361 26.966 102.554 1.00
ATOM 1321 51CB 19.288 23.790 102.241 1.00
ATOM 1322 51CG1 20.386 23.980 103.297 1.00
ATOM 1323 51CG2 19.840 23.831 100.824 1.00
ATOM 1324 51CD1 21.650 23.174 103.047 1.00
ATOM 1325 52N 18.415 26.155 104.437 1.00
ATOM 1326 52CA 18.863 27.241 105.293 1.00
ATOM 1327 52C 19.310 26.615 106.601 1.00
ATOM 1328 52O 18.698 25.665 107.082 1.00
ATOM 1329 52CB 17.731 28.236 105.543 1.00
ATOM 1330 52OG 17.984 29.462 104.877 1.00
ATOM 1331 53N 20.382 27.144 107.172 1.00
ATOM 1332 53CA 20.896 26.592 108.410 1.00
ATOM 1333 53C 21.426 27.651 109.348 1.00
ATOM 1334 53O 21.362 28.854 109.075 1.00
ATOM 1335 53CB 22.015 25.593 108.109 1.00
ATOM 1336 53CG 22.270 25.380 106.623 1.00
ATOM 1337 53CD 23.479 26.165 106.131 1.00
ATOM 1338 53CE 23.429 26.363 104.618 1.00
ATOM 1339 53NZ 22.720 27.625 104.247 1.00
ATOM 1340 54N 21.944 27.170 110.467 1.00
ATOM 1341 54CA 22.529 28.010 111.484 1.00
ATOM 1342 54C 23.049 27.090 112.565 1.00
ATOM 1343 54O 23.439 25.960 112.272 1.00
ATOM 1344 54CB 21.507 29.019 112.028 1.00
ATOM 1345 54CG 20.453 28.461 112.919 1.00
ATOM 1346 54CD1 20.312 28.684 114.259 1.00
ATOM 1347 54CD2 19.348 27.647 112.529 1.00
ATOM 1348 54NE1 19.184 28.059 114.727 1.00
ATOM 1349 54CE2 18.571 27.415 113.686 1.00
ATOM 1350 54CE3 18.934 27.089 111.312 1.00
ATOM 1351 54CZ2 17.404 26.650 113.663 1.00
ATOM 1352 54CZ3 17.774 26.329 111.287 1.00
ATOM 1353 54CH2 17.022 26.117 112.457 1.00
ATOM 1354 55N 23.054 27.562 113.807 1.00
ATOM 1355 55CA 23.570 26.759 114.900 1.00
ATOM 1356 55C 23.265 27.296 116.287 1.00
ATOM 1357 55O 23.038 28.494 116.495 1.00
ATOM 1358 55CB 25.084 26.628 114.765 1.00
ATOM 1359 55CG 25.846 27.832 115.302 1.00
ATOM 1360 55CD 26.100 28.881 114.243 1.00
ATOM 1361 55OE1 26.729 28.549 113.215 1.00
ATOM 1362 55OE2 25.666 30.038 114.440 1.00
ATOM 1363 56N 23.284 26.376 117.240 1.00
ATOM 1364 56CA 23.059 26.701 118.632 1.00
ATOM 1365 56C 24.381 26.378 119.308 1.00
ATOM 1366 56O 24.993 25.348 119.030 1.00
ATOM 1367 56CB 21.936 25.838 119.209 1.00
ATOM 1368 57N 24.839 27.273 120.171 1.00
ATOM 1369 57CA 26.086 27.048 120.880 1.00
ATOM 1370 57C 25.775 26.232 122.130 1.00
ATOM 1371 57O 24.821 26.524 122.858 1.00
ATOM 1372 57CB 26.724 28.387 121.246 1.00
ATOM 1373 57OG 26.473 29.350 120.234 1.00
ATOM 1374 58N 26.573 25.198 122.363 1.00
ATOM 1375 58CA 26.378 24.326 123.511 1.00
ATOM 1376 58C 26.319 25.075 124.826 1.00
ATOM 1377 58O 26.785 26.207 124.943 1.00
ATOM 1378 58CB 27.508 23.292 123.590 1.00
ATOM 1379 58OG 28.145 23.290 124.863 1.00
ATOM 1380 59N 25.711 24.433 125.811 1.00
ATOM 1381 59CA 25.632 24.979 127.151 1.00
ATOM 1382 59C 26.483 23.940 127.859 1.00
ATOM 1383 59O 26.553 22.787 127.422 1.00
ATOM 1384 59CB 24.200 24.955 127.675 1.00
ATOM 1385 59CG 23.229 24.368 126.673 1.00
ATOM 1386 59OD1 23.212 23.124 126.516 1.00
ATOM 1387 59OD2 22.488 25.152 126.042 1.00
ATOM 1388 60N 27.149 24.342 128.928 1.00
ATOM 1389 60CA 28.009 23.421 129.646 1.00
ATOM 1390 60C 27.317 22.088 129.862 1.00
ATOM 1391 60O 26.139 22.036 130.219 1.00
ATOM 1392 60CB 28.417 24.025 130.980 1.00
ATOM 1393 61N 28.053 21.010 129.625 1.00
ATOM 1394 61CA 27.522 19.669 129.821 1.00
ATOM 1395 61C 28.370 18.953 130.862 1.00
ATOM 1396 61O 29.571 19.203 130.982 1.00
ATOM 1397 61CB 27.553 18.850 128.521 1.00
ATOM 1398 61CG1 28.883 19.073 127.805 1.00
ATOM 1399 61CG2 26.396 19.247 127.629 1.00
ATOM 1400 61CD1 30.014 18.227 128.351 1.00
ATOM 1401 62N 27.741 18.066 131.618 1.00
ATOM 1402 62CA 28.451 17.318 132.642 1.00
ATOM 1403 62C 29.062 16.074 132.013 1.00
ATOM 1404 62O 28.912 15.839 130.814 1.00
ATOM 1405 62CB 27.499 16.903 133.777 1.00
ATOM 1406 62OG1 27.596 15.490 133.992 1.00
ATOM 1407 62CG2 26.057 17.271 133.425 1.00
ATOM 1408 63N 29.750 15.278 132.823 1.00
ATOM 1409 63CA 30.379 14.063 132.330 1.00
ATOM 1410 63C 29.365 12.950 132.079 1.00
ATOM 1411 63O 28.644 12.538 132.987 1.00
ATOM 1412 63CB 31.438 13.591 133.317 1.00
ATOM 1413 64N 29.318 12.477 130.835 1.00
ATOM 1414 64CA 28.427 11.394 130.420 1.00
ATOM 1415 64C 26.948 11.764 130.332 1.00
ATOM 1416 64O 26.148 11.032 129.745 1.00
ATOM 1417 64CB 28.604 10.190 131.349 1.00
ATOM 1418 64CG 29.651 9.190 130.867 1.00
ATOM 1419 64CD 31.012 9.460 131.491 1.00
ATOM 1420 64CE 32.139 8.881 130.645 1.00
ATOM 1421 64NZ 33.455 9.513 130.956 1.00
ATOM 1422 65N 26.579 12.895 130.914 1.00
ATOM 1423 65CA 25.193 13.329 130.866 1.00
ATOM 1424 65C 24.921 13.916 129.487 1.00
ATOM 1425 65O 25.857 14.255 128.756 1.00
ATOM 1426 65CB 24.936 14.368 131.941 1.00
ATOM 1427 66N 23.643 14.041 129.135 1.00
ATOM 1428 66CA 23.259 14.586 127.834 1.00
ATOM 1429 66C 22.206 15.701 127.917 1.00
ATOM 1430 66O 21.059 15.459 128.287 1.00
ATOM 1431 66CB 22.745 13.456 126.901 1.00
ATOM 1432 66OG1 21.328 13.574 126.718 1.00
ATOM 1433 66CG2 23.081 12.085 127.497 1.00
ATOM 1434 67N 22.609 16.923 127.573 1.00
ATOM 1435 67CA 21.710 18.076 127.598 1.00
ATOM 1436 67C 20.759 17.992 126.407 1.00
ATOM 1437 67O 20.733 16.985 125.703 1.00
ATOM 1438 67CB 22.511 19.381 127.508 1.00
ATOM 1439 67CG 23.044 19.840 128.855 1.00
ATOM 1440 67OD1 23.382 19.028 129.720 1.00
ATOM 1441 67ND2 23.124 21.153 129.037 1.00
ATOM 1442 68N 19.983 19.052 126.191 1.00
ATOM 1443 68CA 19.041 19.118 125.074 1.00
ATOM 1444 68C 18.482 20.521 124.978 1.00
ATOM 1445 68O 18.093 21.104 125.990 1.00
ATOM 1446 68CB 17.898 18.129 125.268 1.00
ATOM 1447 69N 18.453 21.069 123.766 1.00
ATOM 1448 69CA 17.915 22.411 123.562 1.00
ATOM 1449 69C 16.765 22.350 122.578 1.00
ATOM 1450 69O 16.836 21.653 121.569 1.00
ATOM 1451 69CB 18.988 23.379 123.034 1.00
ATOM 1452 69CG 20.114 22.723 122.247 1.00
ATOM 1453 69SD 21.463 22.100 123.289 1.00
ATOM 1454 69CE 22.913 22.814 122.459 1.00
ATOM 1455 70N 15.689 23.062 122.886 1.00
ATOM 1456 70CA 14.560 23.081 121.981 1.00
ATOM 1457 70C 15.185 23.630 120.715 1.00
ATOM 1458 70O 16.316 24.136 120.734 1.00
ATOM 1459 70CB 13.457 24.021 122.485 1.00
ATOM 1460 70OG 12.163 23.459 122.298 1.00
ATOM 1461 71N 14.468 23.528 119.611 1.00
ATOM 1462 71CA 15.025 24.029 118.383 1.00
ATOM 1463 71C 15.238 25.524 118.434 1.00
ATOM 1464 71O 14.314 26.335 118.561 1.00
ATOM 1465 71CB 14.169 23.678 117.194 1.00
ATOM 1466 71CG1 13.990 22.152 117.118 1.00
ATOM 1467 71CG2 14.817 24.248 115.942 1.00
ATOM 1468 71CD1 15.210 21.322 117.575 1.00
ATOM 1469 72N 16.504 25.865 118.332 1.00
ATOM 1470 72CA 16.949 27.233 118.372 1.00
ATOM 1471 72C 16.569 27.966 117.075 1.00
ATOM 1472 72O 17.321 28.812 116.591 1.00
ATOM 1473 72CB 18.474 27.215 118.584 1.00
ATOM 1474 72OG1 19.002 25.977 118.074 1.00
ATOM 1475 72CG2 18.805 27.292 120.081 1.00
ATOM 1476 73N 15.392 27.657 116.531 1.00
ATOM 1477 73CA 14.952 28.266 115.276 1.00
ATOM 1478 73C 15.328 29.732 115.131 1.00
ATOM 1479 73O 15.292 30.488 116.103 1.00
ATOM 1480 73CB 13.440 28.136 115.103 1.00
ATOM 1481 73CG 12.908 28.909 113.886 1.00
ATOM 1482 73CD1 11.946 28.043 113.062 1.00
ATOM 1483 73CD2 12.230 30.185 114.368 1.00
ATOM 1484 74N 15.687 30.157 113.901 1.00
ATOM 1485 74CA 16.068 31.546 113.643 1.00
ATOM 1486 74C 14.838 32.402 113.358 1.00
ATOM 1487 74O 13.908 31.957 112.684 1.00
ATOM 1488 74CB 16.972 31.431 112.424 1.00
ATOM 1489 74CG 16.344 30.339 111.630 1.00
ATOM 1490 74CD 15.764 29.358 112.661 1.00
ATOM 1491 75N 14.843 33.629 113.870 1.00
ATOM 1492 75CA 13.729 34.558 113.679 1.00
ATOM 1493 75C 13.441 34.813 112.197 1.00
ATOM 1494 75O 12.300 35.068 111.803 1.00
ATOM 1495 75CB 14.029 35.886 114.400 1.00
ATOM 1496 75CG 13.796 37.106 113.560 1.00
ATOM 1497 75ND1 12.655 37.873 113.662 1.00
ATOM 1498 75CD2 14.559 37.694 112.607 1.00
ATOM 1499 75CE1 12.724 38.878 112.806 1.00
ATOM 1500 75NE2 13.870 38.792 112.154 1.00
ATOM 1501 76N 14.486 34.747 111.384 1.00
ATOM 1502 76CA 14.358 34.973 109.953 1.00
ATOM 1503 76C 13.145 34.248 109.373 1.00
ATOM 1504 76O 12.486 34.742 108.460 1.00
ATOM 1505 76CB 15.638 34.513 109.253 1.00
ATOM 1506 76CG 16.916 35.079 109.878 1.00
ATOM 1507 76CD 17.432 34.248 111.047 1.00
ATOM 1508 76OE1 18.241 33.326 110.813 1.00
ATOM 1509 76OE2 17.033 34.520 112.202 1.00
ATOM 1510 77N 12.850 33.073 109.915 1.00
ATOM 1511 77CA 11.716 32.280 109.453 1.00
ATOM 1512 77C 10.827 31.923 110.640 1.00
ATOM 1513 77O 10.550 30.752 110.918 1.00
ATOM 1514 77CB 12.208 31.010 108.761 1.00
ATOM 1515 77CG 13.523 30.466 109.322 1.00
ATOM 1516 77CD1 13.273 29.132 110.005 1.00
ATOM 1517 77CD2 14.541 30.323 108.203 1.00
ATOM 1518 78N 10.394 32.954 111.350 1.00
ATOM 1519 78CA 9.530 32.765 112.495 1.00
ATOM 1520 78C 8.121 33.166 112.091 1.00
ATOM 1521 78O 7.147 32.740 112.712 1.00
ATOM 1522 78CB 10.006 33.622 113.673 1.00
ATOM 1523 78OG 10.849 32.878 114.540 1.00
ATOM 1524 79N 8.011 33.978 111.041 1.00
ATOM 1525 79CA 6.700 34.429 110.582 1.00
ATOM 1526 79C 5.791 33.237 110.392 1.00
ATOM 1527 79O 6.176 32.257 109.764 1.00
ATOM 1528 79CB 6.801 35.195 109.258 1.00
ATOM 1529 79OG 5.517 35.631 108.825 1.00
ATOM 1530 80N 4.588 33.318 110.943 1.00
ATOM 1531 80CA 3.649 32.224 110.801 1.00
ATOM 1532 80C 3.554 31.895 109.318 1.00
ATOM 1533 80O 3.298 30.753 108.937 1.00
ATOM 1534 80CB 2.279 32.624 111.353 1.00
ATOM 1535 80CG 2.141 32.447 112.859 1.00
ATOM 1536 80CD 2.326 31.004 113.312 1.00
ATOM 1537 80OE1 2.704 30.145 112.484 1.00
ATOM 1538 80OE2 2.092 30.726 114.506 1.00
ATOM 1539 81N 3.776 32.905 108.482 1.00
ATOM 1540 81CA 3.736 32.714 107.040 1.00
ATOM 1541 81C 4.687 31.558 106.675 1.00
ATOM 1542 81O 4.249 30.514 106.181 1.00
ATOM 1543 81CB 4.134 34.026 106.330 1.00
ATOM 1544 81CG 4.479 33.882 104.842 1.00
ATOM 1545 81CD 4.766 35.230 104.181 1.00
ATOM 1546 81CE 5.935 35.964 104.843 1.00
ATOM 1547 81NZ 7.235 35.782 104.123 1.00
ATOM 1548 82N 5.979 31.731 106.951 1.00
ATOM 1549 82CA 6.972 30.702 106.646 1.00
ATOM 1550 82C 7.123 29.663 107.761 1.00
ATOM 1551 82O 7.547 28.539 107.517 1.00
ATOM 1552 82CB 8.342 31.332 106.354 1.00
ATOM 1553 82CG 8.351 32.845 106.522 1.00
ATOM 1554 82OD1 8.161 33.588 105.553 1.00
ATOM 1555 82ND2 8.586 33.309 107.754 1.00
ATOM 1556 83N 6.788 30.036 108.987 1.00
ATOM 1557 83CA 6.887 29.103 110.106 1.00
ATOM 1558 83C 5.955 27.923 109.844 1.00
ATOM 1559 83O 6.151 26.820 110.362 1.00
ATOM 1560 83CB 6.486 29.800 111.401 1.00
ATOM 1561 83CG 7.245 29.322 112.611 1.00
ATOM 1562 83CD 6.777 30.045 113.863 1.00
ATOM 1563 83CE 5.267 29.959 114.039 1.00
ATOM 1564 83NZ 4.748 31.114 114.825 1.00
ATOM 1565 84N 4.928 28.177 109.040 1.00
ATOM 1566 84CA 3.961 27.150 108.679 1.00
ATOM 1567 84C 4.432 26.537 107.369 1.00
ATOM 1568 84O 3.681 26.472 106.398 1.00
ATOM 1569 84CB 2.555 27.756 108.515 1.00
ATOM 1570 84CG 1.405 26.735 108.493 1.00
ATOM 1571 84CD 1.122 26.092 109.856 1.00
ATOM 1572 84OE1 0.514 24.998 109.883 1.00
ATOM 1573 84OE2 1.498 26.674 110.900 1.00
ATOM 1574 85N 5.690 26.105 107.352 1.00
ATOM 1575 85CA 6.275 25.482 106.170 1.00
ATOM 1576 85C 6.550 24.010 106.434 1.00
ATOM 1577 85O 6.167 23.481 107.467 1.00
ATOM 1578 85CB 7.580 26.172 105.789 1.00
ATOM 1579 85CG 7.487 27.443 104.942 1.00
ATOM 1580 85CD1 8.814 27.640 104.229 1.00
ATOM 1581 85CD2 6.333 27.357 103.946 1.00
ATOM 1582 86N 7.220 23.356 105.492 1.00
ATOM 1583 86CA 7.546 21.939 105.607 1.00
ATOM 1584 86C 9.033 21.735 105.366 1.00
ATOM 1585 86O 9.722 22.643 104.904 1.00
ATOM 1586 86CB 6.744 21.130 104.590 1.00
ATOM 1587 86CG 6.325 21.932 103.370 1.00
ATOM 1588 86CD 7.520 22.592 102.692 1.00
ATOM 1589 86CE 7.513 24.095 102.904 1.00
ATOM 1590 86NZ 8.699 24.539 103.688 1.00
ATOM 1591 87N 9.523 20.535 105.654 1.00
ATOM 1592 87CA 10.943 20.247 105.499 1.00
ATOM 1593 87C 11.220 18.968 104.737 1.00
ATOM 1594 87O 10.370 18.476 104.005 1.00
ATOM 1595 87CB 11.598 20.097 106.864 1.00
ATOM 1596 87CG1 11.384 21.356 107.684 1.00
ATOM 1597 87CG2 10.997 18.890 107.574 1.00
ATOM 1598 88N 12.425 18.437 104.933 1.00
ATOM 1599 88CA 12.827 17.200 104.287 1.00
ATOM 1600 88C 14.109 16.657 104.888 1.00
ATOM 1601 88O 14.134 16.139 106.021 1.00
ATOM 1602 89N 15.182 16.765 104.113 1.00
ATOM 1603 89CA 16.490 16.315 104.552 1.00
ATOM 1604 89C 16.988 17.332 105.557 1.00
ATOM 1605 89O 16.736 18.534 105.431 1.00
ATOM 1606 89CB 17.471 16.247 103.381 1.00
ATOM 1607 89CG 17.128 15.214 102.329 1.00
ATOM 1608 89CD 16.685 15.885 101.035 1.00
ATOM 1609 89NE 17.785 16.064 100.089 1.00
ATOM 1610 89CZ 18.101 17.223 99.520 1.00
ATOM 1611 89NH1 17.403 18.319 99.795 1.00
ATOM 1612 89NH2 19.116 17.286 98.666 1.00
ATOM 1613 90N 17.707 16.845 106.556 1.00
ATOM 1614 90CA 18.225 17.721 107.581 1.00
ATOM 1615 90C 19.523 17.200 108.157 1.00
ATOM 1616 90O 19.587 16.117 108.752 1.00
ATOM 1617 90CB 17.191 17.906 108.675 1.00
ATOM 1618 90CG1 16.333 19.096 108.335 1.00
ATOM 1619 90CG2 16.314 16.656 108.773 1.00
ATOM 1620 91N 20.564 17.995 107.952 1.00
ATOM 1621 91CA 21.895 17.669 108.412 1.00
ATOM 1622 91C 22.122 18.183 109.819 1.00
ATOM 1623 91O 21.327 18.947 110.365 1.00
ATOM 1624 91CB 22.931 18.269 107.460 1.00
ATOM 1625 91CG 24.397 18.014 107.788 1.00
ATOM 1626 91CD1 24.611 16.525 108.061 1.00
ATOM 1627 91CD2 25.261 18.506 106.631 1.00
ATOM 1628 92N 23.229 17.756 110.398 1.00
ATOM 1629 92CA 23.568 18.141 111.741 1.00
ATOM 1630 92C 25.006 17.719 111.962 1.00
ATOM 1631 92O 25.322 16.535 112.029 1.00
ATOM 1632 92CB 22.630 17.428 112.724 1.00
ATOM 1633 92CG 22.785 17.531 114.250 1.00
ATOM 1634 92CD1 23.355 16.210 114.775 1.00
ATOM 1635 92CD2 23.672 18.721 114.643 1.00
ATOM 1636 93N 25.888 18.698 112.037 1.00
ATOM 1637 93CA 27.286 18.415 112.280 1.00
ATOM 1638 93C 27.693 19.373 113.380 1.00
ATOM 1639 93O 26.894 20.214 113.804 1.00
ATOM 1640 93CB 28.110 18.644 111.017 1.00
ATOM 1641 93CG 27.882 19.969 110.423 1.00
ATOM 1642 93CD1 26.851 20.343 109.608 1.00
ATOM 1643 93CD2 28.692 21.126 110.606 1.00
ATOM 1644 93NE1 26.972 21.668 109.271 1.00
ATOM 1645 93CE2 28.095 22.174 109.872 1.00
ATOM 1646 93CE3 29.869 21.380 111.324 1.00
ATOM 1647 93CZ2 28.638 23.461 109.833 1.00
ATOM 1648 93CZ3 30.410 22.660 111.285 1.00
ATOM 1649 93CH2 29.794 23.685 110.544 1.00
ATOM 1650 94N 28.930 19.260 113.844 1.00
ATOM 1651 94CA 29.359 20.121 114.927 1.00
ATOM 1652 94C 30.814 20.533 114.901 1.00
ATOM 1653 94O 31.681 19.835 114.358 1.00
ATOM 1654 94CB 29.059 19.454 116.273 1.00
ATOM 1655 94CG 28.198 18.187 116.308 1.00
ATOM 1656 94CD1 28.765 17.088 115.419 1.00
ATOM 1657 94CD2 28.143 17.703 117.733 1.00
ATOM 1658 95N 31.058 21.690 115.506 1.00
ATOM 1659 95CA 32.395 22.230 115.610 1.00
ATOM 1660 95C 32.776 22.237 117.079 1.00
ATOM 1661 95O 32.031 22.733 117.929 1.00
ATOM 1662 96N 33.937 21.674 117.382 1.00
ATOM 1663 96CA 34.410 21.610 118.752 1.00
ATOM 1664 96C 35.843 22.081 118.776 1.00
ATOM 1665 96O 36.587 21.870 117.818 1.00
ATOM 1666 96CB 34.332 20.176 119.258 1.00
ATOM 1667 96CG 34.056 19.162 118.145 1.00
ATOM 1668 96CD1 34.891 17.915 118.387 1.00
ATOM 1669 96CD2 32.566 18.829 118.091 1.00
ATOM 1670 97N 36.236 22.714 119.869 1.00
ATOM 1671 97CA 37.594 23.206 119.961 1.00
ATOM 1672 97C 38.603 22.081 119.826 1.00
ATOM 1673 97O 38.321 20.935 120.181 1.00
ATOM 1674 97CB 37.802 23.930 121.282 1.00
ATOM 1675 97CG 37.587 25.430 121.123 1.00
ATOM 1676 97CD1 36.202 25.771 121.642 1.00
ATOM 1677 97CD2 38.676 26.209 121.858 1.00
ATOM 1678 98N 39.799 22.397 119.305 1.00
ATOM 1679 98CA 40.860 21.403 119.124 1.00
ATOM 1680 98C 41.101 20.666 120.434 1.00
ATOM 1681 98O 41.433 19.480 120.453 1.00
ATOM 1682 98CB 42.074 22.239 118.704 1.00
ATOM 1683 98CG 41.714 23.663 119.054 1.00
ATOM 1684 98CD 40.234 23.738 118.882 1.00
ATOM 1685 99N 40.920 21.392 121.530 1.00
ATOM 1686 99CA 41.100 20.847 122.862 1.00
ATOM 1687 99C 39.885 20.006 123.246 1.00
ATOM 1688 99O 39.466 19.984 124.402 1.00
ATOM 1689 99CB 41.292 21.994 123.857 1.00
ATOM 1690 99OG 41.606 23.202 123.180 1.00
ATOM 1691 100N 39.324 19.317 122.257 1.00
ATOM 1692 100CA 38.159 18.467 122.463 1.00
ATOM 1693 100C 38.388 17.442 123.574 1.00
ATOM 1694 100O 39.295 16.609 123.498 1.00
ATOM 1695 100CB 37.792 17.723 121.161 1.00
ATOM 1696 100CG1 38.982 16.900 120.667 1.00
ATOM 1697 100CG2 36.586 16.834 121.400 1.00
ATOM 1698 101N 37.546 17.504 124.601 1.00
ATOM 1699 101CA 37.643 16.598 125.742 1.00
ATOM 1700 101C 37.065 15.211 125.460 1.00
ATOM 1701 101O 35.865 14.973 125.632 1.00
ATOM 1702 101CB 36.945 17.216 126.958 1.00
ATOM 1703 102N 37.926 14.295 125.031 1.00
ATOM 1704 102CA 37.478 12.946 124.752 1.00
ATOM 1705 102C 36.540 12.835 123.567 1.00
ATOM 1706 102O 36.906 13.189 122.444 1.00
ATOM 1707 103N 35.328 12.343 123.809 1.00
ATOM 1708 103CA 34.363 12.175 122.732 1.00
ATOM 1709 103C 32.933 12.485 123.147 1.00
ATOM 1710 103O 32.591 12.432 124.328 1.00
ATOM 1711 103CB 34.454 10.749 122.168 1.00
ATOM 1712 103CG 33.340 9.801 122.607 1.00
ATOM 1713 103CD 32.552 9.292 121.406 1.00
ATOM 1714 103NE 32.759 7.867 121.166 1.00
ATOM 1715 103CZ 32.024 7.131 120.336 1.00
ATOM 1716 103NH1 31.027 7.685 119.659 1.00
ATOM 1717 103NH2 32.288 5.839 120.181 1.00
ATOM 1718 104N 32.109 12.801 122.149 1.00
ATOM 1719 104CA 30.702 13.135 122.347 1.00
ATOM 1720 104C 29.818 12.731 121.156 1.00
ATOM 1721 104O 30.256 12.735 120.000 1.00
ATOM 1722 104CB 30.517 14.663 122.605 1.00
ATOM 1723 104CG1 29.394 15.231 121.722 1.00
ATOM 1724 104CG2 31.828 15.399 122.374 1.00
ATOM 1725 104CD1 29.813 15.599 120.301 1.00
ATOM 1726 105N 28.565 12.402 121.460 1.00
ATOM 1727 105CA 27.584 12.009 120.455 1.00
ATOM 1728 105C 26.434 13.013 120.488 1.00
ATOM 1729 105O 26.180 13.631 121.522 1.00
ATOM 1730 105CB 27.054 10.605 120.759 1.00
ATOM 1731 105CG 28.119 9.510 120.763 1.00
ATOM 1732 105CD 27.925 8.552 121.939 1.00
ATOM 1733 105CE 28.182 7.099 121.541 1.00
ATOM 1734 105NZ 27.710 6.123 122.574 1.00
ATOM 1735 106N 25.741 13.171 119.361 1.00
ATOM 1736 106CA 24.623 14.113 119.273 1.00
ATOM 1737 106C 23.522 13.655 118.317 1.00
ATOM 1738 106O 23.767 12.863 117.408 1.00
ATOM 1739 106CB 25.135 15.478 118.844 1.00
ATOM 1740 107N 22.312 14.172 118.516 1.00
ATOM 1741 107CA 21.177 13.810 117.672 1.00
ATOM 1742 107C 19.931 14.651 117.948 1.00
ATOM 1743 107O 20.002 15.717 118.568 1.00
ATOM 1744 107CB 20.827 12.338 117.877 1.00
ATOM 1745 107SG 19.898 12.043 119.399 1.00
ATOM 1746 108N 18.784 14.156 117.486 1.00
ATOM 1747 108CA 17.519 14.854 117.685 1.00
ATOM 1748 108C 16.272 13.979 117.525 1.00
ATOM 1749 108O 16.155 13.197 116.565 1.00
ATOM 1750 108CB 17.385 16.038 116.724 1.00
ATOM 1751 108CG1 18.305 15.846 115.527 1.00
ATOM 1752 108CG2 15.940 16.168 116.279 1.00
ATOM 1753 109N 15.342 14.157 118.467 1.00
ATOM 1754 109CA 14.077 13.425 118.496 1.00
ATOM 1755 109C 12.936 14.273 119.042 1.00
ATOM 1756 109O 13.126 15.429 119.443 1.00
ATOM 1757 109CB 14.213 12.165 119.336 1.00
ATOM 1758 110N 11.753 13.668 119.067 1.00
ATOM 1759 110CA 10.543 14.334 119.534 1.00
ATOM 1760 110C 10.560 14.633 121.028 1.00
ATOM 1761 110O 10.376 13.724 121.844 1.00
ATOM 1762 110CB 9.320 13.476 119.190 1.00
ATOM 1763 110CG 8.114 14.268 118.678 1.00
ATOM 1764 110CD 7.991 14.267 117.156 1.00
ATOM 1765 110OE1 8.257 13.223 116.519 1.00
ATOM 1766 110OE2 7.624 15.319 116.595 1.00
ATOM 1767 111N 10.765 15.911 121.364 1.00
ATOM 1768 111CA 10.817 16.379 122.750 1.00
ATOM 1769 111C 10.879 15.181 123.689 1.00
ATOM 1770 111O 9.991 14.967 124.514 1.00
ATOM 1771 111CB 9.590 17.247 123.068 1.00
ATOM 1772 111CG 9.789 18.730 122.803 1.00
ATOM 1773 111CD 8.538 19.525 123.145 1.00
ATOM 1774 111CE 8.887 20.935 123.593 1.00
ATOM 1775 111NZ 9.015 21.032 125.073 1.00
ATOM 1776 112N 11.941 14.397 123.530 1.00
ATOM 1777 112CA 12.163 13.191 124.313 1.00
ATOM 1778 112C 11.896 13.354 125.800 1.00
ATOM 1779 112O 12.513 14.188 126.466 1.00
ATOM 1780 112CB 13.596 12.698 124.109 1.00
ATOM 1781 112CG 13.679 11.378 123.382 1.00
ATOM 1782 112CD 12.357 10.646 123.372 1.00
ATOM 1783 112OE1 12.029 9.928 124.318 1.00
ATOM 1784 112NE2 11.585 10.826 122.303 1.00
ATOM 1785 113N 10.972 12.546 126.313 1.00
ATOM 1786 113CA 10.625 12.578 127.729 1.00
ATOM 1787 113C 11.913 12.382 128.514 1.00
ATOM 1788 113O 12.259 13.172 129.398 1.00
ATOM 1789 113CB 9.641 11.462 128.047 1.00
ATOM 1790 114N 12.619 11.312 128.182 1.00
ATOM 1791 114CA 13.882 11.029 128.823 1.00
ATOM 1792 114C 14.957 11.588 127.899 1.00
ATOM 1793 114O 14.901 11.404 126.681 1.00
ATOM 1794 114CB 14.058 9.522 129.018 1.00
ATOM 1795 114CG 14.634 9.160 130.369 1.00
ATOM 1796 114CD 15.340 10.333 131.014 1.00
ATOM 1797 114OE1 14.704 11.213 131.595 1.00
ATOM 1798 114NE2 16.663 10.355 130.908 1.00
ATOM 1799 115N 15.922 12.288 128.482 1.00
ATOM 1800 115CA 17.004 12.900 127.719 1.00
ATOM 1801 115C 17.817 11.907 126.891 1.00
ATOM 1802 115O 17.874 12.005 125.663 1.00
ATOM 1803 115CB 17.921 13.658 128.663 1.00
ATOM 1804 116N 18.454 10.962 127.576 1.00
ATOM 1805 116CA 19.278 9.947 126.927 1.00
ATOM 1806 116C 18.451 9.047 126.021 1.00
ATOM 1807 116O 18.993 8.362 125.156 1.00
ATOM 1808 116CB 19.969 9.083 127.981 1.00
ATOM 1809 116CG 21.214 9.700 128.577 1.00
ATOM 1810 116CD 20.893 10.682 129.682 1.00
ATOM 1811 116OE1 19.750 10.651 130.186 1.00
ATOM 1812 116OE2 21.781 11.482 130.041 1.00
ATOM 1813 117N 17.138 9.053 126.235 1.00
ATOM 1814 117CA 16.205 8.230 125.464 1.00
ATOM 1815 117C 16.228 8.560 123.986 1.00
ATOM 1816 117O 15.845 7.738 123.147 1.00
ATOM 1817 117CB 14.787 8.407 126.004 1.00
ATOM 1818 118N 16.668 9.772 123.673 1.00
ATOM 1819 118CA 16.738 10.221 122.293 1.00
ATOM 1820 118C 17.719 9.374 121.484 1.00
ATOM 1821 118O 17.425 8.972 120.360 1.00
ATOM 1822 118CB 17.145 11.690 122.248 1.00
ATOM 1823 119N 18.878 9.095 122.068 1.00
ATOM 1824 119CA 19.915 8.313 121.400 1.00
ATOM 1825 119C 19.484 6.874 121.134 1.00
ATOM 1826 119O 20.075 6.172 120.305 1.00
ATOM 1827 119CB 21.198 8.344 122.240 1.00
ATOM 1828 119CG 21.745 9.729 122.441 1.00
ATOM 1829 119CD1 21.415 10.464 123.577 1.00
ATOM 1830 119CD2 22.549 10.320 121.468 1.00
ATOM 1831 119CE1 21.872 11.773 123.738 1.00
ATOM 1832 119CE2 23.011 11.622 121.616 1.00
ATOM 1833 119CZ 22.672 12.352 122.752 1.00
ATOM 1834 120N 18.443 6.446 121.834 1.00
ATOM 1835 120CA 17.939 5.097 121.673 1.00
ATOM 1836 120C 16.929 5.047 120.546 1.00
ATOM 1837 120O 16.203 4.067 120.416 1.00
ATOM 1838 120CB 17.258 4.618 122.961 1.00
ATOM 1839 120CG 18.054 4.851 124.234 1.00
ATOM 1840 120CD 17.573 3.994 125.393 1.00
ATOM 1841 120OE1 18.378 3.477 126.172 1.00
ATOM 1842 120NE2 16.254 3.842 125.515 1.00
ATOM 1843 121N 16.877 6.076 119.711 1.00
ATOM 1844 121CA 15.870 6.033 118.670 1.00
ATOM 1845 121C 15.975 7.007 117.489 1.00
ATOM 1846 121O 15.053 7.085 116.686 1.00
ATOM 1847 121CB 14.465 6.146 119.346 1.00
ATOM 1848 121CG1 14.299 7.516 119.981 1.00
ATOM 1849 121CG2 13.357 5.848 118.351 1.00
ATOM 1850 122N 17.078 7.737 117.351 1.00
ATOM 1851 122CA 17.191 8.664 116.218 1.00
ATOM 1852 122C 17.724 7.929 114.991 1.00
ATOM 1853 122O 18.472 6.964 115.130 1.00
ATOM 1854 122CB 18.109 9.835 116.569 1.00
ATOM 1855 123N 17.341 8.377 113.795 1.00
ATOM 1856 123CA 17.806 7.729 112.565 1.00
ATOM 1857 123C 19.317 7.924 112.348 1.00
ATOM 1858 123O 20.000 7.036 111.818 1.00
ATOM 1859 123CB 16.966 8.220 111.351 1.00
ATOM 1860 123CG 17.315 9.123 110.141 1.00
ATOM 1861 123CD1 18.331 10.167 110.527 1.00
ATOM 1862 123CD2 17.812 8.287 108.961 1.00
ATOM 1863 124N 19.834 9.070 112.792 1.00
ATOM 1864 124CA 21.255 9.396 112.656 1.00
ATOM 1865 124C 21.821 9.990 113.938 1.00
ATOM 1866 124O 21.082 10.363 114.850 1.00
ATOM 1867 124CB 21.466 10.374 111.503 1.00
ATOM 1868 125N 23.145 10.085 113.996 1.00
ATOM 1869 125CA 23.814 10.634 115.165 1.00
ATOM 1870 125C 25.294 10.919 114.908 1.00
ATOM 1871 125O 26.092 10.007 114.655 1.00
ATOM 1872 125CB 23.674 9.681 116.375 1.00
ATOM 1873 125CG1 23.853 8.246 115.924 1.00
ATOM 1874 125CG2 24.692 10.038 117.445 1.00
ATOM 1875 126N 25.643 12.199 114.968 1.00
ATOM 1876 126CA 27.015 12.625 114.767 1.00
ATOM 1877 126C 27.829 12.152 115.965 1.00
ATOM 1878 126O 27.345 12.138 117.096 1.00
ATOM 1879 126CB 27.079 14.145 114.647 1.00
ATOM 1880 127N 29.066 11.752 115.713 1.00
ATOM 1881 127CA 29.935 11.290 116.779 1.00
ATOM 1882 127C 31.340 11.824 116.501 1.00
ATOM 1883 127O 31.686 12.107 115.349 1.00
ATOM 1884 127CB 29.904 9.758 116.838 1.00
ATOM 1885 127CG 31.260 9.157 117.133 1.00
ATOM 1886 127OD1 31.702 8.287 116.352 1.00
ATOM 1887 127OD2 31.883 9.548 118.144 1.00
ATOM 1888 128N 32.131 11.978 117.561 1.00
ATOM 1889 128CA 33.492 12.503 117.454 1.00
ATOM 1890 128C 34.530 11.451 117.101 1.00
ATOM 1891 128O 35.698 11.771 116.874 1.00
ATOM 1892 128CB 33.892 13.177 118.764 1.00
ATOM 1893 128OG 32.852 13.064 119.712 1.00
ATOM 1894 129N 34.108 10.195 117.069 1.00
ATOM 1895 129CA 35.016 9.116 116.735 1.00
ATOM 1896 129C 34.782 8.712 115.289 1.00
ATOM 1897 129O 35.352 7.735 114.806 1.00
ATOM 1898 129CB 34.782 7.929 117.667 1.00
ATOM 1899 129OG 35.018 8.307 119.012 1.00
ATOM 1900 130N 33.940 9.478 114.604 1.00
ATOM 1901 130CA 33.624 9.217 113.206 1.00
ATOM 1902 130C 34.460 10.141 112.331 1.00
ATOM 1903 130O 34.704 11.292 112.694 1.00
ATOM 1904 130CB 32.134 9.472 112.942 1.00
ATOM 1905 130CG 31.300 8.221 112.661 1.00
ATOM 1906 130CD 30.058 8.554 111.831 1.00
ATOM 1907 130CE 29.095 9.478 112.579 1.00
ATOM 1908 130NZ 29.231 10.921 112.187 1.00
ATOM 1909 131N 34.907 9.632 111.186 1.00
ATOM 1910 131CA 35.706 10.423 110.252 1.00
ATOM 1911 131C 34.937 11.717 109.988 1.00
ATOM 1912 131O 35.487 12.827 110.042 1.00
ATOM 1913 131CB 35.897 9.643 108.940 1.00
ATOM 1914 131CG 37.071 10.104 108.060 1.00
ATOM 1915 131CD 37.082 9.448 106.674 1.00
ATOM 1916 131OE1 36.039 8.902 106.247 1.00
ATOM 1917 131OE2 38.140 9.480 106.009 1.00
ATOM 1918 132N 33.650 11.553 109.710 1.00
ATOM 1919 132CA 32.768 12.671 109.439 1.00
ATOM 1920 132C 31.842 12.823 110.639 1.00
ATOM 1921 132O 30.905 12.050 110.825 1.00
ATOM 1922 132CB 31.947 12.412 108.160 1.00
ATOM 1923 132CG1 31.255 11.055 108.255 1.00
ATOM 1924 132CG2 30.954 13.539 107.936 1.00
ATOM 1925 133N 32.126 13.817 111.465 1.00
ATOM 1926 133CA 31.322 14.053 112.649 1.00
ATOM 1927 133C 30.074 14.840 112.277 1.00
ATOM 1928 133O 30.042 16.073 112.376 1.00
ATOM 1929 133CB 32.122 14.834 113.679 1.00
ATOM 1930 133CG1 32.735 16.074 113.022 1.00
ATOM 1931 133CG2 31.233 15.194 114.846 1.00
ATOM 1932 134N 29.050 14.112 111.843 1.00
ATOM 1933 134CA 27.788 14.715 111.432 1.00
ATOM 1934 134C 26.717 13.652 111.273 1.00
ATOM 1935 134O 27.021 12.472 111.093 1.00
ATOM 1936 134CB 27.966 15.461 110.125 1.00
ATOM 1937 135N 25.463 14.091 111.325 1.00
ATOM 1938 135CA 24.313 13.200 111.211 1.00
ATOM 1939 135C 23.328 13.672 110.152 1.00
ATOM 1940 135O 22.919 14.831 110.136 1.00
ATOM 1941 135CB 23.602 13.089 112.561 1.00
ATOM 1942 136N 22.937 12.751 109.279 1.00
ATOM 1943 136CA 22.001 13.059 108.209 1.00
ATOM 1944 136C 20.609 12.491 108.470 1.00
ATOM 1945 136O 20.404 11.276 108.453 1.00
ATOM 1946 136CB 22.531 12.517 106.876 1.00
ATOM 1947 136CG 21.816 13.076 105.652 1.00
ATOM 1948 136SD 21.222 14.770 105.898 1.00
ATOM 1949 136CE 19.444 14.515 105.915 1.00
ATOM 1950 137N 19.651 13.378 108.708 1.00
ATOM 1951 137CA 18.290 12.947 108.950 1.00
ATOM 1952 137C 17.519 12.971 107.630 1.00
ATOM 1953 137O 16.642 13.809 107.365 1.00
ATOM 1954 137CB 17.671 13.826 110.023 1.00
ATOM 1955 137CG 18.409 13.710 111.346 1.00
ATOM 1956 137CD1 19.643 14.343 111.539 1.00
ATOM 1957 137CD2 17.877 12.964 112.407 1.00
ATOM 1958 137CE1 20.329 14.238 112.756 1.00
ATOM 1959 137CE2 18.552 12.851 113.631 1.00
ATOM 1960 137CZ 19.774 13.491 113.794 1.00
ATOM 1961 137OH 20.439 13.388 114.994 1.00
ATOM 1962 138N 17.916 12.014 106.802 1.00
ATOM 1963 138CA 17.390 11.778 105.472 1.00
ATOM 1964 138C 15.891 11.568 105.471 1.00
ATOM 1965 138O 15.412 10.525 105.914 1.00
ATOM 1966 138CB 18.034 10.519 104.878 1.00
ATOM 1967 138OG1 18.113 9.508 105.895 1.00
ATOM 1968 138CG2 19.436 10.820 104.369 1.00
ATOM 1969 139N 15.156 12.559 104.984 1.00
ATOM 1970 139CA 13.700 12.465 104.891 1.00
ATOM 1971 139C 12.944 12.139 106.179 1.00
ATOM 1972 139O 11.729 12.314 106.244 1.00
ATOM 1973 139CB 13.323 11.425 103.831 1.00
ATOM 1974 139CG 13.017 10.064 104.431 1.00
ATOM 1975 139OD1 13.919 9.199 104.431 1.00
ATOM 1976 139OD2 11.877 9.861 104.902 1.00
ATOM 1977 140N 13.652 11.655 107.190 1.00
ATOM 1978 140CA 13.032 11.286 108.458 1.00
ATOM 1979 140C 12.064 12.350 109.019 1.00
ATOM 1980 140O 11.269 12.078 109.934 1.00
ATOM 1981 140CB 14.130 10.967 109.475 1.00
ATOM 1982 141N 12.116 13.556 108.463 1.00
ATOM 1983 141CA 11.250 14.632 108.929 1.00
ATOM 1984 141C 10.517 15.282 107.786 1.00
ATOM 1985 141O 9.811 16.276 107.964 1.00
ATOM 1986 141CB 12.082 15.664 109.649 1.00
ATOM 1987 141CG 12.774 15.120 110.852 1.00
ATOM 1988 141CD1 14.152 14.936 110.854 1.00
ATOM 1989 141CD2 12.050 14.800 111.997 1.00
ATOM 1990 141CE1 14.804 14.442 111.985 1.00
ATOM 1991 141CE2 12.691 14.307 113.133 1.00
ATOM 1992 141CZ 14.074 14.128 113.128 1.00
ATOM 1993 142N 10.702 14.704 106.610 1.00
ATOM 1994 142CA 10.065 15.186 105.405 1.00
ATOM 1995 142C 8.593 15.474 105.671 1.00
ATOM 1996 142O 7.904 14.683 106.316 1.00
ATOM 1997 142CB 10.199 14.134 104.301 1.00
ATOM 1998 142CG 10.065 14.682 102.890 1.00
ATOM 1999 142CD 11.417 15.042 102.299 1.00
ATOM 2000 142NE 12.020 13.915 101.599 1.00
ATOM 2001 142CZ 13.293 13.563 101.717 1.00
ATOM 2002 142NH1 14.104 14.252 102.508 1.00
ATOM 2003 142NH2 13.754 12.514 101.049 1.00
ATOM 2004 143N 8.130 16.623 105.189 1.00
ATOM 2005 143CA 6.736 17.004 105.337 1.00
ATOM 2006 143C 6.304 17.447 106.714 1.00
ATOM 2007 143O 5.178 17.178 107.134 1.00
ATOM 2008 144N 7.190 18.133 107.420 1.00
ATOM 2009 144CA 6.858 18.597 108.751 1.00
ATOM 2010 144C 6.917 20.116 108.824 1.00
ATOM 2011 144O 7.840 20.740 108.294 1.00
ATOM 2012 144CB 7.802 17.975 109.760 1.00
ATOM 2013 145N 5.921 20.706 109.479 1.00
ATOM 2014 145CA 5.854 22.154 109.618 1.00
ATOM 2015 145C 7.179 22.716 110.116 1.00
ATOM 2016 145O 7.828 22.152 110.995 1.00
ATOM 2017 145CB 4.712 22.592 110.584 1.00
ATOM 2018 145OG1 3.442 22.270 110.001 1.00
ATOM 2019 145CG2 4.764 24.096 110.851 1.00
ATOM 2020 146N 7.591 23.824 109.526 1.00
ATOM 2021 146CA 8.816 24.460 109.938 1.00
ATOM 2022 146C 8.669 24.818 111.402 1.00
ATOM 2023 146O 9.646 24.944 112.132 1.00
ATOM 2024 146CB 9.034 25.725 109.129 1.00
ATOM 2025 146CG 10.449 25.846 108.590 1.00
ATOM 2026 146CD1 10.976 24.453 108.244 1.00
ATOM 2027 146CD2 10.443 26.765 107.377 1.00
ATOM 2028 147N 7.427 25.013 111.821 1.00
ATOM 2029 147CA 7.179 25.335 113.207 1.00
ATOM 2030 147C 7.237 24.028 113.957 1.00
ATOM 2031 147O 7.766 23.947 115.063 1.00
ATOM 2032 148N 6.705 22.994 113.315 1.00
ATOM 2033 148CA 6.654 21.653 113.876 1.00
ATOM 2034 148C 7.966 21.228 114.525 1.00
ATOM 2035 148O 8.007 20.252 115.273 1.00
ATOM 2036 148CB 6.273 20.647 112.786 1.00
ATOM 2037 148CG 4.777 20.350 112.753 1.00
ATOM 2038 148OD1 3.969 21.231 113.133 1.00
ATOM 2039 148OD2 4.413 19.227 112.340 1.00
ATOM 2040 149N 9.034 21.964 114.260 1.00
ATOM 2041 149CA 10.324 21.606 114.826 1.00
ATOM 2042 149C 10.503 21.999 116.288 1.00
ATOM 2043 149O 10.950 21.200 117.093 1.00
ATOM 2044 149CB 11.445 22.207 113.978 1.00
ATOM 2045 149CG 10.968 22.735 112.624 1.00
ATOM 2046 149CD1 12.106 23.424 111.919 1.00
ATOM 2047 149CD2 10.432 21.610 111.773 1.00
ATOM 2048 150N 10.142 23.221 116.641 1.00
ATOM 2049 150CA 10.309 23.673 118.015 1.00
ATOM 2050 150C 9.863 22.675 119.099 1.00
ATOM 2051 150O 10.328 22.748 120.245 1.00
ATOM 2052 150CB 9.601 25.016 118.196 1.00
ATOM 2053 150CG 10.185 26.189 117.395 1.00
ATOM 2054 150CD1 11.649 26.400 117.769 1.00
ATOM 2055 150CD2 10.039 25.924 115.902 1.00
ATOM 2056 151N 8.965 21.753 118.751 1.00
ATOM 2057 151CA 8.516 20.747 119.712 1.00
ATOM 2058 151C 9.452 19.559 119.564 1.00
ATOM 2059 151O 9.097 18.413 119.848 1.00
ATOM 2060 151CB 7.071 20.305 119.457 1.00
ATOM 2061 151CG 6.561 20.701 118.089 1.00
ATOM 2062 151OD1 7.175 21.497 117.384 1.00
ATOM 2063 151ND2 5.420 20.142 117.707 1.00
ATOM 2064 152N 10.652 19.875 119.090 1.00
ATOM 2065 152CA 11.734 18.923 118.883 1.00
ATOM 2066 152C 12.844 19.401 119.790 1.00
ATOM 2067 152O 12.761 20.480 120.379 1.00
ATOM 2068 152CB 12.255 18.984 117.445 1.00
ATOM 2069 152CG 11.893 17.890 116.447 1.00
ATOM 2070 152CD1 12.592 16.609 116.842 1.00
ATOM 2071 152CD2 10.386 17.705 116.411 1.00
ATOM 2072 153N 13.893 18.608 119.895 1.00
ATOM 2073 153CA 15.015 19.002 120.715 1.00
ATOM 2074 153C 16.251 18.389 120.106 1.00
ATOM 2075 153O 16.166 17.490 119.270 1.00
ATOM 2076 153CB 14.840 18.527 122.161 1.00
ATOM 2077 153CG 14.573 19.647 123.154 1.00
ATOM 2078 153CD 13.311 19.412 123.970 1.00
ATOM 2079 153OE1 12.274 20.053 123.752 1.00
ATOM 2080 153NE2 13.393 18.485 124.917 1.00
ATOM 2081 154N 17.397 18.904 120.524 1.00
ATOM 2082 154CA 18.682 18.433 120.047 1.00
ATOM 2083 154C 19.386 17.906 121.283 1.00
ATOM 2084 154O 19.499 18.618 122.281 1.00
ATOM 2085 154CB 19.489 19.593 119.433 1.00
ATOM 2086 154CG1 18.535 20.640 118.835 1.00
ATOM 2087 154CG2 20.414 19.056 118.366 1.00
ATOM 2088 154CD1 19.004 22.094 118.969 1.00
ATOM 2089 155N 19.851 16.664 121.220 1.00
ATOM 2090 155CA 20.506 16.044 122.370 1.00
ATOM 2091 155C 21.995 15.778 122.166 1.00
ATOM 2092 155O 22.387 15.190 121.161 1.00
ATOM 2093 155CB 19.767 14.748 122.721 1.00
ATOM 2094 155CG 18.258 14.921 122.755 1.00
ATOM 2095 155CD1 17.511 14.961 121.575 1.00
ATOM 2096 155CD2 17.581 15.082 123.968 1.00
ATOM 2097 155CE1 16.129 15.159 121.604 1.00
ATOM 2098 155CE2 16.198 15.282 124.006 1.00
ATOM 2099 155CZ 15.482 15.319 122.822 1.00
ATOM 2100 155OH 14.123 15.527 122.852 1.00
ATOM 2101 156N 22.812 16.205 123.133 1.00
ATOM 2102 156CA 24.274 16.044 123.075 1.00
ATOM 2103 156C 24.860 15.456 124.361 1.00
ATOM 2104 156O 24.620 15.972 125.452 1.00
ATOM 2105 156CB 24.936 17.398 122.809 1.00
ATOM 2106 156CG 24.443 18.523 123.732 1.00
ATOM 2107 156CD1 25.483 19.629 123.795 1.00
ATOM 2108 156CD2 23.110 19.073 123.234 1.00
ATOM 2109 157N 25.641 14.385 124.228 1.00
ATOM 2110 157CA 26.255 13.737 125.387 1.00
ATOM 2111 157C 27.770 13.851 125.292 1.00
ATOM 2112 157O 28.312 13.880 124.191 1.00
ATOM 2113 157CB 25.846 12.258 125.444 1.00
ATOM 2114 157CG 26.982 11.309 125.769 1.00
ATOM 2115 157CD1 27.163 10.818 127.065 1.00
ATOM 2116 157CD2 27.888 10.913 124.783 1.00
ATOM 2117 157CE1 28.222 9.956 127.368 1.00
ATOM 2118 157CE2 28.947 10.055 125.075 1.00
ATOM 2119 157CZ 29.109 9.581 126.366 1.00
ATOM 2120 157OH 30.152 8.728 126.640 1.00
ATOM 2121 158N 28.450 13.899 126.439 1.00
ATOM 2122 158CA 29.911 14.003 126.448 1.00
ATOM 2123 158C 30.597 12.989 127.356 1.00
ATOM 2124 158O 30.090 12.652 128.424 1.00
ATOM 2125 158CB 30.333 15.405 126.858 1.00
ATOM 2126 159N 31.756 12.505 126.922 1.00
ATOM 2127 159CA 32.513 11.555 127.720 1.00
ATOM 2128 159C 32.733 12.212 129.081 1.00
ATOM 2129 159O 32.068 11.861 130.054 1.00
ATOM 2130 159CB 33.854 11.245 127.046 1.00
ATOM 2131 159OG 33.665 10.522 125.841 1.00
ATOM 2132 160N 33.650 13.177 129.144 1.00
ATOM 2133 160CA 33.921 13.887 130.393 1.00
ATOM 2134 160C 33.250 15.247 130.365 1.00
ATOM 2135 160O 33.077 15.847 129.300 1.00
ATOM 2136 160CB 35.424 14.083 130.612 1.00
ATOM 2137 160CG 36.213 14.300 129.342 1.00
ATOM 2138 160CD 36.717 12.997 128.758 1.00
ATOM 2139 160OE1 36.415 12.716 127.579 1.00
ATOM 2140 160OE2 37.412 12.251 129.481 1.00
ATOM 2141 161N 32.876 15.727 131.544 1.00
ATOM 2142 161CA 32.218 17.017 131.669 1.00
ATOM 2143 161C 32.920 18.035 130.785 1.00
ATOM 2144 161O 34.030 17.796 130.293 1.00
ATOM 2145 161CB 32.230 17.478 133.123 1.00
ATOM 2146 162N 32.275 19.179 130.596 1.00
ATOM 2147 162CA 32.844 20.203 129.746 1.00
ATOM 2148 162C 32.042 21.509 129.778 1.00
ATOM 2149 162O 30.871 21.521 130.162 1.00
ATOM 2150 162CB 32.939 19.658 128.310 1.00
ATOM 2151 162CG1 32.217 20.580 127.339 1.00
ATOM 2152 162CG2 34.400 19.458 127.939 1.00
ATOM 2153 163N 32.671 22.627 129.370 1.00
ATOM 2154 163CA 32.033 23.946 129.347 1.00
ATOM 2155 163C 30.919 24.123 128.331 1.00
ATOM 2156 163O 30.547 23.201 127.605 1.00
ATOM 2157 163CB 33.187 24.897 129.049 1.00
ATOM 2158 163CG 34.130 24.065 128.264 1.00
ATOM 2159 163CD 34.068 22.704 128.907 1.00
ATOM 2160 164N 30.395 25.341 128.305 1.00
ATOM 2161 164CA 29.336 25.709 127.387 1.00
ATOM 2162 164C 30.037 26.386 126.230 1.00
ATOM 2163 164O 31.231 26.686 126.324 1.00
ATOM 2164 164CB 28.370 26.674 128.053 1.00
ATOM 2165 165N 29.297 26.629 125.149 1.00
ATOM 2166 165CA 29.850 27.265 123.958 1.00
ATOM 2167 165C 31.038 26.428 123.521 1.00
ATOM 2168 165O 31.636 26.668 122.472 1.00
ATOM 2169 165CB 30.310 28.694 124.273 1.00
ATOM 2170 165CG 29.628 29.780 123.444 1.00
ATOM 2171 165CD 30.029 31.178 123.919 1.00
ATOM 2172 165CE 28.856 32.152 123.868 1.00
ATOM 2173 165NZ 29.124 33.400 124.640 1.00
ATOM 2174 166N 31.358 25.441 124.355 1.00
ATOM 2175 166CA 32.457 24.518 124.142 1.00
ATOM 2176 166C 32.279 23.826 122.797 1.00
ATOM 2177 166O 33.250 23.426 122.144 1.00
ATOM 2178 166CB 32.482 23.495 125.270 1.00
ATOM 2179 167N 31.025 23.688 122.390 1.00
ATOM 2180 167CA 30.713 23.070 121.116 1.00
ATOM 2181 167C 29.532 23.742 120.447 1.00
ATOM 2182 167O 28.615 24.254 121.100 1.00
ATOM 2183 167CB 30.401 21.569 121.270 1.00
ATOM 2184 167CG1 28.978 21.255 120.787 1.00
ATOM 2185 167CG2 31.398 20.771 120.468 1.00
ATOM 2186 168N 29.568 23.739 119.128 1.00
ATOM 2187 168CA 28.496 24.321 118.365 1.00
ATOM 2188 168C 27.917 23.224 117.497 1.00
ATOM 2189 168O 28.642 22.417 116.916 1.00
ATOM 2190 168CB 28.999 25.474 117.493 1.00
ATOM 2191 168CG1 30.006 24.960 116.480 1.00
ATOM 2192 168CG2 27.826 26.136 116.810 1.00
ATOM 2193 169N 26.598 23.190 117.434 1.00
ATOM 2194 169CA 25.897 22.197 116.645 1.00
ATOM 2195 169C 25.293 22.928 115.457 1.00
ATOM 2196 169O 24.732 24.014 115.618 1.00
ATOM 2197 169CB 24.798 21.553 117.492 1.00
ATOM 2198 169CG1 24.653 22.328 118.794 1.00
ATOM 2199 169CG2 23.483 21.523 116.730 1.00
ATOM 2200 170N 25.401 22.341 114.269 1.00
ATOM 2201 170CA 24.867 22.997 113.089 1.00
ATOM 2202 170C 23.697 22.321 112.416 1.00
ATOM 2203 170O 23.839 21.340 111.685 1.00
ATOM 2204 170CB 25.982 23.235 112.087 1.00
ATOM 2205 170CG 27.146 23.968 112.670 1.00
ATOM 2206 170ND1 27.442 25.274 112.341 1.00
ATOM 2207 170CD2 28.077 23.585 113.577 1.00
ATOM 2208 170CE1 28.507 25.664 113.020 1.00
ATOM 2209 170NE2 28.911 24.657 113.777 1.00
ATOM 2210 171N 22.527 22.878 112.690 1.00
ATOM 2211 171CA 21.279 22.404 112.132 1.00
ATOM 2212 171C 21.256 22.934 110.702 1.00
ATOM 2213 171O 21.063 24.128 110.461 1.00
ATOM 2214 171CB 20.093 22.958 112.943 1.00
ATOM 2215 171CG 20.412 23.833 114.177 1.00
ATOM 2216 171CD1 19.137 24.358 114.821 1.00
ATOM 2217 171CD2 21.180 23.022 115.198 1.00
ATOM 2218 172N 21.513 22.033 109.765 1.00
ATOM 2219 172CA 21.517 22.351 108.346 1.00
ATOM 2220 172C 20.220 21.735 107.815 1.00
ATOM 2221 172O 20.092 20.513 107.728 1.00
ATOM 2222 172CB 22.746 21.709 107.684 1.00
ATOM 2223 172CG 23.239 22.386 106.413 1.00
ATOM 2224 172CD 24.640 22.959 106.550 1.00
ATOM 2225 172OE1 25.028 23.331 107.682 1.00
ATOM 2226 172OE2 25.347 23.038 105.521 1.00
ATOM 2227 173N 19.247 22.574 107.483 1.00
ATOM 2228 173CA 17.969 22.068 106.996 1.00
ATOM 2229 173C 17.573 22.656 105.659 1.00
ATOM 2230 173O 18.019 23.740 105.285 1.00
ATOM 2231 173CB 16.820 22.353 108.013 1.00
ATOM 2232 173CG1 17.226 23.488 108.942 1.00
ATOM 2233 173CG2 15.495 22.688 107.278 1.00
ATOM 2234 174N 16.732 21.920 104.943 1.00
ATOM 2235 174CA 16.231 22.363 103.656 1.00
ATOM 2236 174C 14.700 22.289 103.737 1.00
ATOM 2237 174O 14.145 21.465 104.474 1.00
ATOM 2238 174CB 16.835 21.494 102.537 1.00
ATOM 2239 174CG 15.863 20.748 101.668 1.00
ATOM 2240 174CD 15.526 19.388 102.235 1.00
ATOM 2241 174OE1 15.446 18.425 101.443 1.00
ATOM 2242 174OE2 15.342 19.283 103.471 1.00
ATOM 2243 175N 14.033 23.177 103.002 1.00
ATOM 2244 175CA 12.574 23.280 103.007 1.00
ATOM 2245 175C 12.129 23.998 101.736 1.00
ATOM 2246 175O 12.086 23.400 100.683 1.00
ATOM 2247 175CB 12.149 24.094 104.211 1.00
ATOM 2248 175CG 13.064 25.242 104.488 1.00
ATOM 2249 175ND1 12.697 26.553 104.273 1.00
ATOM 2250 175CD2 14.360 25.274 104.882 1.00
ATOM 2251 175CE1 13.728 27.342 104.522 1.00
ATOM 2252 175NE2 14.749 26.591 104.893 1.00
ATOM 2253 176N 11.799 25.286 101.824 1.00
ATOM 2254 176CA 11.370 26.028 100.633 1.00
ATOM 2255 176C 11.568 27.545 100.736 1.00
ATOM 2256 176O 11.926 28.063 101.789 1.00
ATOM 2257 176CB 9.877 25.800 100.332 1.00
ATOM 2258 176CG1 9.517 24.327 100.408 1.00
ATOM 2259 176CG2 9.048 26.579 101.317 1.00
ATOM 2260 177N 11.322 28.246 99.632 1.00
ATOM 2261 177CA 11.434 29.705 99.587 1.00
ATOM 2262 177C 10.001 30.225 99.719 1.00
ATOM 2263 177O 9.099 29.701 99.073 1.00
ATOM 2264 177CB 12.048 30.143 98.253 1.00
ATOM 2265 177CG 12.320 28.994 97.274 1.00
ATOM 2266 177CD 13.803 28.614 97.223 1.00
ATOM 2267 177NE 14.317 28.523 95.855 1.00
ATOM 2268 177CZ 15.318 27.734 95.473 1.00
ATOM 2269 177NH1 15.927 26.952 96.358 1.00
ATOM 2270 177NH2 15.715 27.726 94.204 1.00
ATOM 2271 178N 9.770 31.264 100.543 1.00
ATOM 2272 178CA 8.405 31.792 100.716 1.00
ATOM 2273 178C 7.862 32.845 99.736 1.00
ATOM 2274 178O 7.724 32.610 98.526 1.00
ATOM 2275 178CB 8.423 32.323 102.151 1.00
ATOM 2276 178CG 9.863 32.777 102.354 1.00
ATOM 2277 178CD 10.744 32.004 101.367 1.00
ATOM 2278 179N 7.520 34.001 100.296 1.00
ATOM 2279 179CA 6.981 35.114 99.536 1.00
ATOM 2280 179C 7.532 36.437 100.067 1.00
ATOM 2281 179O 6.861 37.460 99.970 1.00
ATOM 2282 179CB 5.427 35.140 99.618 1.00
ATOM 2283 179OG1 4.946 33.808 99.827 1.00
ATOM 2284 179CG2 4.802 35.700 98.330 1.00
ATOM 2285 180N 8.735 36.432 100.649 1.00
ATOM 2286 180CA 9.282 37.696 101.128 1.00
ATOM 2287 180C 10.608 38.182 100.555 1.00
ATOM 2288 180O 10.670 39.312 100.068 1.00
ATOM 2289 180CB 9.372 37.765 102.652 1.00
ATOM 2290 180CG 9.473 39.186 103.157 1.00
ATOM 2291 180CD1 8.325 39.918 103.455 1.00
ATOM 2292 180CD2 10.712 39.832 103.224 1.00
ATOM 2293 180CE1 8.407 41.273 103.804 1.00
ATOM 2294 180CE2 10.805 41.188 103.572 1.00
ATOM 2295 180CZ 9.651 41.907 103.859 1.00
ATOM 2296 181N 11.671 37.378 100.624 1.00
ATOM 2297 181CA 12.965 37.810 100.068 1.00
ATOM 2298 181C 12.633 38.457 98.741 1.00
ATOM 2299 181O 13.312 39.367 98.262 1.00
ATOM 2300 181CB 13.894 36.617 99.811 1.00
ATOM 2301 181CG 14.740 36.788 98.546 1.00
ATOM 2302 181OD1 15.863 37.327 98.647 1.00
ATOM 2303 181OD2 14.284 36.384 97.453 1.00
ATOM 2304 182N 11.557 37.943 98.168 1.00
ATOM 2305 182CA 11.028 38.392 96.906 1.00
ATOM 2306 182C 10.992 39.917 96.825 1.00
ATOM 2307 182O 11.363 40.493 95.803 1.00
ATOM 2308 182CB 9.617 37.811 96.719 1.00
ATOM 2309 182CG 9.477 36.389 97.282 1.00
ATOM 2310 182OD1 10.481 35.814 97.753 1.00
ATOM 2311 182OD2 8.353 35.842 97.250 1.00
ATOM 2312 183N 10.571 40.577 97.900 1.00
ATOM 2313 183CA 10.485 42.031 97.868 1.00
ATOM 2314 183C 10.484 42.732 99.219 1.00
ATOM 2315 183O 10.482 42.098 100.274 1.00
ATOM 2316 183CB 9.231 42.438 97.101 1.00
ATOM 2317 183CG 8.091 41.476 97.267 1.00
ATOM 2318 183CD1 7.502 41.286 98.512 1.00
ATOM 2319 183CD2 7.610 40.751 96.179 1.00
ATOM 2320 183CE1 6.450 40.388 98.675 1.00
ATOM 2321 183CE2 6.558 39.850 96.330 1.00
ATOM 2322 183CZ 5.976 39.668 97.581 1.00
ATOM 2323 184N 10.490 44.061 99.162 1.00
ATOM 2324 184CA 10.471 44.887 100.361 1.00
ATOM 2325 184C 9.034 44.914 100.868 1.00
ATOM 2326 184O 8.273 43.967 100.646 1.00
ATOM 2327 184CB 10.941 46.316 100.047 1.00
ATOM 2328 184CG 12.322 46.397 99.430 1.00
ATOM 2329 184CD1 12.555 45.941 98.131 1.00
ATOM 2330 184CD2 13.387 46.956 100.142 1.00
ATOM 2331 184CE1 13.828 46.044 97.553 1.00
ATOM 2332 184CE2 14.667 47.064 99.572 1.00
ATOM 2333 184CZ 14.886 46.609 98.278 1.00
ATOM 2334 185N 8.655 46.003 101.530 1.00
ATOM 2335 185CA 7.307 46.119 102.069 1.00
ATOM 2336 185C 6.720 47.517 101.934 1.00
ATOM 2337 185O 7.442 48.488 101.728 1.00
ATOM 2338 185CB 7.283 45.721 103.550 1.00
ATOM 2339 185OG1 8.600 45.857 104.102 1.00
ATOM 2340 185CG2 6.804 44.276 103.701 1.00
ATOM 2341 186N 5.389 47.630 102.069 1.00
ATOM 2342 186CA 4.606 48.866 101.976 1.00
ATOM 2343 186C 5.289 50.253 102.051 1.00
ATOM 2344 186O 5.815 50.662 103.093 1.00
ATOM 2345 186CB 3.548 48.674 103.069 1.00
ATOM 2346 186CG 3.377 47.126 103.161 1.00
ATOM 2347 186CD 4.505 46.487 102.361 1.00
ATOM 2348 187N 5.268 50.965 100.921 1.00
ATOM 2349 187CA 5.815 52.317 100.841 1.00
ATOM 2350 187C 4.786 53.094 101.644 1.00
ATOM 2351 187O 4.999 53.383 102.822 1.00
ATOM 2352 187CB 5.855 52.848 99.370 1.00
ATOM 2353 187CG1 4.671 52.302 98.567 1.00
ATOM 2354 187CG2 5.850 54.376 99.360 1.00
ATOM 2355 188N 3.664 53.413 101.000 1.00
ATOM 2356 188CA 2.568 54.096 101.668 1.00
ATOM 2357 188C 1.399 53.112 101.674 1.00
ATOM 2358 188O 0.908 52.702 100.618 1.00
ATOM 2359 188CB 2.170 55.397 100.947 1.00
ATOM 2360 188CG 1.408 56.372 101.844 1.00
ATOM 2361 188CD1 0.621 57.393 101.305 1.00
ATOM 2362 188CD2 1.462 56.256 103.239 1.00
ATOM 2363 188CE1 -0.098 58.276 102.138 1.00
ATOM 2364 188CE2 0.750 57.128 104.077 1.00
ATOM 2365 188CZ -0.026 58.133 103.524 1.00
ATOM 2366 188OH -0.732 58.979 104.358 1.00
ATOM 2367 189N 0.985 52.721 102.879 1.00
ATOM 2368 189CA -0.109 51.773 103.086 1.00
ATOM 2369 189C -1.352 52.114 102.262 1.00
ATOM 2370 189O -2.171 52.936 102.729 1.00
ATOM 2371 189CB -0.464 51.714 104.582 1.00
ATOM 2372 189CG 0.746 51.536 105.508 1.00
ATOM 2373 189CD 0.445 51.919 106.961 1.00
ATOM 2374 189NE -0.200 53.227 107.087 1.00
ATOM 2375 189CZ 0.265 54.229 107.831 1.00
ATOM 2376 189NH1 1.388 54.084 108.526 1.00
ATOM 2377 189NH2 -0.398 55.377 107.884 1.00
ATOM 2378 189OXT -1.489 51.549 101.154 1.00
