149OD1 260NE 3.03425
151CG1 173OG1 3.47023
153NZ 171OD2 2.63676
153NZ 504OD1 3.16946
168OH 506CB 3.48263
168OH 507OD2 3.19259
170ND2 171OD1 2.84189
170OD1 173OG1 3.04124
261OG1 260NH1 2.64466
43OG 263OD2 2.96993
47CB 258CD1 3.45737
47CD2 256CD1 3.49215
47OH 251CG 3.44679
