17.082999999999998  3.3439999999999999  89.650999999999996
-17.077999999999999  -3.339  89.650999999999996
13.162000000000001  -1.3939999999999999  103.696
-13.157  1.399  103.696
14.984999999999999  -2.2669999999999999  102.53400000000001
-14.98  2.2719999999999998  102.53400000000001

