125CG 543NE1 3.40741
127OD2 540ND2 2.99492
129OE1 546CG1 3.38349
133ND2 548OE1 3.19437
302OD1 567OG1 2.69731
302OD1 569CG2 3.01485
302OD1 571ND2 3.19454
537CD1 55CE2 3.14251
540ND2 126OG 2.78573
545CD 564CG 3.40874
547CD1 550OG 3.22046
