172CB   184CD2  2.81038 2.81038289206
172OE1  185CB   2.845   2.84499595782
181OD1  181OD2  3.35202 3.3520220763
184CD2  172CB   2.81038 2.81038289206
184CE1  51CG1   2.73465 2.73464769212
185CB   172OE1  2.845   2.84499595782
189NH1  93CZ3   3.06049 3.06049097368
51CG1   184CE1  2.73465 2.73464769212
93CZ3   189NH1  3.06049 3.06049097368
