ATOM 2379 1N -56.197 -8.782 68.727 1.00
ATOM 2380 1CA -55.622 -9.760 69.698 1.00
ATOM 2381 1C -54.514 -9.119 70.533 1.00
ATOM 2382 1O -53.958 -8.087 70.153 1.00
ATOM 2383 1CB -55.079 -10.972 68.947 1.00
ATOM 2384 2N -54.198 -9.734 71.671 1.00
ATOM 2385 2CA -53.157 -9.223 72.558 1.00
ATOM 2386 2C -52.689 -10.284 73.554 1.00
ATOM 2387 2O -51.820 -11.100 73.242 1.00
ATOM 2388 2CB -53.666 -7.987 73.305 1.00
ATOM 2389 3N -53.274 -10.268 74.749 1.00
ATOM 2390 3CA -52.914 -11.218 75.798 1.00
ATOM 2391 3C -53.795 -12.465 75.787 1.00
ATOM 2392 3O -55.007 -12.383 76.006 1.00
ATOM 2393 3CB -52.991 -10.538 77.159 1.00
ATOM 2394 4N -53.170 -13.615 75.539 1.00
ATOM 2395 4CA -53.871 -14.894 75.493 1.00
ATOM 2396 4C -55.109 -14.788 74.609 1.00
ATOM 2397 4O -56.096 -15.501 74.810 1.00
ATOM 2398 4CB -54.263 -15.326 76.903 1.00
ATOM 2399 5N -55.044 -13.893 73.628 1.00
ATOM 2400 5CA -56.149 -13.674 72.705 1.00
ATOM 2401 5C -56.282 -14.832 71.722 1.00
ATOM 2402 5O -56.592 -14.630 70.546 1.00
ATOM 2403 6N -56.044 -16.044 72.213 1.00
ATOM 2404 6CA -56.141 -17.245 71.391 1.00
ATOM 2405 6C -57.254 -18.153 71.914 1.00
ATOM 2406 6O -57.084 -18.845 72.921 1.00
ATOM 2407 6CB -54.810 -17.987 71.393 1.00
ATOM 2408 7N -58.393 -18.144 71.222 1.00
ATOM 2409 7CA -59.544 -18.956 71.609 1.00
ATOM 2410 7C -60.013 -19.847 70.458 1.00
ATOM 2411 7O -59.240 -20.170 69.555 1.00
ATOM 2412 8N -61.283 -20.241 70.503 1.00
ATOM 2413 8CA -61.866 -21.093 69.470 1.00
ATOM 2414 8C -63.056 -20.398 68.815 1.00
ATOM 2415 8O -63.682 -19.520 69.414 1.00
ATOM 2416 8CB -62.305 -22.421 70.075 1.00
ATOM 2417 9N -63.362 -20.799 67.584 1.00
ATOM 2418 9CA -64.471 -20.218 66.831 1.00
ATOM 2419 9C -64.313 -18.704 66.684 1.00
ATOM 2420 9O -63.409 -18.102 67.270 1.00
ATOM 2421 9CB -65.799 -20.546 67.514 1.00
ATOM 2422 10N -65.195 -18.095 65.897 1.00
ATOM 2423 10CA -65.151 -16.654 65.666 1.00
ATOM 2424 10C -65.581 -15.861 66.899 1.00
ATOM 2425 10O -66.177 -16.408 67.830 1.00
ATOM 2426 10CB -66.037 -16.290 64.475 1.00
ATOM 2427 11N -65.268 -14.568 66.890 1.00
ATOM 2428 11CA -65.600 -13.662 67.987 1.00
ATOM 2429 11C -64.943 -12.305 67.742 1.00
ATOM 2430 11O -63.857 -12.030 68.258 1.00
ATOM 2431 11CB -65.120 -14.243 69.313 1.00
ATOM 2432 12N -65.605 -11.462 66.953 1.00
ATOM 2433 12CA -65.085 -10.136 66.620 1.00
ATOM 2434 12C -64.861 -9.255 67.850 1.00
ATOM 2435 12O -65.256 -9.608 68.962 1.00
ATOM 2436 12CB -66.032 -9.439 65.645 1.00
ATOM 2437 13N -64.222 -8.105 67.637 1.00
ATOM 2438 13CA -63.941 -7.166 68.720 1.00
ATOM 2439 13C -63.493 -5.801 68.191 1.00
ATOM 2440 13O -62.685 -5.716 67.264 1.00
ATOM 2441 13CB -62.872 -7.743 69.646 1.00
ATOM 2442 14N -64.029 -4.739 68.788 1.00
ATOM 2443 14CA -63.693 -3.371 68.399 1.00
ATOM 2444 14C -63.518 -2.514 69.650 1.00
ATOM 2445 14O -63.971 -2.886 70.733 1.00
ATOM 2446 14CB -64.792 -2.791 67.517 1.00
ATOM 2447 15N -62.859 -1.368 69.500 1.00
ATOM 2448 15CA -62.629 -0.474 70.629 1.00
ATOM 2449 15C -63.249 0.899 70.394 1.00
ATOM 2450 15O -64.365 1.008 69.884 1.00
ATOM 2451 15CB -61.126 -0.335 70.885 1.00
ATOM 2452 16N -62.516 1.944 70.773 1.00
ATOM 2453 16CA -62.975 3.320 70.612 1.00
ATOM 2454 16C -61.796 4.269 70.398 1.00
ATOM 2455 16O -60.677 3.991 70.833 1.00
ATOM 2456 16CB -63.775 3.749 71.836 1.00
ATOM 2457 17N -62.056 5.391 69.731 1.00
ATOM 2458 17CA -61.021 6.383 69.456 1.00
ATOM 2459 17C -61.200 7.640 70.305 1.00
ATOM 2460 17O -62.286 8.221 70.357 1.00
ATOM 2461 17CB -61.033 6.748 67.974 1.00
ATOM 2462 18N -60.124 8.051 70.967 1.00
ATOM 2463 18CA -60.140 9.236 71.817 1.00
ATOM 2464 18C -58.714 9.750 71.991 1.00
ATOM 2465 18O -57.895 9.644 71.078 1.00
ATOM 2466 18CB -60.750 8.899 73.174 1.00
ATOM 2467 19N -58.421 10.304 73.163 1.00
ATOM 2468 19CA -57.089 10.823 73.449 1.00
ATOM 2469 19C -56.382 9.911 74.444 1.00
ATOM 2470 19O -55.936 10.363 75.498 1.00
ATOM 2471 19CB -57.188 12.237 74.013 1.00
ATOM 2472 20N -56.282 8.629 74.100 1.00
ATOM 2473 20CA -55.638 7.649 74.968 1.00
ATOM 2474 20C -56.206 7.781 76.380 1.00
ATOM 2475 20O -57.335 8.244 76.551 1.00
ATOM 2476 20CB -54.128 7.868 74.978 1.00
ATOM 2477 21N -55.430 7.380 77.386 1.00
ATOM 2478 21CA -55.883 7.471 78.773 1.00
ATOM 2479 21C -54.844 7.019 79.801 1.00
ATOM 2480 21O -54.519 7.757 80.733 1.00
ATOM 2481 21CB -57.167 6.665 78.953 1.00
ATOM 2482 22N -54.334 5.804 79.632 1.00
ATOM 2483 22CA -53.347 5.245 80.551 1.00
ATOM 2484 22C -52.174 6.191 80.808 1.00
ATOM 2485 22O -51.952 7.140 80.054 1.00
ATOM 2486 22CB -52.833 3.921 80.005 1.00
ATOM 2487 23N -51.430 5.929 81.880 1.00
ATOM 2488 23CA -50.271 6.747 82.221 1.00
ATOM 2489 23C -49.325 6.780 81.020 1.00
ATOM 2490 23O -49.406 5.922 80.142 1.00
ATOM 2491 23CB -49.560 6.165 83.435 1.00
ATOM 2492 24N -48.430 7.764 80.985 1.00
ATOM 2493 24CA -47.484 7.895 79.877 1.00
ATOM 2494 24C -46.378 6.837 79.903 1.00
ATOM 2495 24O -46.100 6.197 78.886 1.00
ATOM 2496 24CB -46.872 9.293 79.880 1.00
ATOM 2497 25N -45.745 6.660 81.063 1.00
ATOM 2498 25CA -44.676 5.673 81.213 1.00
ATOM 2499 25C -45.227 4.400 81.840 1.00
ATOM 2500 25O -46.284 4.419 82.474 1.00
ATOM 2501 25CB -43.552 6.229 82.078 1.00
ATOM 2502 26N -44.505 3.295 81.670 1.00
ATOM 2503 26CA -44.957 2.023 82.217 1.00
ATOM 2504 26C -44.106 1.457 83.348 1.00
ATOM 2505 26O -42.950 1.837 83.540 1.00
ATOM 2506 26CB -45.121 0.994 81.095 1.00
ATOM 2507 26CG -46.567 0.874 80.577 1.00
ATOM 2508 26CD -47.301 2.225 80.571 1.00
ATOM 2509 26NE -48.657 2.136 80.029 1.00
ATOM 2510 26CZ -49.177 3.007 79.167 1.00
ATOM 2511 26NH1 -48.456 4.036 78.746 1.00
ATOM 2512 26NH2 -50.417 2.849 78.726 1.00
ATOM 2513 27N -44.719 0.527 84.074 1.00
ATOM 2514 27CA -44.166 -0.120 85.261 1.00
ATOM 2515 27C -43.001 -1.102 85.207 1.00
ATOM 2516 27O -42.733 -1.742 84.187 1.00
ATOM 2517 27CB -45.289 -0.836 86.026 1.00
ATOM 2518 27CG1 -45.596 -2.177 85.356 1.00
ATOM 2519 27CG2 -44.889 -1.025 87.479 1.00
ATOM 2520 28N -42.346 -1.214 86.366 1.00
ATOM 2521 28CA -41.212 -2.101 86.615 1.00
ATOM 2522 28C -41.405 -2.670 88.018 1.00
ATOM 2523 28O -41.631 -1.929 88.971 1.00
ATOM 2524 28CB -39.888 -1.329 86.563 1.00
ATOM 2525 28CG -38.728 -2.008 87.296 1.00
ATOM 2526 28CD -37.602 -2.440 86.361 1.00
ATOM 2527 28OE1 -37.589 -3.571 85.868 1.00
ATOM 2528 28NE2 -36.648 -1.538 86.118 1.00
ATOM 2529 29N -41.327 -3.999 88.159 1.00
ATOM 2530 29CA -41.495 -4.658 89.455 1.00
ATOM 2531 29C -40.135 -4.898 90.059 1.00
ATOM 2532 29O -39.133 -4.898 89.346 1.00
ATOM 2533 29CB -42.167 -5.966 89.091 1.00
ATOM 2534 29CG -41.569 -6.291 87.724 1.00
ATOM 2535 29CD -41.081 -4.985 87.097 1.00
ATOM 2536 30N -40.091 -5.117 91.365 1.00
ATOM 2537 30CA -38.819 -5.363 92.022 1.00
ATOM 2538 30C -38.985 -6.224 93.241 1.00
ATOM 2539 30O -40.101 -6.554 93.646 1.00
ATOM 2540 30CB -38.153 -4.071 92.490 1.00
ATOM 2541 30CG1 -37.528 -3.353 91.316 1.00
ATOM 2542 30CG2 -39.176 -3.197 93.199 1.00
ATOM 2543 31N -37.855 -6.569 93.837 1.00
ATOM 2544 31CA -37.874 -7.387 95.023 1.00
ATOM 2545 31C -36.721 -7.030 95.956 1.00
ATOM 2546 31O -35.567 -7.404 95.730 1.00
ATOM 2547 31CB -37.837 -8.880 94.643 1.00
ATOM 2548 31CG1 -38.090 -9.729 95.889 1.00
ATOM 2549 31CG2 -36.525 -9.215 93.959 1.00
ATOM 2550 31CD1 -39.258 -9.243 96.739 1.00
ATOM 2551 32N -37.050 -6.280 96.999 1.00
ATOM 2552 32CA -36.066 -5.868 97.984 1.00
ATOM 2553 32C -35.531 -7.099 98.681 1.00
ATOM 2554 32O -36.277 -7.828 99.337 1.00
ATOM 2555 32CB -36.684 -4.957 99.053 1.00
ATOM 2556 32CG1 -36.820 -3.553 98.506 1.00
ATOM 2557 32CG2 -38.047 -5.511 99.502 1.00
ATOM 2558 33N -34.238 -7.337 98.541 1.00
ATOM 2559 33CA -33.643 -8.490 99.185 1.00
ATOM 2560 33C -33.493 -8.248 100.675 1.00
ATOM 2561 33O -33.288 -7.114 101.121 1.00
ATOM 2562 33CB -32.276 -8.793 98.586 1.00
ATOM 2563 33CG -31.987 -10.278 98.470 1.00
ATOM 2564 33CD -32.945 -10.986 97.526 1.00
ATOM 2565 33OE1 -33.749 -10.292 96.863 1.00
ATOM 2566 33OE2 -32.891 -12.236 97.446 1.00
ATOM 2567 34N -33.624 -9.313 101.474 1.00
ATOM 2568 34CA -33.485 -9.173 102.920 1.00
ATOM 2569 34C -32.006 -9.336 103.251 1.00
ATOM 2570 34O -31.399 -10.363 102.958 1.00
ATOM 2571 34CB -34.347 -10.303 103.481 1.00
ATOM 2572 34CG -34.625 -11.234 102.300 1.00
ATOM 2573 34CD -33.913 -10.702 101.092 1.00
ATOM 2574 35N -31.428 -8.299 103.839 1.00
ATOM 2575 35CA -30.021 -8.307 104.190 1.00
ATOM 2576 35C -29.844 -8.615 105.675 1.00
ATOM 2577 35O -30.648 -8.192 106.515 1.00
ATOM 2578 35CB -29.399 -6.948 103.845 1.00
ATOM 2579 35CG -30.215 -5.684 104.186 1.00
ATOM 2580 35CD1 -29.346 -4.462 103.933 1.00
ATOM 2581 35CD2 -31.501 -5.594 103.356 1.00
ATOM 2582 36N -28.794 -9.370 105.983 1.00
ATOM 2583 36CA -28.485 -9.748 107.358 1.00
ATOM 2584 36C -27.364 -8.890 107.904 1.00
ATOM 2585 36O -26.794 -8.049 107.201 1.00
ATOM 2586 36CB -28.080 -11.213 107.433 1.00
ATOM 2587 37N -27.040 -9.126 109.166 1.00
ATOM 2588 37CA -25.993 -8.381 109.830 1.00
ATOM 2589 37C -24.673 -8.399 109.053 1.00
ATOM 2590 37O -24.310 -9.407 108.447 1.00
ATOM 2591 37CB -25.793 -8.935 111.237 1.00
ATOM 2592 38N -23.983 -7.261 109.057 1.00
ATOM 2593 38CA -22.686 -7.146 108.410 1.00
ATOM 2594 38C -22.590 -7.216 106.902 1.00
ATOM 2595 38O -21.529 -6.938 106.342 1.00
ATOM 2596 39N -23.675 -7.599 106.243 1.00
ATOM 2597 39CA -23.671 -7.687 104.790 1.00
ATOM 2598 39C -23.451 -6.296 104.216 1.00
ATOM 2599 39O -22.862 -6.140 103.144 1.00
ATOM 2600 39CB -25.006 -8.224 104.290 1.00
ATOM 2601 39CG -25.362 -9.605 104.790 1.00
ATOM 2602 39CD -26.328 -10.304 103.859 1.00
ATOM 2603 39OE1 -27.544 -10.250 104.044 1.00
ATOM 2604 39NE2 -25.790 -10.959 102.842 1.00
ATOM 2605 40N -23.938 -5.303 104.960 1.00
ATOM 2606 40CA -23.851 -3.901 104.583 1.00
ATOM 2607 40C -22.773 -3.479 103.608 1.00
ATOM 2608 40O -22.630 -4.044 102.521 1.00
ATOM 2609 41N -22.021 -2.455 103.988 1.00
ATOM 2610 41CA -20.957 -1.972 103.126 1.00
ATOM 2611 41C -19.886 -1.165 103.852 1.00
ATOM 2612 41O -20.185 -0.194 104.551 1.00
ATOM 2613 41CB -21.549 -1.144 101.981 1.00
ATOM 2614 41CG -21.006 -1.504 100.599 1.00
ATOM 2615 41CD -20.514 -2.944 100.532 1.00
ATOM 2616 41CE -19.025 -3.055 100.861 1.00
ATOM 2617 41NZ -18.303 -1.746 100.836 1.00
ATOM 2618 42N -18.637 -1.591 103.676 1.00
ATOM 2619 42CA -17.478 -0.940 104.281 1.00
ATOM 2620 42C -16.661 -0.279 103.179 1.00
ATOM 2621 42O -15.497 -0.615 102.966 1.00
ATOM 2622 42CB -16.621 -1.962 105.020 1.00
ATOM 2623 43N -17.294 0.652 102.475 1.00
ATOM 2624 43CA -16.670 1.394 101.389 1.00
ATOM 2625 43C -15.165 1.482 101.538 1.00
ATOM 2626 43O -14.659 1.821 102.606 1.00
ATOM 2627 43CB -17.222 2.819 101.328 1.00
ATOM 2628 43CG1 -16.578 3.686 102.418 1.00
ATOM 2629 43CG2 -18.731 2.787 101.511 1.00
ATOM 2630 43CD1 -16.916 3.259 103.827 1.00
ATOM 2631 44N -14.444 1.179 100.467 1.00
ATOM 2632 44CA -12.992 1.243 100.522 1.00
ATOM 2633 44C -12.540 2.700 100.540 1.00
ATOM 2634 44O -13.229 3.578 100.011 1.00
ATOM 2635 44CB -12.378 0.502 99.329 1.00
ATOM 2636 44CG -11.099 1.122 98.777 1.00
ATOM 2637 44CD -9.886 0.756 99.616 1.00
ATOM 2638 44CE -8.628 1.435 99.091 1.00
ATOM 2639 44NZ -7.861 2.118 100.171 1.00
ATOM 2640 45N -11.389 2.945 101.165 1.00
ATOM 2641 45CA -10.820 4.286 101.261 1.00
ATOM 2642 45C -10.582 4.814 99.862 1.00
ATOM 2643 45O -11.141 4.301 98.895 1.00
ATOM 2644 45CB -9.506 4.243 102.021 1.00
ATOM 2645 46N -9.750 5.838 99.740 1.00
ATOM 2646 46CA -9.486 6.365 98.419 1.00
ATOM 2647 46C -8.013 6.278 98.030 1.00
ATOM 2648 46O -7.246 5.510 98.615 1.00
ATOM 2649 46CB -10.024 7.820 98.274 1.00
ATOM 2650 46CG1 -10.224 8.155 96.788 1.00
ATOM 2651 46CG2 -9.087 8.816 98.940 1.00
ATOM 2652 46CD1 -10.567 6.959 95.895 1.00
ATOM 2653 47N -7.630 7.064 97.033 1.00
ATOM 2654 47CA -6.273 7.081 96.513 1.00
ATOM 2655 47C -5.233 7.498 97.535 1.00
ATOM 2656 47O -5.392 8.519 98.204 1.00
ATOM 2657 47CB -6.207 8.018 95.323 1.00
ATOM 2658 48N -4.163 6.709 97.637 1.00
ATOM 2659 48CA -3.086 7.014 98.566 1.00
ATOM 2660 48C -3.574 7.422 99.940 1.00
ATOM 2661 48O -2.903 8.151 100.681 1.00
ATOM 2662 49N -4.757 6.937 100.282 1.00
ATOM 2663 49CA -5.342 7.250 101.563 1.00
ATOM 2664 49C -5.482 6.001 102.386 1.00
ATOM 2665 49O -5.978 4.978 101.913 1.00
ATOM 2666 49CB -6.708 7.901 101.377 1.00
ATOM 2667 49CG -6.657 9.391 101.569 1.00
ATOM 2668 49CD1 -6.411 10.247 100.495 1.00
ATOM 2669 49CD2 -6.794 9.944 102.837 1.00
ATOM 2670 49CE1 -6.295 11.622 100.690 1.00
ATOM 2671 49CE2 -6.680 11.312 103.044 1.00
ATOM 2672 49CZ -6.427 12.145 101.973 1.00
ATOM 2673 49OH -6.290 13.496 102.198 1.00
ATOM 2674 50N -5.021 6.088 103.624 1.00
ATOM 2675 50CA -5.116 4.973 104.541 1.00
ATOM 2676 50C -6.343 5.252 105.395 1.00
ATOM 2677 50O -6.859 6.370 105.411 1.00
ATOM 2678 50CB -3.856 4.893 105.425 1.00
ATOM 2679 50OG -3.903 3.806 106.344 1.00
ATOM 2680 51N -6.836 4.216 106.058 1.00
ATOM 2681 51CA -7.967 4.357 106.956 1.00
ATOM 2682 51C -7.436 3.798 108.253 1.00
ATOM 2683 51O -7.268 2.586 108.396 1.00
ATOM 2684 51CB -9.195 3.517 106.527 1.00
ATOM 2685 51CG1 -9.784 4.065 105.227 1.00
ATOM 2686 51CG2 -10.270 3.541 107.630 1.00
ATOM 2687 51CD1 -9.617 5.543 105.045 1.00
ATOM 2688 52N -7.099 4.683 109.178 1.00
ATOM 2689 52CA -6.606 4.212 110.451 1.00
ATOM 2690 52C -7.788 4.217 111.394 1.00
ATOM 2691 52O -8.549 5.174 111.451 1.00
ATOM 2692 52CB -5.486 5.107 110.972 1.00
ATOM 2693 52OG -4.291 4.354 111.110 1.00
ATOM 2694 53N -7.967 3.120 112.104 1.00
ATOM 2695 53CA -9.073 3.026 113.024 1.00
ATOM 2696 53C -8.534 2.598 114.365 1.00
ATOM 2697 53O -7.355 2.259 114.494 1.00
ATOM 2698 53CB -10.089 2.006 112.513 1.00
ATOM 2699 53CG -9.617 1.235 111.283 1.00
ATOM 2700 53CD -10.733 1.071 110.253 1.00
ATOM 2701 53CE -10.256 0.334 109.000 1.00
ATOM 2702 53NZ -10.815 -1.049 108.866 1.00
ATOM 2703 54N -9.409 2.633 115.359 1.00
ATOM 2704 54CA -9.088 2.238 116.718 1.00
ATOM 2705 54C -10.228 2.730 117.577 1.00
ATOM 2706 54O -10.993 3.588 117.157 1.00
ATOM 2707 54CB -7.740 2.829 117.182 1.00
ATOM 2708 54CG -7.776 4.260 117.641 1.00
ATOM 2709 54CD1 -8.001 4.718 118.916 1.00
ATOM 2710 54CD2 -7.555 5.417 116.833 1.00
ATOM 2711 54NE1 -7.934 6.091 118.946 1.00
ATOM 2712 54CE2 -7.663 6.547 117.682 1.00
ATOM 2713 54CE3 -7.276 5.613 115.470 1.00
ATOM 2714 54CZ2 -7.502 7.855 117.210 1.00
ATOM 2715 54CZ3 -7.118 6.917 114.997 1.00
ATOM 2716 54CH2 -7.231 8.020 115.871 1.00
ATOM 2717 55N -10.331 2.188 118.784 1.00
ATOM 2718 55CA -11.405 2.552 119.693 1.00
ATOM 2719 55C -10.938 3.168 120.995 1.00
ATOM 2720 55O -9.756 3.135 121.339 1.00
ATOM 2721 55CB -12.252 1.319 120.006 1.00
ATOM 2722 55CG -11.895 0.102 119.171 1.00
ATOM 2723 55CD -10.857 -0.776 119.829 1.00
ATOM 2724 55OE1 -10.365 -1.711 119.159 1.00
ATOM 2725 55OE2 -10.532 -0.530 121.013 1.00
ATOM 2726 56N -11.896 3.724 121.719 1.00
ATOM 2727 56CA -11.634 4.343 123.003 1.00
ATOM 2728 56C -12.715 3.869 123.974 1.00
ATOM 2729 56O -13.907 3.990 123.696 1.00
ATOM 2730 56CB -11.657 5.863 122.863 1.00
ATOM 2731 57N -12.298 3.307 125.103 1.00
ATOM 2732 57CA -13.238 2.812 126.100 1.00
ATOM 2733 57C -14.007 3.952 126.768 1.00
ATOM 2734 57O -13.449 5.016 127.037 1.00
ATOM 2735 57CB -12.497 1.990 127.155 1.00
ATOM 2736 57OG -12.263 0.669 126.697 1.00
ATOM 2737 58N -15.288 3.711 127.034 1.00
ATOM 2738 58CA -16.174 4.697 127.651 1.00
ATOM 2739 58C -15.867 5.101 129.083 1.00
ATOM 2740 58O -15.063 4.490 129.785 1.00
ATOM 2741 58CB -17.630 4.206 127.593 1.00
ATOM 2742 58OG -18.304 4.309 128.848 1.00
ATOM 2743 59N -16.538 6.178 129.480 1.00
ATOM 2744 59CA -16.433 6.747 130.810 1.00
ATOM 2745 59C -17.817 6.666 131.425 1.00
ATOM 2746 59O -18.832 6.827 130.738 1.00
ATOM 2747 59CB -15.995 8.208 130.732 1.00
ATOM 2748 59CG -14.521 8.385 131.005 1.00
ATOM 2749 59OD1 -14.048 9.540 130.968 1.00
ATOM 2750 59OD2 -13.837 7.369 131.254 1.00
ATOM 2751 60N -17.859 6.406 132.723 1.00
ATOM 2752 60CA -19.127 6.305 133.417 1.00
ATOM 2753 60C -19.961 7.539 133.116 1.00
ATOM 2754 60O -19.647 8.647 133.555 1.00
ATOM 2755 60CB -18.894 6.177 134.913 1.00
ATOM 2756 61N -21.022 7.346 132.346 1.00
ATOM 2757 61CA -21.897 8.448 131.998 1.00
ATOM 2758 61C -23.063 8.487 132.988 1.00
ATOM 2759 61O -23.428 7.469 133.573 1.00
ATOM 2760 61CB -22.416 8.286 130.564 1.00
ATOM 2761 61CG1 -23.665 9.144 130.349 1.00
ATOM 2762 61CG2 -22.687 6.822 130.293 1.00
ATOM 2763 61CD1 -23.405 10.635 130.430 1.00
ATOM 2764 62N -23.641 9.670 133.168 1.00
ATOM 2765 62CA -24.742 9.862 134.104 1.00
ATOM 2766 62C -26.127 9.933 133.466 1.00
ATOM 2767 62O -26.272 9.822 132.252 1.00
ATOM 2768 62CB -24.526 11.143 134.916 1.00
ATOM 2769 62OG1 -25.538 12.098 134.570 1.00
ATOM 2770 62CG2 -23.140 11.735 134.621 1.00
ATOM 2771 63N -27.132 10.132 134.316 1.00
ATOM 2772 63CA -28.543 10.230 133.931 1.00
ATOM 2773 63C -28.817 10.592 132.476 1.00
ATOM 2774 63O -28.901 9.719 131.615 1.00
ATOM 2775 63CB -29.250 11.225 134.840 1.00
ATOM 2776 64N -28.979 11.882 132.213 1.00
ATOM 2777 64CA -29.252 12.350 130.864 1.00
ATOM 2778 64C -28.095 13.212 130.399 1.00
ATOM 2779 64O -28.146 13.830 129.341 1.00
ATOM 2780 64CB -30.543 13.166 130.848 1.00
ATOM 2781 64CG -31.736 12.420 130.274 1.00
ATOM 2782 64CD -32.946 12.529 131.188 1.00
ATOM 2783 64CE -33.523 11.156 131.504 1.00
ATOM 2784 64NZ -33.408 10.816 132.952 1.00
ATOM 2785 65N -27.046 13.240 131.204 1.00
ATOM 2786 65CA -25.872 14.041 130.899 1.00
ATOM 2787 65C -25.116 13.480 129.712 1.00
ATOM 2788 65O -25.396 12.372 129.260 1.00
ATOM 2789 65CB -24.960 14.102 132.109 1.00
ATOM 2790 66N -24.178 14.270 129.194 1.00
ATOM 2791 66CA -23.351 13.861 128.065 1.00
ATOM 2792 66C -21.899 14.275 128.300 1.00
ATOM 2793 66O -21.607 15.455 128.487 1.00
ATOM 2794 66CB -23.857 14.478 126.741 1.00
ATOM 2795 66OG1 -22.952 15.501 126.303 1.00
ATOM 2796 66CG2 -25.249 15.063 126.921 1.00
ATOM 2797 67N -20.997 13.293 128.299 1.00
ATOM 2798 67CA -19.569 13.533 128.525 1.00
ATOM 2799 67C -18.858 13.881 127.215 1.00
ATOM 2800 67O -19.497 14.042 126.177 1.00
ATOM 2801 67CB -18.888 12.289 129.141 1.00
ATOM 2802 67CG -19.552 11.808 130.441 1.00
ATOM 2803 67OD1 -20.100 12.595 131.218 1.00
ATOM 2804 67ND2 -19.490 10.499 130.680 1.00
ATOM 2805 68N -17.532 13.985 127.277 1.00
ATOM 2806 68CA -16.708 14.298 126.111 1.00
ATOM 2807 68C -15.321 13.724 126.338 1.00
ATOM 2808 68O -14.977 13.388 127.471 1.00
ATOM 2809 68CB -16.611 15.793 125.923 1.00
ATOM 2810 69N -14.528 13.609 125.275 1.00
ATOM 2811 69CA -13.173 13.069 125.404 1.00
ATOM 2812 69C -12.243 13.492 124.289 1.00
ATOM 2813 69O -12.350 13.003 123.167 1.00
ATOM 2814 69CB -13.188 11.534 125.452 1.00
ATOM 2815 69CG -14.539 10.911 125.764 1.00
ATOM 2816 69SD -14.381 9.235 126.372 1.00
ATOM 2817 69CE -15.662 8.431 125.468 1.00
ATOM 2818 70N -11.304 14.375 124.600 1.00
ATOM 2819 70CA -10.369 14.809 123.587 1.00
ATOM 2820 70C -9.890 13.505 123.006 1.00
ATOM 2821 70O -9.405 12.637 123.736 1.00
ATOM 2822 70CB -9.202 15.576 124.213 1.00
ATOM 2823 70OG -9.130 16.895 123.695 1.00
ATOM 2824 71N -10.066 13.329 121.714 1.00
ATOM 2825 71CA -9.609 12.093 121.147 1.00
ATOM 2826 71C -8.161 12.252 120.752 1.00
ATOM 2827 71O -7.754 13.288 120.227 1.00
ATOM 2828 71CB -10.419 11.696 119.923 1.00
ATOM 2829 71CG1 -9.805 10.413 119.311 1.00
ATOM 2830 71CG2 -10.541 12.914 118.968 1.00
ATOM 2831 71CD1 -9.723 9.162 120.284 1.00
ATOM 2832 72N -7.385 11.214 121.030 1.00
ATOM 2833 72CA -5.978 11.213 120.702 1.00
ATOM 2834 72C -5.657 10.018 119.836 1.00
ATOM 2835 72O -6.250 8.939 119.960 1.00
ATOM 2836 72CB -5.106 11.146 121.951 1.00
ATOM 2837 72OG1 -5.261 9.859 122.563 1.00
ATOM 2838 72CG2 -5.499 12.248 122.934 1.00
ATOM 2839 73N -4.685 10.243 118.968 1.00
ATOM 2840 73CA -4.197 9.269 118.012 1.00
ATOM 2841 73C -3.163 8.339 118.628 1.00
ATOM 2842 73O -2.732 8.535 119.768 1.00
ATOM 2843 73CB -3.561 10.015 116.842 1.00
ATOM 2844 73CG -3.140 11.445 117.201 1.00
ATOM 2845 73CD1 -2.170 11.444 118.389 1.00
ATOM 2846 73CD2 -2.512 12.096 115.983 1.00
ATOM 2847 74N -2.759 7.306 117.872 1.00
ATOM 2848 74CA -1.768 6.313 118.291 1.00
ATOM 2849 74C -0.348 6.743 117.894 1.00
ATOM 2850 74O -0.152 7.442 116.895 1.00
ATOM 2851 74CB -2.216 5.032 117.577 1.00
ATOM 2852 74CG -3.256 5.480 116.530 1.00
ATOM 2853 74CD -3.284 6.983 116.537 1.00
ATOM 2854 75N 0.632 6.314 118.684 1.00
ATOM 2855 75CA 2.037 6.648 118.467 1.00
ATOM 2856 75C 2.523 6.679 117.011 1.00
ATOM 2857 75O 3.267 7.582 116.627 1.00
ATOM 2858 75CB 2.923 5.693 119.279 1.00
ATOM 2859 75CG 4.285 6.240 119.591 1.00
ATOM 2860 75ND1 4.875 7.243 118.850 1.00
ATOM 2861 75CD2 5.175 5.915 120.558 1.00
ATOM 2862 75CE1 6.069 7.512 119.348 1.00
ATOM 2863 75NE2 6.276 6.720 120.385 1.00
ATOM 2864 76N 2.117 5.703 116.205 1.00
ATOM 2865 76CA 2.557 5.648 114.810 1.00
ATOM 2866 76C 2.393 6.984 114.101 1.00
ATOM 2867 76O 3.377 7.635 113.743 1.00
ATOM 2868 76CB 1.783 4.575 114.033 1.00
ATOM 2869 76CG 0.747 3.829 114.848 1.00
ATOM 2870 76CD 1.370 3.040 115.980 1.00
ATOM 2871 76OE1 0.960 3.243 117.143 1.00
ATOM 2872 76OE2 2.274 2.219 115.703 1.00
ATOM 2873 77N 1.139 7.380 113.907 1.00
ATOM 2874 77CA 0.794 8.628 113.233 1.00
ATOM 2875 77C 1.060 9.842 114.122 1.00
ATOM 2876 77O 0.792 10.988 113.734 1.00
ATOM 2877 77CB -0.677 8.593 112.831 1.00
ATOM 2878 77CG -1.576 7.890 113.853 1.00
ATOM 2879 77CD1 -2.960 8.502 113.798 1.00
ATOM 2880 77CD2 -1.634 6.395 113.570 1.00
ATOM 2881 78N 1.581 9.575 115.316 1.00
ATOM 2882 78CA 1.900 10.624 116.273 1.00
ATOM 2883 78C 3.320 11.144 116.027 1.00
ATOM 2884 78O 4.102 11.317 116.961 1.00
ATOM 2885 78CB 1.778 10.086 117.705 1.00
ATOM 2886 78OG 0.430 10.060 118.149 1.00
ATOM 2887 79N 3.648 11.376 114.759 1.00
ATOM 2888 79CA 4.959 11.895 114.380 1.00
ATOM 2889 79C 4.740 13.307 113.876 1.00
ATOM 2890 79O 3.759 13.563 113.187 1.00
ATOM 2891 79CB 5.572 11.069 113.258 1.00
ATOM 2892 79OG 6.427 11.885 112.470 1.00
ATOM 2893 80N 5.643 14.223 114.201 1.00
ATOM 2894 80CA 5.459 15.596 113.753 1.00
ATOM 2895 80C 5.381 15.641 112.234 1.00
ATOM 2896 80O 4.708 16.495 111.654 1.00
ATOM 2897 80CB 6.595 16.483 114.258 1.00
ATOM 2898 80CG 6.124 17.844 114.777 1.00
ATOM 2899 80CD 5.166 17.747 115.961 1.00
ATOM 2900 80OE1 3.943 17.939 115.765 1.00
ATOM 2901 80OE2 5.642 17.489 117.089 1.00
ATOM 2902 81N 6.063 14.701 111.597 1.00
ATOM 2903 81CA 6.059 14.624 110.148 1.00
ATOM 2904 81C 4.675 14.142 109.651 1.00
ATOM 2905 81O 4.196 14.565 108.593 1.00
ATOM 2906 81CB 7.202 13.692 109.704 1.00
ATOM 2907 81CG 6.914 12.809 108.503 1.00
ATOM 2908 81CD 7.902 11.650 108.439 1.00
ATOM 2909 81CE 7.869 10.961 107.081 1.00
ATOM 2910 81NZ 9.044 10.062 106.875 1.00
ATOM 2911 82N 4.027 13.281 110.438 1.00
ATOM 2912 82CA 2.709 12.740 110.093 1.00
ATOM 2913 82C 1.594 13.522 110.773 1.00
ATOM 2914 82O 0.441 13.452 110.369 1.00
ATOM 2915 82CB 2.590 11.271 110.518 1.00
ATOM 2916 82CG 3.694 10.399 109.945 1.00
ATOM 2917 82OD1 4.010 10.472 108.753 1.00
ATOM 2918 82ND2 4.284 9.556 110.795 1.00
ATOM 2919 83N 1.939 14.245 111.830 1.00
ATOM 2920 83CA 0.954 15.039 112.543 1.00
ATOM 2921 83C 0.403 16.035 111.546 1.00
ATOM 2922 83O -0.806 16.229 111.446 1.00
ATOM 2923 83CB 1.603 15.789 113.703 1.00
ATOM 2924 83CG 1.050 15.409 115.054 1.00
ATOM 2925 83CD 1.578 14.055 115.487 1.00
ATOM 2926 83CE 2.711 14.210 116.489 1.00
ATOM 2927 83NZ 2.254 14.024 117.894 1.00
ATOM 2928 84N 1.305 16.667 110.803 1.00
ATOM 2929 84CA 0.899 17.635 109.802 1.00
ATOM 2930 84C 0.510 16.881 108.535 1.00
ATOM 2931 84O 0.979 17.189 107.438 1.00
ATOM 2932 84CB 2.028 18.640 109.529 1.00
ATOM 2933 84CG 2.288 19.613 110.687 1.00
ATOM 2934 84CD 1.203 20.678 110.862 1.00
ATOM 2935 84OE1 0.706 21.196 109.838 1.00
ATOM 2936 84OE2 0.853 21.000 112.025 1.00
ATOM 2937 85N -0.342 15.873 108.711 1.00
ATOM 2938 85CA -0.839 15.070 107.603 1.00
ATOM 2939 85C -2.302 15.417 107.366 1.00
ATOM 2940 85O -2.991 15.897 108.269 1.00
ATOM 2941 85CB -0.709 13.584 107.905 1.00
ATOM 2942 85CG 0.002 12.783 106.818 1.00
ATOM 2943 85CD1 1.511 13.009 106.909 1.00
ATOM 2944 85CD2 -0.343 11.313 106.981 1.00
ATOM 2945 86N -2.780 15.153 106.156 1.00
ATOM 2946 86CA -4.149 15.493 105.790 1.00
ATOM 2947 86C -5.109 14.343 105.951 1.00
ATOM 2948 86O -4.728 13.181 105.808 1.00
ATOM 2949 86CB -4.196 16.004 104.352 1.00
ATOM 2950 86CG -3.406 17.293 104.117 1.00
ATOM 2951 86CD -1.953 17.217 104.622 1.00
ATOM 2952 86CE -1.148 16.099 103.953 1.00
ATOM 2953 86NZ 0.040 15.683 104.763 1.00
ATOM 2954 87N -6.364 14.686 106.231 1.00
ATOM 2955 87CA -7.409 13.691 106.449 1.00
ATOM 2956 87C -8.493 13.730 105.384 1.00
ATOM 2957 87O -8.607 14.699 104.642 1.00
ATOM 2958 87CB -8.056 13.883 107.846 1.00
ATOM 2959 87CG1 -7.585 15.201 108.443 1.00
ATOM 2960 87CG2 -9.589 13.839 107.754 1.00
ATOM 2961 88N -9.290 12.668 105.329 1.00
ATOM 2962 88CA -10.367 12.599 104.365 1.00
ATOM 2963 88C -11.700 12.470 105.074 1.00
ATOM 2964 88O -11.902 13.027 106.165 1.00
ATOM 2965 89N -12.623 11.748 104.448 1.00
ATOM 2966 89CA -13.928 11.526 105.049 1.00
ATOM 2967 89C -13.649 10.602 106.227 1.00
ATOM 2968 89O -12.689 9.817 106.212 1.00
ATOM 2969 89CB -14.865 10.836 104.055 1.00
ATOM 2970 89CG -14.261 9.578 103.448 1.00
ATOM 2971 89CD -15.218 8.878 102.505 1.00
ATOM 2972 89NE -14.660 7.629 101.991 1.00
ATOM 2973 89CZ -14.116 7.492 100.784 1.00
ATOM 2974 89NH1 -14.056 8.530 99.961 1.00
ATOM 2975 89NH2 -13.641 6.315 100.394 1.00
ATOM 2976 90N -14.453 10.709 107.270 1.00
ATOM 2977 90CA -14.232 9.853 108.414 1.00
ATOM 2978 90C -15.514 9.552 109.184 1.00
ATOM 2979 90O -16.434 10.371 109.260 1.00
ATOM 2980 90CB -13.156 10.463 109.328 1.00
ATOM 2981 90CG1 -13.341 11.979 109.403 1.00
ATOM 2982 90CG2 -13.203 9.804 110.695 1.00
ATOM 2983 91N -15.566 8.352 109.747 1.00
ATOM 2984 91CA -16.737 7.917 110.483 1.00
ATOM 2985 91C -16.438 7.342 111.854 1.00
ATOM 2986 91O -15.331 6.878 112.143 1.00
ATOM 2987 91CB -17.485 6.855 109.691 1.00
ATOM 2988 91CG -17.373 5.488 110.372 1.00
ATOM 2989 91CD1 -18.693 5.187 111.053 1.00
ATOM 2990 91CD2 -16.989 4.400 109.375 1.00
ATOM 2991 92N -17.471 7.364 112.684 1.00
ATOM 2992 92CA -17.404 6.832 114.031 1.00
ATOM 2993 92C -18.626 5.968 114.239 1.00
ATOM 2994 92O -19.722 6.286 113.778 1.00
ATOM 2995 92CB -17.384 7.962 115.069 1.00
ATOM 2996 92CG -18.636 8.414 115.852 1.00
ATOM 2997 92CD1 -19.701 8.949 114.904 1.00
ATOM 2998 92CD2 -19.174 7.267 116.687 1.00
ATOM 2999 93N -18.426 4.849 114.909 1.00
ATOM 3000 93CA -19.523 3.955 115.215 1.00
ATOM 3001 93C -19.150 3.408 116.571 1.00
ATOM 3002 93O -18.061 3.690 117.074 1.00
ATOM 3003 93CB -19.650 2.846 114.177 1.00
ATOM 3004 93CG -18.445 2.016 114.067 1.00
ATOM 3005 93CD1 -17.360 2.237 113.267 1.00
ATOM 3006 93CD2 -18.185 0.813 114.778 1.00
ATOM 3007 93NE1 -16.437 1.238 113.438 1.00
ATOM 3008 93CE2 -16.921 0.348 114.360 1.00
ATOM 3009 93CE3 -18.899 0.077 115.730 1.00
ATOM 3010 93CZ2 -16.354 -0.822 114.864 1.00
ATOM 3011 93CZ3 -18.334 -1.088 116.232 1.00
ATOM 3012 93CH2 -17.076 -1.524 115.797 1.00
ATOM 3013 94N -20.031 2.620 117.166 1.00
ATOM 3014 94CA -19.744 2.137 118.501 1.00
ATOM 3015 94C -20.242 0.754 118.867 1.00
ATOM 3016 94O -21.384 0.381 118.579 1.00
ATOM 3017 94CB -20.283 3.138 119.519 1.00
ATOM 3018 94CG -21.660 3.772 119.263 1.00
ATOM 3019 94CD1 -21.452 5.252 119.021 1.00
ATOM 3020 94CD2 -22.401 3.129 118.077 1.00
ATOM 3021 95N -19.351 -0.005 119.494 1.00
ATOM 3022 95CA -19.685 -1.337 119.950 1.00
ATOM 3023 95C -19.979 -1.186 121.430 1.00
ATOM 3024 95O -19.230 -0.525 122.148 1.00
ATOM 3025 96N -21.066 -1.791 121.890 1.00
ATOM 3026 96CA -21.446 -1.682 123.290 1.00
ATOM 3027 96C -22.089 -2.957 123.803 1.00
ATOM 3028 96O -22.477 -3.832 123.025 1.00
ATOM 3029 96CB -22.429 -0.523 123.477 1.00
ATOM 3030 96CG -23.579 -0.369 122.474 1.00
ATOM 3031 96CD1 -23.016 -0.008 121.108 1.00
ATOM 3032 96CD2 -24.402 -1.656 122.400 1.00
ATOM 3033 97N -22.222 -3.042 125.123 1.00
ATOM 3034 97CA -22.817 -4.208 125.747 1.00
ATOM 3035 97C -24.247 -4.450 125.256 1.00
ATOM 3036 97O -24.951 -3.512 124.879 1.00
ATOM 3037 97CB -22.797 -4.049 127.268 1.00
ATOM 3038 97CG -22.098 -5.191 128.017 1.00
ATOM 3039 97CD1 -20.733 -4.723 128.510 1.00
ATOM 3040 97CD2 -22.966 -5.669 129.181 1.00
ATOM 3041 98N -24.681 -5.725 125.237 1.00
ATOM 3042 98CA -26.030 -6.101 124.795 1.00
ATOM 3043 98C -27.098 -5.552 125.740 1.00
ATOM 3044 98O -28.069 -4.922 125.316 1.00
ATOM 3045 98CB -25.992 -7.628 124.805 1.00
ATOM 3046 98CG -24.930 -7.967 125.813 1.00
ATOM 3047 98CD -23.890 -6.907 125.629 1.00
ATOM 3048 99N -26.902 -5.812 127.027 1.00
ATOM 3049 99CA -27.809 -5.358 128.071 1.00
ATOM 3050 99C -27.626 -3.856 128.249 1.00
ATOM 3051 99O -26.845 -3.416 129.095 1.00
ATOM 3052 99CB -27.468 -6.082 129.371 1.00
ATOM 3053 99OG -26.232 -6.773 129.250 1.00
ATOM 3054 100N -28.359 -3.070 127.464 1.00
ATOM 3055 100CA -28.238 -1.615 127.511 1.00
ATOM 3056 100C -29.402 -0.852 128.136 1.00
ATOM 3057 100O -30.568 -1.115 127.834 1.00
ATOM 3058 100CB -28.014 -1.062 126.105 1.00
ATOM 3059 100CG1 -26.616 -1.428 125.627 1.00
ATOM 3060 100CG2 -29.074 -1.615 125.161 1.00
ATOM 3061 101N -29.060 0.114 128.992 1.00
ATOM 3062 101CA -30.036 0.952 129.693 1.00
ATOM 3063 101C -30.497 2.140 128.848 1.00
ATOM 3064 101O -29.790 3.145 128.718 1.00
ATOM 3065 101CB -29.443 1.452 131.020 1.00
ATOM 3066 102N -31.694 2.019 128.288 1.00
ATOM 3067 102CA -32.232 3.081 127.465 1.00
ATOM 3068 102C -31.501 3.179 126.144 1.00
ATOM 3069 102O -30.661 2.342 125.822 1.00
ATOM 3070 103N -31.837 4.206 125.374 1.00
ATOM 3071 103CA -31.216 4.438 124.079 1.00
ATOM 3072 103C -30.402 5.711 124.212 1.00
ATOM 3073 103O -30.714 6.569 125.037 1.00
ATOM 3074 103CB -32.293 4.601 122.996 1.00
ATOM 3075 103CG -31.854 5.381 121.758 1.00
ATOM 3076 103CD -32.318 6.834 121.820 1.00
ATOM 3077 103NE -32.708 7.345 120.510 1.00
ATOM 3078 103CZ -33.364 8.485 120.319 1.00
ATOM 3079 103NH1 -33.707 9.239 121.355 1.00
ATOM 3080 103NH2 -33.685 8.870 119.090 1.00
ATOM 3081 104N -29.353 5.835 123.405 1.00
ATOM 3082 104CA -28.504 7.017 123.476 1.00
ATOM 3083 104C -27.822 7.353 122.144 1.00
ATOM 3084 104O -27.820 6.546 121.213 1.00
ATOM 3085 104CB -27.425 6.835 124.549 1.00
ATOM 3086 104CG1 -26.241 6.075 123.948 1.00
ATOM 3087 104CG2 -27.998 6.089 125.765 1.00
ATOM 3088 104CD1 -26.624 4.769 123.294 1.00
ATOM 3089 105N -27.229 8.544 122.068 1.00
ATOM 3090 105CA -26.572 8.994 120.844 1.00
ATOM 3091 105C -25.178 9.571 121.090 1.00
ATOM 3092 105O -24.763 9.727 122.236 1.00
ATOM 3093 105CB -27.448 10.049 120.163 1.00
ATOM 3094 105CG -28.951 9.900 120.445 1.00
ATOM 3095 105CD -29.576 11.177 121.026 1.00
ATOM 3096 105CE -31.102 11.064 121.142 1.00
ATOM 3097 105NZ -31.829 12.276 120.648 1.00
ATOM 3098 106N -24.475 9.908 120.006 1.00
ATOM 3099 106CA -23.119 10.464 120.085 1.00
ATOM 3100 106C -22.599 11.057 118.766 1.00
ATOM 3101 106O -22.939 10.588 117.681 1.00
ATOM 3102 106CB -22.169 9.398 120.569 1.00
ATOM 3103 107N -21.757 12.084 118.874 1.00
ATOM 3104 107CA -21.203 12.766 117.704 1.00
ATOM 3105 107C -19.783 13.307 117.930 1.00
ATOM 3106 107O -19.000 12.754 118.703 1.00
ATOM 3107 107CB -22.120 13.931 117.316 1.00
ATOM 3108 107SG -22.190 15.288 118.545 1.00
ATOM 3109 108N -19.461 14.394 117.231 1.00
ATOM 3110 108CA -18.153 15.035 117.351 1.00
ATOM 3111 108C -18.063 16.402 116.648 1.00
ATOM 3112 108O -18.451 16.559 115.478 1.00
ATOM 3113 108CB -17.050 14.114 116.809 1.00
ATOM 3114 108CG1 -17.621 13.220 115.717 1.00
ATOM 3115 108CG2 -15.885 14.942 116.294 1.00
ATOM 3116 109N -17.540 17.384 117.380 1.00
ATOM 3117 109CA -17.375 18.743 116.872 1.00
ATOM 3118 109C -16.215 19.408 117.592 1.00
ATOM 3119 109O -15.761 18.919 118.627 1.00
ATOM 3120 109CB -18.650 19.548 117.082 1.00
ATOM 3121 110N -15.739 20.518 117.036 1.00
ATOM 3122 110CA -14.614 21.262 117.606 1.00
ATOM 3123 110C -14.748 21.449 119.112 1.00
ATOM 3124 110O -15.799 21.887 119.582 1.00
ATOM 3125 110CB -14.496 22.635 116.933 1.00
ATOM 3126 110CG -13.604 22.654 115.697 1.00
ATOM 3127 110CD -14.315 22.137 114.457 1.00
ATOM 3128 110OE1 -15.567 22.159 114.438 1.00
ATOM 3129 110OE2 -13.626 21.712 113.503 1.00
ATOM 3130 111N -13.676 21.124 119.844 1.00
ATOM 3131 111CA -13.622 21.238 121.307 1.00
ATOM 3132 111C -14.715 22.176 121.814 1.00
ATOM 3133 111O -14.456 23.326 122.178 1.00
ATOM 3134 111CB -12.236 21.743 121.748 1.00
ATOM 3135 111CG -12.133 22.111 123.222 1.00
ATOM 3136 111CD -11.129 23.231 123.444 1.00
ATOM 3137 111CE -10.972 23.549 124.921 1.00
ATOM 3138 111NZ -10.219 22.484 125.641 1.00
ATOM 3139 112N -15.942 21.662 121.830 1.00
ATOM 3140 112CA -17.112 22.420 122.248 1.00
ATOM 3141 112C -16.970 23.077 123.609 1.00
ATOM 3142 112O -16.356 22.525 124.531 1.00
ATOM 3143 112CB -18.349 21.518 122.266 1.00
ATOM 3144 112CG -19.119 21.463 120.963 1.00
ATOM 3145 112CD -19.385 22.828 120.380 1.00
ATOM 3146 112OE1 -18.679 23.274 119.471 1.00
ATOM 3147 112NE2 -20.408 23.505 120.895 1.00
ATOM 3148 113N -17.544 24.270 123.716 1.00
ATOM 3149 113CA -17.541 25.020 124.960 1.00
ATOM 3150 113C -18.614 24.341 125.795 1.00
ATOM 3151 113O -18.398 23.968 126.951 1.00
ATOM 3152 113CB -17.915 26.463 124.694 1.00
ATOM 3153 114N -19.777 24.186 125.177 1.00
ATOM 3154 114CA -20.901 23.521 125.808 1.00
ATOM 3155 114C -20.886 22.091 125.268 1.00
ATOM 3156 114O -20.864 21.876 124.055 1.00
ATOM 3157 114CB -22.209 24.228 125.441 1.00
ATOM 3158 114CG -23.097 24.537 126.637 1.00
ATOM 3159 114CD -22.907 23.538 127.765 1.00
ATOM 3160 114OE1 -22.055 23.724 128.637 1.00
ATOM 3161 114NE2 -23.700 22.469 127.751 1.00
ATOM 3162 115N -20.883 21.119 126.174 1.00
ATOM 3163 115CA -20.837 19.711 125.797 1.00
ATOM 3164 115C -22.094 19.200 125.102 1.00
ATOM 3165 115O -22.016 18.469 124.113 1.00
ATOM 3166 115CB -20.551 18.868 127.028 1.00
ATOM 3167 116N -23.255 19.568 125.629 1.00
ATOM 3168 116CA -24.518 19.126 125.051 1.00
ATOM 3169 116C -24.780 19.819 123.715 1.00
ATOM 3170 116O -25.392 19.238 122.817 1.00
ATOM 3171 116CB -25.670 19.422 126.020 1.00
ATOM 3172 116CG -26.263 18.192 126.680 1.00
ATOM 3173 116CD -25.697 17.948 128.063 1.00
ATOM 3174 116OE1 -24.761 18.673 128.460 1.00
ATOM 3175 116OE2 -26.187 17.031 128.753 1.00
ATOM 3176 117N -24.303 21.058 123.598 1.00
ATOM 3177 117CA -24.485 21.879 122.397 1.00
ATOM 3178 117C -24.010 21.202 121.133 1.00
ATOM 3179 117O -24.468 21.534 120.040 1.00
ATOM 3180 117CB -23.763 23.217 122.558 1.00
ATOM 3181 118N -23.081 20.263 121.288 1.00
ATOM 3182 118CA -22.526 19.526 120.155 1.00
ATOM 3183 118C -23.622 18.941 119.267 1.00
ATOM 3184 118O -23.613 19.128 118.048 1.00
ATOM 3185 118CB -21.614 18.405 120.656 1.00
ATOM 3186 119N -24.569 18.249 119.890 1.00
ATOM 3187 119CA -25.666 17.604 119.180 1.00
ATOM 3188 119C -26.584 18.547 118.403 1.00
ATOM 3189 119O -27.391 18.112 117.577 1.00
ATOM 3190 119CB -26.458 16.762 120.177 1.00
ATOM 3191 119CG -25.606 15.769 120.918 1.00
ATOM 3192 119CD1 -25.045 16.094 122.150 1.00
ATOM 3193 119CD2 -25.336 14.515 120.367 1.00
ATOM 3194 119CE1 -24.225 15.187 122.820 1.00
ATOM 3195 119CE2 -24.520 13.599 121.028 1.00
ATOM 3196 119CZ -23.962 13.936 122.257 1.00
ATOM 3197 120N -26.448 19.840 118.650 1.00
ATOM 3198 120CA -27.266 20.818 117.959 1.00
ATOM 3199 120C -26.609 21.238 116.657 1.00
ATOM 3200 120O -27.221 21.904 115.825 1.00
ATOM 3201 120CB -27.446 22.051 118.835 1.00
ATOM 3202 120CG -27.564 21.755 120.308 1.00
ATOM 3203 120CD -28.710 22.508 120.929 1.00
ATOM 3204 120OE1 -29.668 21.908 121.423 1.00
ATOM 3205 120NE2 -28.629 23.838 120.898 1.00
ATOM 3206 121N -25.363 20.826 116.474 1.00
ATOM 3207 121CA -24.633 21.239 115.292 1.00
ATOM 3208 121C -23.852 20.204 114.450 1.00
ATOM 3209 121O -23.625 20.448 113.266 1.00
ATOM 3210 121CB -23.684 22.427 115.678 1.00
ATOM 3211 121CG1 -22.575 21.945 116.609 1.00
ATOM 3212 121CG2 -23.109 23.076 114.429 1.00
ATOM 3213 122N -23.455 19.059 115.009 1.00
ATOM 3214 122CA -22.674 18.074 114.236 1.00
ATOM 3215 122C -23.348 17.573 112.950 1.00
ATOM 3216 122O -24.563 17.370 112.919 1.00
ATOM 3217 122CB -22.308 16.892 115.120 1.00
ATOM 3218 123N -22.548 17.369 111.901 1.00
ATOM 3219 123CA -23.047 16.904 110.601 1.00
ATOM 3220 123C -23.850 15.593 110.681 1.00
ATOM 3221 123O -24.944 15.486 110.111 1.00
ATOM 3222 123CB -21.862 16.791 109.612 1.00
ATOM 3223 123CG -21.497 15.676 108.601 1.00
ATOM 3224 123CD1 -21.187 14.401 109.351 1.00
ATOM 3225 123CD2 -22.596 15.453 107.565 1.00
ATOM 3226 124N -23.317 14.607 111.398 1.00
ATOM 3227 124CA -23.991 13.318 111.553 1.00
ATOM 3228 124C -24.038 12.925 113.020 1.00
ATOM 3229 124O -23.384 13.541 113.853 1.00
ATOM 3230 124CB -23.269 12.251 110.758 1.00
ATOM 3231 125N -24.802 11.891 113.343 1.00
ATOM 3232 125CA -24.898 11.482 114.732 1.00
ATOM 3233 125C -25.227 10.005 114.954 1.00
ATOM 3234 125O -26.301 9.517 114.582 1.00
ATOM 3235 125CB -25.928 12.357 115.476 1.00
ATOM 3236 125CG1 -27.355 11.962 115.085 1.00
ATOM 3237 125CG2 -25.715 12.232 116.966 1.00
ATOM 3238 126N -24.287 9.292 115.564 1.00
ATOM 3239 126CA -24.490 7.882 115.835 1.00
ATOM 3240 126C -25.658 7.745 116.809 1.00
ATOM 3241 126O -25.539 8.057 117.994 1.00
ATOM 3242 126CB -23.228 7.281 116.430 1.00
ATOM 3243 127N -26.799 7.307 116.296 1.00
ATOM 3244 127CA -27.970 7.128 117.136 1.00
ATOM 3245 127C -28.211 5.643 117.380 1.00
ATOM 3246 127O -28.034 4.819 116.481 1.00
ATOM 3247 127CB -29.196 7.744 116.463 1.00
ATOM 3248 127CG -30.312 8.060 117.447 1.00
ATOM 3249 127OD1 -31.012 9.074 117.232 1.00
ATOM 3250 127OD2 -30.493 7.304 118.429 1.00
ATOM 3251 128N -28.623 5.309 118.599 1.00
ATOM 3252 128CA -28.905 3.924 118.971 1.00
ATOM 3253 128C -30.292 3.538 118.466 1.00
ATOM 3254 128O -30.524 2.408 118.016 1.00
ATOM 3255 128CB -28.848 3.762 120.496 1.00
ATOM 3256 128OG -29.925 2.965 120.976 1.00
ATOM 3257 129N -31.213 4.495 118.539 1.00
ATOM 3258 129CA -32.577 4.271 118.094 1.00
ATOM 3259 129C -32.570 3.896 116.618 1.00
ATOM 3260 129O -33.381 3.080 116.175 1.00
ATOM 3261 129CB -33.417 5.531 118.309 1.00
ATOM 3262 129OG -34.805 5.241 118.254 1.00
ATOM 3263 130N -31.631 4.477 115.873 1.00
ATOM 3264 130CA -31.504 4.215 114.443 1.00
ATOM 3265 130C -30.973 2.797 114.181 1.00
ATOM 3266 130O -30.442 2.138 115.087 1.00
ATOM 3267 130CB -30.574 5.259 113.799 1.00
ATOM 3268 130CG -31.168 6.672 113.709 1.00
ATOM 3269 130CD -30.766 7.385 112.418 1.00
ATOM 3270 130CE -29.257 7.342 112.193 1.00
ATOM 3271 130NZ -28.587 8.572 112.692 1.00
ATOM 3272 131N -31.138 2.325 112.948 1.00
ATOM 3273 131CA -30.668 0.997 112.553 1.00
ATOM 3274 131C -29.148 1.085 112.385 1.00
ATOM 3275 131O -28.412 0.111 112.582 1.00
ATOM 3276 131CB -31.319 0.584 111.224 1.00
ATOM 3277 131CG -31.632 -0.911 111.083 1.00
ATOM 3278 131CD -32.002 -1.319 109.653 1.00
ATOM 3279 131OE1 -31.728 -0.543 108.707 1.00
ATOM 3280 131OE2 -32.568 -2.422 109.476 1.00
ATOM 3281 132N -28.679 2.279 112.041 1.00
ATOM 3282 132CA -27.256 2.497 111.852 1.00
ATOM 3283 132C -26.663 3.338 112.960 1.00
ATOM 3284 132O -26.756 4.573 112.962 1.00
ATOM 3285 132CB -26.959 3.157 110.512 1.00
ATOM 3286 132CG1 -26.954 2.095 109.433 1.00
ATOM 3287 132CG2 -27.993 4.242 110.221 1.00
ATOM 3288 133N -26.030 2.639 113.889 1.00
ATOM 3289 133CA -25.402 3.256 115.041 1.00
ATOM 3290 133C -24.044 3.801 114.650 1.00
ATOM 3291 133O -23.001 3.267 115.044 1.00
ATOM 3292 133CB -25.213 2.236 116.139 1.00
ATOM 3293 133CG1 -26.532 2.017 116.855 1.00
ATOM 3294 133CG2 -24.695 0.927 115.530 1.00
ATOM 3295 134N -24.065 4.865 113.858 1.00
ATOM 3296 134CA -22.839 5.486 113.401 1.00
ATOM 3297 134C -23.143 6.744 112.609 1.00
ATOM 3298 134O -24.266 6.940 112.125 1.00
ATOM 3299 134CB -22.056 4.507 112.541 1.00
ATOM 3300 135N -22.117 7.578 112.466 1.00
ATOM 3301 135CA -22.223 8.830 111.739 1.00
ATOM 3302 135C -21.107 8.952 110.704 1.00
ATOM 3303 135O -19.962 8.566 110.947 1.00
ATOM 3304 135CB -22.174 9.994 112.713 1.00
ATOM 3305 136N -21.452 9.482 109.538 1.00
ATOM 3306 136CA -20.477 9.655 108.476 1.00
ATOM 3307 136C -20.053 11.115 108.256 1.00
ATOM 3308 136O -20.834 11.974 107.822 1.00
ATOM 3309 136CB -21.007 9.059 107.172 1.00
ATOM 3310 136CG -19.911 8.458 106.302 1.00
ATOM 3311 136SD -18.237 8.880 106.882 1.00
ATOM 3312 136CE -17.275 7.574 106.111 1.00
ATOM 3313 137N -18.790 11.387 108.551 1.00
ATOM 3314 137CA -18.257 12.727 108.385 1.00
ATOM 3315 137C -17.500 12.837 107.072 1.00
ATOM 3316 137O -16.291 13.108 107.011 1.00
ATOM 3317 137CB -17.379 13.075 109.580 1.00
ATOM 3318 137CG -18.186 13.095 110.855 1.00
ATOM 3319 137CD1 -18.695 11.914 111.396 1.00
ATOM 3320 137CD2 -18.482 14.300 111.502 1.00
ATOM 3321 137CE1 -19.480 11.931 112.551 1.00
ATOM 3322 137CE2 -19.270 14.329 112.662 1.00
ATOM 3323 137CZ -19.763 13.140 113.178 1.00
ATOM 3324 137OH -20.521 13.151 114.328 1.00
ATOM 3325 138N -18.266 12.597 106.019 1.00
ATOM 3326 138CA -17.815 12.648 104.646 1.00
ATOM 3327 138C -17.541 14.104 104.340 1.00
ATOM 3328 138O -18.424 14.948 104.515 1.00
ATOM 3329 138CB -18.944 12.176 103.722 1.00
ATOM 3330 138OG1 -20.205 12.650 104.235 1.00
ATOM 3331 138CG2 -18.968 10.653 103.638 1.00
ATOM 3332 139N -16.322 14.395 103.898 1.00
ATOM 3333 139CA -15.932 15.760 103.555 1.00
ATOM 3334 139C -16.157 16.725 104.715 1.00
ATOM 3335 139O -15.707 17.874 104.685 1.00
ATOM 3336 139CB -16.706 16.231 102.313 1.00
ATOM 3337 139CG -17.684 17.355 102.616 1.00
ATOM 3338 139OD1 -18.767 17.068 103.171 1.00
ATOM 3339 139OD2 -17.371 18.522 102.295 1.00
ATOM 3340 140N -16.853 16.247 105.738 1.00
ATOM 3341 140CA -17.140 17.059 106.903 1.00
ATOM 3342 140C -15.822 17.517 107.514 1.00
ATOM 3343 140O -15.692 18.648 107.997 1.00
ATOM 3344 140CB -17.940 16.242 107.909 1.00
ATOM 3345 141N -14.835 16.634 107.474 1.00
ATOM 3346 141CA -13.551 16.970 108.039 1.00
ATOM 3347 141C -12.418 16.721 107.087 1.00
ATOM 3348 141O -11.249 16.753 107.462 1.00
ATOM 3349 141CB -13.373 16.216 109.338 1.00
ATOM 3350 141CG -14.090 16.862 110.482 1.00
ATOM 3351 141CD1 -14.766 16.093 111.437 1.00
ATOM 3352 141CD2 -14.103 18.259 110.597 1.00
ATOM 3353 141CE1 -15.447 16.712 112.490 1.00
ATOM 3354 141CE2 -14.776 18.885 111.640 1.00
ATOM 3355 141CZ -15.451 18.113 112.591 1.00
ATOM 3356 142N -12.791 16.492 105.836 1.00
ATOM 3357 142CA -11.835 16.275 104.767 1.00
ATOM 3358 142C -10.847 17.442 104.767 1.00
ATOM 3359 142O -11.241 18.607 104.644 1.00
ATOM 3360 142CB -12.565 16.222 103.420 1.00
ATOM 3361 142CG -12.064 15.152 102.465 1.00
ATOM 3362 142CD -13.138 14.118 102.173 1.00
ATOM 3363 142NE -13.926 14.468 100.995 1.00
ATOM 3364 142CZ -14.783 13.646 100.399 1.00
ATOM 3365 142NH1 -14.966 12.421 100.873 1.00
ATOM 3366 142NH2 -15.457 14.050 99.329 1.00
ATOM 3367 143N -9.566 17.117 104.911 1.00
ATOM 3368 143CA -8.531 18.135 104.917 1.00
ATOM 3369 143C -8.328 18.708 106.297 1.00
ATOM 3370 143O -9.142 19.502 106.764 1.00
ATOM 3371 144N -7.244 18.310 106.954 1.00
ATOM 3372 144CA -6.972 18.801 108.293 1.00
ATOM 3373 144C -5.769 18.144 108.976 1.00
ATOM 3374 144O -5.585 16.914 108.946 1.00
ATOM 3375 144CB -8.227 18.632 109.166 1.00
ATOM 3376 145N -4.949 18.987 109.597 1.00
ATOM 3377 145CA -3.785 18.506 110.313 1.00
ATOM 3378 145C -4.217 17.227 111.027 1.00
ATOM 3379 145O -5.164 17.228 111.820 1.00
ATOM 3380 145CB -3.301 19.549 111.359 1.00
ATOM 3381 145OG1 -2.809 20.712 110.680 1.00
ATOM 3382 145CG2 -2.187 18.973 112.242 1.00
ATOM 3383 146N -3.542 16.129 110.704 1.00
ATOM 3384 146CA -3.830 14.846 111.322 1.00
ATOM 3385 146C -3.550 14.985 112.810 1.00
ATOM 3386 146O -3.401 13.992 113.519 1.00
ATOM 3387 146CB -2.929 13.759 110.735 1.00
ATOM 3388 146CG -3.558 12.754 109.769 1.00
ATOM 3389 146CD1 -2.773 11.446 109.812 1.00
ATOM 3390 146CD2 -5.013 12.527 110.138 1.00
ATOM 3391 147N -3.457 16.234 113.258 1.00
ATOM 3392 147CA -3.205 16.541 114.651 1.00
ATOM 3393 147C -4.277 17.509 115.098 1.00
ATOM 3394 147O -4.687 17.499 116.257 1.00
ATOM 3395 148N -4.718 18.342 114.153 1.00
ATOM 3396 148CA -5.771 19.339 114.368 1.00
ATOM 3397 148C -6.832 18.696 115.244 1.00
ATOM 3398 148O -7.224 19.203 116.304 1.00
ATOM 3399 148CB -6.407 19.706 113.024 1.00
ATOM 3400 148CG -6.033 21.094 112.554 1.00
ATOM 3401 148OD1 -5.212 21.763 113.223 1.00
ATOM 3402 148OD2 -6.569 21.511 111.505 1.00
ATOM 3403 149N -7.282 17.562 114.736 1.00
ATOM 3404 149CA -8.279 16.702 115.340 1.00
ATOM 3405 149C -8.150 16.602 116.852 1.00
ATOM 3406 149O -9.154 16.575 117.566 1.00
ATOM 3407 149CB -8.119 15.331 114.713 1.00
ATOM 3408 149CG -6.729 15.311 114.066 1.00
ATOM 3409 149CD1 -5.811 14.489 114.944 1.00
ATOM 3410 149CD2 -6.786 14.787 112.638 1.00
ATOM 3411 150N -6.917 16.529 117.339 1.00
ATOM 3412 150CA -6.700 16.440 118.771 1.00
ATOM 3413 150C -7.594 17.465 119.451 1.00
ATOM 3414 150O -8.514 17.089 120.186 1.00
ATOM 3415 150CB -5.234 16.689 119.111 1.00
ATOM 3416 150CG -4.507 15.418 119.565 1.00
ATOM 3417 150CD1 -5.215 14.809 120.781 1.00
ATOM 3418 150CD2 -4.468 14.424 118.411 1.00
ATOM 3419 151N -7.338 18.753 119.210 1.00
ATOM 3420 151CA -8.204 19.764 119.802 1.00
ATOM 3421 151C -9.495 19.664 119.015 1.00
ATOM 3422 151O -9.628 20.221 117.924 1.00
ATOM 3423 151CB -7.629 21.182 119.699 1.00
ATOM 3424 151CG -8.287 22.152 120.700 1.00
ATOM 3425 151OD1 -8.691 21.761 121.803 1.00
ATOM 3426 151ND2 -8.395 23.417 120.308 1.00
ATOM 3427 152N -10.420 18.912 119.598 1.00
ATOM 3428 152CA -11.735 18.620 119.056 1.00
ATOM 3429 152C -12.130 17.302 119.735 1.00
ATOM 3430 152O -11.632 16.221 119.390 1.00
ATOM 3431 152CB -11.643 18.457 117.537 1.00
ATOM 3432 152CG -12.437 17.391 116.784 1.00
ATOM 3433 152CD1 -13.857 17.275 117.322 1.00
ATOM 3434 152CD2 -12.452 17.780 115.314 1.00
ATOM 3435 153N -13.009 17.410 120.724 1.00
ATOM 3436 153CA -13.460 16.253 121.477 1.00
ATOM 3437 153C -14.637 15.557 120.789 1.00
ATOM 3438 153O -15.067 15.960 119.696 1.00
ATOM 3439 153CB -13.829 16.687 122.914 1.00
ATOM 3440 153CG -13.559 18.176 123.224 1.00
ATOM 3441 153CD -12.294 18.416 124.051 1.00
ATOM 3442 153OE1 -12.102 17.803 125.100 1.00
ATOM 3443 153NE2 -11.432 19.319 123.581 1.00
ATOM 3444 154N -15.127 14.495 121.431 1.00
ATOM 3445 154CA -16.261 13.717 120.933 1.00
ATOM 3446 154C -17.312 13.653 122.035 1.00
ATOM 3447 154O -16.988 13.485 123.214 1.00
ATOM 3448 154CB -15.832 12.304 120.521 1.00
ATOM 3449 154CG1 -15.949 11.348 121.711 1.00
ATOM 3450 154CG2 -14.402 12.353 119.978 1.00
ATOM 3451 154CD1 -14.954 11.620 122.813 1.00
ATOM 3452 155N -18.573 13.771 121.650 1.00
ATOM 3453 155CA -19.632 13.803 122.640 1.00
ATOM 3454 155C -20.585 12.619 122.638 1.00
ATOM 3455 155O -20.947 12.098 121.587 1.00
ATOM 3456 155CB -20.363 15.144 122.497 1.00
ATOM 3457 155CG -19.375 16.299 122.500 1.00
ATOM 3458 155CD1 -18.697 16.678 121.330 1.00
ATOM 3459 155CD2 -19.019 16.930 123.695 1.00
ATOM 3460 155CE1 -17.677 17.648 121.363 1.00
ATOM 3461 155CE2 -18.005 17.898 123.738 1.00
ATOM 3462 155CZ -17.336 18.248 122.576 1.00
ATOM 3463 155OH -16.306 19.161 122.652 1.00
ATOM 3464 156N -20.979 12.203 123.842 1.00
ATOM 3465 156CA -21.872 11.059 124.048 1.00
ATOM 3466 156C -22.930 11.336 125.118 1.00
ATOM 3467 156O -22.608 11.792 126.212 1.00
ATOM 3468 156CB -21.048 9.847 124.477 1.00
ATOM 3469 156CG -19.701 10.219 125.115 1.00
ATOM 3470 156CD1 -19.933 10.960 126.416 1.00
ATOM 3471 156CD2 -18.880 8.973 125.369 1.00
ATOM 3472 157N -24.187 11.045 124.808 1.00
ATOM 3473 157CA -25.267 11.271 125.761 1.00
ATOM 3474 157C -25.966 9.956 126.055 1.00
ATOM 3475 157O -25.992 9.078 125.203 1.00
ATOM 3476 157CB -26.274 12.272 125.185 1.00
ATOM 3477 157CG -27.698 12.043 125.644 1.00
ATOM 3478 157CD1 -28.517 11.111 125.005 1.00
ATOM 3479 157CD2 -28.221 12.748 126.726 1.00
ATOM 3480 157CE1 -29.825 10.884 125.432 1.00
ATOM 3481 157CE2 -29.528 12.530 127.163 1.00
ATOM 3482 157CZ -30.325 11.597 126.512 1.00
ATOM 3483 157OH -31.619 11.382 126.935 1.00
ATOM 3484 158N -26.549 9.832 127.246 1.00
ATOM 3485 158CA -27.261 8.612 127.634 1.00
ATOM 3486 158C -28.580 8.937 128.313 1.00
ATOM 3487 158O -28.663 9.883 129.095 1.00
ATOM 3488 158CB -26.409 7.765 128.564 1.00
ATOM 3489 159N -29.619 8.172 127.999 1.00
ATOM 3490 159CA -30.929 8.399 128.602 1.00
ATOM 3491 159C -30.891 7.925 130.048 1.00
ATOM 3492 159O -31.396 8.592 130.950 1.00
ATOM 3493 159CB -32.016 7.640 127.831 1.00
ATOM 3494 159OG -31.538 6.395 127.354 1.00
ATOM 3495 160N -30.282 6.764 130.256 1.00
ATOM 3496 160CA -30.156 6.188 131.585 1.00
ATOM 3497 160C -28.699 6.244 131.992 1.00
ATOM 3498 160O -27.818 5.836 131.227 1.00
ATOM 3499 160CB -30.622 4.732 131.586 1.00
ATOM 3500 160CG -31.965 4.511 132.257 1.00
ATOM 3501 160CD -33.113 4.511 131.267 1.00
ATOM 3502 160OE1 -33.326 5.546 130.599 1.00
ATOM 3503 160OE2 -33.803 3.476 131.154 1.00
ATOM 3504 161N -28.448 6.758 133.193 1.00
ATOM 3505 161CA -27.089 6.854 133.708 1.00
ATOM 3506 161C -26.406 5.526 133.405 1.00
ATOM 3507 161O -27.076 4.497 133.253 1.00
ATOM 3508 161CB -27.110 7.119 135.213 1.00
ATOM 3509 162N -25.081 5.534 133.322 1.00
ATOM 3510 162CA -24.395 4.300 132.993 1.00
ATOM 3511 162C -22.902 4.207 133.320 1.00
ATOM 3512 162O -22.194 5.215 133.355 1.00
ATOM 3513 162CB -24.612 4.002 131.510 1.00
ATOM 3514 162CG1 -23.284 3.657 130.832 1.00
ATOM 3515 162CG2 -25.638 2.891 131.376 1.00
ATOM 3516 163N -22.408 2.971 133.543 1.00
ATOM 3517 163CA -21.011 2.660 133.872 1.00
ATOM 3518 163C -19.986 3.036 132.818 1.00
ATOM 3519 163O -20.317 3.422 131.691 1.00
ATOM 3520 163CB -21.018 1.154 134.109 1.00
ATOM 3521 163CG -22.188 0.666 133.329 1.00
ATOM 3522 163CD -23.222 1.743 133.489 1.00
ATOM 3523 164N -18.728 2.909 133.215 1.00
ATOM 3524 164CA -17.620 3.212 132.335 1.00
ATOM 3525 164C -17.288 1.923 131.614 1.00
ATOM 3526 164O -17.795 0.858 131.984 1.00
ATOM 3527 164CB -16.425 3.699 133.138 1.00
ATOM 3528 165N -16.437 2.024 130.594 1.00
ATOM 3529 165CA -16.041 0.871 129.791 1.00
ATOM 3530 165C -17.338 0.178 129.420 1.00
ATOM 3531 165O -17.355 -0.976 128.995 1.00
ATOM 3532 165CB -15.144 -0.078 130.596 1.00
ATOM 3533 165CG -14.041 0.611 131.403 1.00
ATOM 3534 165CD -12.958 1.212 130.507 1.00
ATOM 3535 165CE -12.019 2.126 131.294 1.00
ATOM 3536 165NZ -12.021 3.539 130.800 1.00
ATOM 3537 166N -18.425 0.920 129.603 1.00
ATOM 3538 166CA -19.765 0.451 129.321 1.00
ATOM 3539 166C -19.950 0.376 127.818 1.00
ATOM 3540 166O -20.946 -0.153 127.322 1.00
ATOM 3541 166CB -20.774 1.409 129.926 1.00
ATOM 3542 167N -18.972 0.898 127.091 1.00
ATOM 3543 167CA -19.044 0.911 125.638 1.00
ATOM 3544 167C -17.821 1.548 125.001 1.00
ATOM 3545 167O -17.237 2.502 125.524 1.00
ATOM 3546 167CB -20.271 1.699 125.136 1.00
ATOM 3547 167CG1 -20.262 3.074 125.730 1.00
ATOM 3548 167CG2 -20.241 1.816 123.619 1.00
ATOM 3549 168N -17.439 1.017 123.850 1.00
ATOM 3550 168CA -16.308 1.560 123.134 1.00
ATOM 3551 168C -16.870 2.338 121.972 1.00
ATOM 3552 168O -18.076 2.539 121.858 1.00
ATOM 3553 168CB -15.371 0.465 122.585 1.00
ATOM 3554 168CG1 -14.638 -0.219 123.732 1.00
ATOM 3555 168CG2 -16.164 -0.533 121.765 1.00
ATOM 3556 169N -15.975 2.806 121.123 1.00
ATOM 3557 169CA -16.365 3.569 119.963 1.00
ATOM 3558 169C -15.174 3.582 119.042 1.00
ATOM 3559 169O -14.070 3.965 119.441 1.00
ATOM 3560 169CB -16.706 5.002 120.339 1.00
ATOM 3561 169CG1 -16.017 5.365 121.641 1.00
ATOM 3562 169CG2 -16.273 5.941 119.222 1.00
ATOM 3563 170N -15.403 3.186 117.802 1.00
ATOM 3564 170CA -14.319 3.155 116.852 1.00
ATOM 3565 170C -14.380 4.350 115.938 1.00
ATOM 3566 170O -15.424 4.999 115.769 1.00
ATOM 3567 170CB -14.346 1.846 116.070 1.00
ATOM 3568 170CG -14.713 0.674 116.921 1.00
ATOM 3569 170ND1 -15.822 0.675 117.741 1.00
ATOM 3570 170CD2 -14.101 -0.517 117.114 1.00
ATOM 3571 170CE1 -15.877 -0.463 118.406 1.00
ATOM 3572 170NE2 -14.845 -1.204 118.044 1.00
ATOM 3573 171N -13.221 4.674 115.393 1.00
ATOM 3574 171CA -13.118 5.797 114.497 1.00
ATOM 3575 171C -12.315 5.401 113.273 1.00
ATOM 3576 171O -11.083 5.339 113.281 1.00
ATOM 3577 171CB -12.489 6.991 115.219 1.00
ATOM 3578 171CG -11.695 6.544 116.452 1.00
ATOM 3579 171CD1 -10.424 5.900 115.965 1.00
ATOM 3580 171CD2 -11.383 7.703 117.381 1.00
ATOM 3581 172N -13.054 5.100 112.219 1.00
ATOM 3582 172CA -12.453 4.735 110.958 1.00
ATOM 3583 172C -12.183 6.092 110.338 1.00
ATOM 3584 172O -13.109 6.865 110.094 1.00
ATOM 3585 172CB -13.447 3.934 110.118 1.00
ATOM 3586 172CG -14.390 3.085 110.950 1.00
ATOM 3587 172CD -13.785 1.749 111.293 1.00
ATOM 3588 172OE1 -13.627 0.942 110.357 1.00
ATOM 3589 172OE2 -13.462 1.506 112.481 1.00
ATOM 3590 173N -10.913 6.411 110.139 1.00
ATOM 3591 173CA -10.579 7.703 109.563 1.00
ATOM 3592 173C -9.685 7.659 108.338 1.00
ATOM 3593 173O -8.636 7.004 108.318 1.00
ATOM 3594 173CB -9.914 8.622 110.601 1.00
ATOM 3595 173CG1 -9.257 7.788 111.691 1.00
ATOM 3596 173CG2 -8.895 9.534 109.912 1.00
ATOM 3597 174N -10.115 8.390 107.321 1.00
ATOM 3598 174CA -9.367 8.477 106.093 1.00
ATOM 3599 174C -8.313 9.538 106.297 1.00
ATOM 3600 174O -8.579 10.592 106.873 1.00
ATOM 3601 174CB -10.278 8.867 104.938 1.00
ATOM 3602 174CG -9.809 8.356 103.593 1.00
ATOM 3603 174CD -10.875 8.477 102.522 1.00
ATOM 3604 174OE1 -11.119 7.468 101.825 1.00
ATOM 3605 174OE2 -11.462 9.577 102.378 1.00
ATOM 3606 175N -7.114 9.244 105.824 1.00
ATOM 3607 175CA -5.989 10.151 105.941 1.00
ATOM 3608 175C -4.964 9.642 104.952 1.00
ATOM 3609 175O -4.951 8.460 104.610 1.00
ATOM 3610 175CB -5.410 10.110 107.354 1.00
ATOM 3611 175CG -4.946 8.750 107.775 1.00
ATOM 3612 175ND1 -3.644 8.326 107.617 1.00
ATOM 3613 175CD2 -5.612 7.715 108.343 1.00
ATOM 3614 175CE1 -3.528 7.089 108.070 1.00
ATOM 3615 175NE2 -4.708 6.695 108.516 1.00
ATOM 3616 176N -4.127 10.541 104.466 1.00
ATOM 3617 176CA -3.096 10.175 103.512 1.00
ATOM 3618 176C -2.187 9.102 104.086 1.00
ATOM 3619 176O -1.729 9.198 105.224 1.00
ATOM 3620 176CB -2.233 11.394 103.145 1.00
ATOM 3621 176CG1 -2.718 11.984 101.845 1.00
ATOM 3622 176CG2 -2.286 12.440 104.262 1.00
ATOM 3623 177N -1.938 8.071 103.289 1.00
ATOM 3624 177CA -1.081 6.975 103.710 1.00
ATOM 3625 177C 0.338 7.499 103.925 1.00
ATOM 3626 177O 0.839 8.298 103.138 1.00
ATOM 3627 177CB -1.080 5.872 102.642 1.00
ATOM 3628 177CG -0.611 4.505 103.138 1.00
ATOM 3629 177CD -1.742 3.482 103.125 1.00
ATOM 3630 177NE -1.835 2.778 101.848 1.00
ATOM 3631 177CZ -2.945 2.691 101.121 1.00
ATOM 3632 177NH1 -4.065 3.265 101.539 1.00
ATOM 3633 177NH2 -2.934 2.031 99.971 1.00
ATOM 3634 178N 0.998 7.066 105.006 1.00
ATOM 3635 178CA 2.362 7.540 105.250 1.00
ATOM 3636 178C 3.371 6.797 104.373 1.00
ATOM 3637 178O 3.006 6.175 103.375 1.00
ATOM 3638 178CB 2.570 7.265 106.731 1.00
ATOM 3639 178CG 1.705 6.063 107.003 1.00
ATOM 3640 178CD 0.536 6.133 106.050 1.00
ATOM 3641 179N 4.641 6.853 104.759 1.00
ATOM 3642 179CA 5.693 6.193 103.999 1.00
ATOM 3643 179C 6.360 5.040 104.768 1.00
ATOM 3644 179O 7.002 4.177 104.172 1.00
ATOM 3645 179CB 6.755 7.226 103.564 1.00
ATOM 3646 179OG1 6.349 8.535 103.988 1.00
ATOM 3647 179CG2 6.904 7.230 102.050 1.00
ATOM 3648 180N 6.195 5.023 106.087 1.00
ATOM 3649 180CA 6.772 3.972 106.923 1.00
ATOM 3650 180C 6.354 2.587 106.432 1.00
ATOM 3651 180O 7.192 1.699 106.277 1.00
ATOM 3652 180CB 6.354 4.195 108.395 1.00
ATOM 3653 180CG 5.738 2.983 109.081 1.00
ATOM 3654 180CD1 6.510 1.864 109.402 1.00
ATOM 3655 180CD2 4.393 2.987 109.458 1.00
ATOM 3656 180CE1 5.953 0.773 110.091 1.00
ATOM 3657 180CE2 3.829 1.902 110.147 1.00
ATOM 3658 180CZ 4.612 0.796 110.464 1.00
ATOM 3659 181N 5.056 2.423 106.181 1.00
ATOM 3660 181CA 4.468 1.162 105.717 1.00
ATOM 3661 181C 5.392 0.341 104.823 1.00
ATOM 3662 181O 5.411 -0.889 104.885 1.00
ATOM 3663 181CB 3.166 1.446 104.957 1.00
ATOM 3664 181CG 1.932 0.981 105.709 1.00
ATOM 3665 181OD1 1.964 -0.131 106.283 1.00
ATOM 3666 181OD2 0.930 1.727 105.723 1.00
ATOM 3667 182N 6.157 1.040 103.998 1.00
ATOM 3668 182CA 7.070 0.410 103.063 1.00
ATOM 3669 182C 8.468 0.206 103.637 1.00
ATOM 3670 182O 8.624 -0.354 104.718 1.00
ATOM 3671 182CB 7.134 1.262 101.800 1.00
ATOM 3672 182CG 5.881 2.102 101.607 1.00
ATOM 3673 182OD1 5.889 3.292 101.987 1.00
ATOM 3674 182OD2 4.883 1.567 101.080 1.00
ATOM 3675 183N 9.473 0.666 102.899 1.00
ATOM 3676 183CA 10.887 0.555 103.266 1.00
ATOM 3677 183C 11.274 0.335 104.737 1.00
ATOM 3678 183O 10.595 0.784 105.661 1.00
ATOM 3679 183CB 11.634 1.781 102.738 1.00
ATOM 3680 183CG 10.926 3.073 102.997 1.00
ATOM 3681 183CD1 10.682 3.966 101.960 1.00
ATOM 3682 183CD2 10.497 3.400 104.283 1.00
ATOM 3683 183CE1 10.019 5.169 102.199 1.00
ATOM 3684 183CE2 9.835 4.597 104.535 1.00
ATOM 3685 183CZ 9.595 5.485 103.490 1.00
ATOM 3686 184N 12.401 -0.350 104.924 1.00
ATOM 3687 184CA 12.949 -0.656 106.244 1.00
ATOM 3688 184C 13.604 0.569 106.858 1.00
ATOM 3689 184O 13.110 1.696 106.752 1.00
ATOM 3690 184CB 14.026 -1.728 106.146 1.00
ATOM 3691 184CG 13.516 -3.127 106.245 1.00
ATOM 3692 184CD1 12.761 -3.685 105.221 1.00
ATOM 3693 184CD2 13.845 -3.916 107.336 1.00
ATOM 3694 184CE1 12.347 -5.017 105.282 1.00
ATOM 3695 184CE2 13.436 -5.248 107.408 1.00
ATOM 3696 184CZ 12.687 -5.800 106.379 1.00
ATOM 3697 185N 14.757 0.328 107.470 1.00
ATOM 3698 185CA 15.498 1.377 108.145 1.00
ATOM 3699 185C 16.977 1.451 107.773 1.00
ATOM 3700 185O 17.624 0.429 107.529 1.00
ATOM 3701 185CB 15.387 1.187 109.676 1.00
ATOM 3702 185OG1 14.657 2.280 110.240 1.00
ATOM 3703 185CG2 16.770 1.103 110.326 1.00
ATOM 3704 186N 17.531 2.674 107.723 1.00
ATOM 3705 186CA 18.945 2.854 107.389 1.00
ATOM 3706 186C 19.815 2.023 108.322 1.00
ATOM 3707 186O 19.855 2.260 109.528 1.00
ATOM 3708 186CB 19.179 4.351 107.585 1.00
ATOM 3709 186CG 17.841 4.966 107.413 1.00
ATOM 3710 186CD 16.853 3.963 107.945 1.00
ATOM 3711 187N 20.492 1.034 107.760 1.00
ATOM 3712 187CA 21.370 0.182 108.541 1.00
ATOM 3713 187C 22.446 1.059 109.188 1.00
ATOM 3714 187O 22.854 0.836 110.343 1.00
ATOM 3715 187CB 22.048 -0.858 107.632 1.00
ATOM 3716 187CG1 22.280 -0.261 106.232 1.00
ATOM 3717 187CG2 23.354 -1.308 108.249 1.00
ATOM 3718 188N 22.897 2.048 108.414 1.00
ATOM 3719 188CA 23.922 2.996 108.843 1.00
ATOM 3720 188C 23.286 4.118 109.629 1.00
ATOM 3721 188O 22.593 4.970 109.074 1.00
ATOM 3722 188CB 24.660 3.597 107.641 1.00
ATOM 3723 188CG 25.900 4.393 108.018 1.00
ATOM 3724 188CD1 27.176 3.843 107.881 1.00
ATOM 3725 188CD2 25.798 5.688 108.526 1.00
ATOM 3726 188CE1 28.325 4.561 108.243 1.00
ATOM 3727 188CE2 26.942 6.416 108.892 1.00
ATOM 3728 188CZ 28.201 5.846 108.749 1.00
ATOM 3729 188OH 29.332 6.552 109.115 1.00
ATOM 3730 189N 23.534 4.113 110.928 1.00
ATOM 3731 189CA 22.985 5.129 111.803 1.00
ATOM 3732 189C 24.135 5.862 112.495 1.00
ATOM 3733 189O 23.892 6.941 113.073 1.00
ATOM 3734 189CB 22.057 4.469 112.828 1.00
ATOM 3735 189CG 21.841 2.958 112.615 1.00
ATOM 3736 189CD 20.964 2.352 113.713 1.00
ATOM 3737 189NE 20.387 3.390 114.569 1.00
ATOM 3738 189CZ 20.453 3.398 115.899 1.00
ATOM 3739 189NH1 21.076 2.413 116.536 1.00
ATOM 3740 189NH2 19.908 4.398 116.594 1.00
ATOM 3741 189OXT 25.276 5.350 112.439 1.00
