538702,2714,96,123704,99,0
284646,1998,75,60144,78,0
246654,1520,64,58800,66,0
293322,2087,69,65352,72,0
215518,1228,73,61656,76,0
250288,1717,73,67032,76,0
284628,1651,84,70392,86,0
275002,1880,84,65352,85,0
295196,2007,70,52458,71,0
270814,2112,70,59934,73,0
251336,1573,74,59976,76,0
291138,2253,84,68670,87,0
273670,1850,54,52458,55,0
112638,985,48,24780,50,0
