294NH2	689OE1	2.7	2.70148014984
298NH1	689OE1	2.82	2.81730757994
302OD1	302OD1	3.35	3.35933832771
692NZ	231OD2	2.92	2.91506620851
694CH2	366CD	3.39	3.39206810073
694NE1	293CD	3.38	3.38212492377
695ND2	710CG1	3.16	3.1600729422
696CD	293CB	3.29	3.29197326842
697CG	294NE	2.9	2.90227548658
699CB	701OG1	3.16	3.16325433691
699CG	297OE1	2.94	2.94386446699
720OH	694NE1	2.73	2.73538205741

