227OD1	401CB	3.46241274258
232CB	397OH	2.83847053886
292CB	397CE2	3.36955560868
319OE1	337OG1	3.09175128366
321NZ	335OD1	3.14536452577
334OD1	337OG1	3.0727126452
368OD2	665CD	3.30159688636
371SD	661CD1	3.44491654471
405CG2	404NH1	3.03971544721
677NE2	402CE	2.89963083857
704CE1	389NH1	3.03282970178
706NZ	382ND2	3.02232112788

